xpos,ypos,zpos,time
43.5657527543116,23.6292882297781,12.0248054286759,0
43.7324686957969,21.5757422242292,11.9322119090432,0.0681258012680956
43.8991418710375,19.5139567660975,11.8866359537278,0.135445218875518
44.0656951992102,17.4524491671497,11.8206626839031,0.201795054908168
44.2320424637364,15.3939789180347,11.812408448533,0.26707099786092
44.3980521878407,13.3330012950584,11.725260264026,0.331584479042306
44.5635997627662,11.2646435644559,11.7032172202394,0.395413480054884
44.728694622684,9.19320785329319,11.6508573516996,0.458530557766004
44.8933017400814,7.12043790126148,11.5906091934412,0.520907600284637
45.0573866638002,5.04810699248486,11.4842950355809,0.582573966338778
45.2209055909649,2.97755128527848,11.4780662319167,0.643389590660085
45.3837980115509,0.909395600842515,11.4015724376817,0.703489615780867
45.5459795601328,-1.15664657458984,11.3659669218282,0.76284000324813
45.7073499897549,-3.22139644972066,11.275520359915,0.82157117021255
45.8678168710129,-5.28544579422442,11.2541422256431,0.879625327712525
46.0273011450147,-7.3490447776918,11.1513883319642,0.937153480880504
46.1857290177931,-9.41232607376816,11.1424135384453,0.994043449556784
46.3430161950495,-11.4756279927833,11.0365561765049,1.05046842473435
46.4991406425191,-13.5382136396527,10.9879172442171,1.1062965694131
46.6541314627831,-15.5985627035662,10.9763897360797,1.16155046753921
46.8079244047851,-17.6564254014878,10.9765321485135,1.21625604874617
46.9603556559007,-19.712749327137,10.9766738660899,1.27045659153992
47.111162283342,-21.7695305112865,10.9768150497319,1.32421972673929
47.2600738976434,-23.8288343794825,10.9769558648483,1.37761240245393
47.4069583733848,-25.8915856432742,10.9770963852971,1.43067042349547
47.5517880433746,-27.9579350904555,10.9772366190183,1.4834089144401
47.6947081642514,-30.0268672317802,10.9804995557153,1.53581344167731
47.8360059223029,-32.0964845076797,10.9775157800466,1.58784791193991
47.9758560641179,-34.1655384552178,10.9776544319606,1.63949296770351
48.1143147866346,-36.2334176396052,10.9777924065195,1.69074514002102
48.2512605136504,-38.3003986174739,10.9779297393382,1.74162218914187
48.3864534218807,-40.3673056251098,10.9780665013615,1.79215430688401
48.519897073689,-42.4339187024996,10.9782026784749,1.84234593494511
48.6517100640921,-44.499560875392,10.9783382151071,1.89219045968379
48.7819357658951,-46.5638314231001,10.9362560917013,1.94169793523007
48.9099992703285,-48.628425838832,10.8746806200185,1.99091797975809
49.0350748462834,-50.6958261441733,10.82424213489,2.03989702443579
49.156695569517,-52.7674633744979,10.7179446341932,2.08873126645134
49.2746002653897,-54.8441970820188,10.7029638410357,2.13733430860743
49.3888807200403,-56.9259432504985,10.6118359631776,2.18581753459505
49.5002733100943,-59.0109381017033,10.5975857637381,2.23405648250953
49.6096036831755,-61.0971894064581,10.5289784929708,2.28208221103053
49.717418960927,-63.1834051739953,10.4834894374282,2.32983279935229
49.8234489081173,-65.270304187425,10.442322681499,2.3773431070187
49.9274721526662,-67.3584881466155,10.3536764268715,2.42466764459745
50.0296654747388,-69.4476293475867,10.2620544793466,2.47177408021272
50.1300929386114,-71.5376569021984,10.2548102934433,2.51861894374706
50.2288278285304,-73.6284794040374,10.1771052308203,2.56528226759585
50.3259453086714,-75.7200013576708,10.184658344839,2.61170346720155
50.4215240716017,-77.8121197618074,10.1804521938362,2.65791700569318
50.5156448584415,-79.9047273502379,10.125463524674,2.70394136700319
50.6083915573653,-81.9977104403496,10.106633203649,2.74974908778084
50.6998503847884,-84.0909506975817,10.1137508506968,2.79535470037095
50.7901078129822,-86.184329285986,10.1207758883988,2.84076175274851
50.8792442962734,-88.2777389404204,10.0958019719846,2.88597530838865
50.9673850180135,-90.3709879428182,10.0812110513212,2.93099052470551
51.0546590430469,-92.4638773734284,10.0813353347963,2.97580845090165
51.1411518781709,-94.5562877850186,10.0814589094264,3.02043178001791
51.2268983222909,-96.6481907788968,10.0662626108222,3.06486507386956
51.3118917617585,-98.7396311894473,10.0589380926251,3.10911105110591
51.396095949532,-100.830705498172,9.98182562681769,3.15320590589451
51.4794578388509,-102.921539062621,9.98194655872615,3.1970962709357
51.5619361030045,-105.012237361655,9.98206685167024,3.24081772703835
51.6435636208433,-107.102781618988,9.98218648974872,3.28437324187528
51.7243869257905,-109.193130476851,9.92248697407204,3.32778286991372
51.8044387687073,-111.283265096599,9.88242381806445,3.37102198659367
51.8837457138767,-113.373176629812,9.80797233567201,3.41412257646829
51.9623353953851,-115.462854519844,9.78265854250657,3.45704394528036
52.0402348553587,-117.552289144471,9.69350305264343,3.49984865895816
52.1174686053948,-119.641474833839,9.68289064863726,3.54246542569835
52.1940612962302,-121.730405702666,9.63011685554003,3.58494823355858
52.2700365863861,-123.819077383106,9.57188774257354,3.62728957006531
52.345417272243,-125.907486812466,9.54191018682788,3.66947703931834
52.4202260889611,-127.995631019312,9.45754324869961,3.7115551098894
52.4944837391336,-130.083510049884,9.45039126771158,3.7534623465627
52.568211895247,-132.171122523161,9.35927080199733,3.79527462860065
52.6414313861789,-134.258468286299,9.36497598832468,3.83691526914748
52.7141618136416,-136.345548956605,9.31586346733496,3.87843753423672
52.7864227392308,-138.432366207327,9.27627396009795,3.91982832583844
52.8582326043781,-140.518923297236,9.28186920059063,3.96108666058336
52.9296102395928,-142.605222936588,9.28743049374291,4.0022220198948
53.0005733831233,-144.691269352683,9.29295926430885,4.04323656369746
53.0711391188548,-146.777067671709,9.2984569326492,4.08413241777913
53.1413247971532,-148.862622651696,9.30392482590183,4.12491165114374
53.2111493496301,-150.947936904881,9.30936436833714,4.16557624401418
53.2806329656585,-153.033011350084,9.31477711737255,4.20612809847421
53.349761022606,-155.117893171912,9.32016197383509,4.2465699451197
53.4185387710123,-157.202603373798,9.32551933838013,4.28690397041913
53.4870202626078,-159.287099279824,9.33085334359804,4.32713112082771
53.5552886036737,-161.371300650801,9.33617034612877,4.36725160768606
53.623437924062,-163.455113119104,9.34147754090876,4.40726535428968
53.6915627223794,-165.53844181988,9.34678215188191,4.44717225368097
53.7597433996318,-167.621209524482,9.3520903315869,4.48697250612663
53.8280228229618,-169.703385582502,9.35740535875602,4.52666715166563
53.8963758380116,-171.785023151298,9.36272531228757,4.56625874793546
53.9647776113718,-173.86617487368,9.36804829444001,4.60574979932238
54.0332122655914,-175.946882252249,9.37337309175594,4.64514256313922
54.1016613186334,-178.027189697251,9.37869829358148,4.68443931082438
54.1701036150967,-180.107144428281,9.38402226605116,4.72364232666718
54.2385167757857,-182.186794277574,9.38934345575766,4.76277024520024
54.3068774987129,-184.266186082202,9.39466003905008,4.80209684780809
54.3751588827975,-186.345362442795,9.39996986197275,4.84188764396227
54.4428544702831,-188.423969354734,9.40523416316577,4.88214812809527
54.5094081904259,-190.501591177538,9.41041038067079,4.92288281815917
54.5742913767972,-192.577777666368,9.41545804742389,4.96409579372742
54.6370634824309,-194.651972502744,9.42034343878916,5.00578926864405
54.6972869753444,-196.723615712421,9.42503305733509,5.04796551605133
54.7537095117565,-198.793071566818,9.42374226326582,5.09064556817972
54.8044786715668,-200.861357809904,9.38687634182598,5.13387224000495
54.8493943426484,-202.92764988071,9.33691250570388,5.17764427403173
54.8887372835893,-204.990529630581,9.3400015069658,5.22192994149379
54.9229918245289,-207.048302543999,9.29998278621493,5.26673057580204
54.9531868713176,-209.098493434976,9.28723013852076,5.31199199361421
54.9800173945941,-211.139109409119,9.24721691036477,5.35769993056722
55.0023797552361,-213.170647866375,9.18740255684339,5.40388275074073
55.019013819125,-215.193806708452,9.18748769651148,5.45054037004652
55.0297988811362,-217.20793715256,9.17846073750133,5.4976948400605
55.0366164298111,-219.210183014255,9.15184200467917,5.54529856459977
55.0396480171015,-221.199450753822,9.08773837690963,5.59335717211806
55.0388495236592,-223.174865910174,9.08782005026783,5.64181807064884
55.0343550508954,-225.135392442184,9.07151534096175,5.69069627755052
55.0244087384856,-227.081593686852,8.9879805435464,5.74006308636147
55.0042397620766,-229.016419923415,8.9880599197086,5.78988141375385
54.9686803429967,-230.943117465479,8.98813930247936,5.84024112983466
54.9142446853753,-232.863735173054,8.97478874689326,5.89121247824527
54.8417146724163,-234.777374864573,8.88829889405087,5.9428669318502
54.7520248118997,-236.68303461818,8.87873201323343,5.9951165241089
54.6456433549693,-238.580027788906,8.82259443127901,6.04805498584512
54.5226630609744,-240.467921462947,8.78853928974615,6.101658014516
54.3805950857484,-242.34802343713,8.78793692174211,6.15597835505581
54.215820216637,-244.222398160464,8.691719621254,6.21123361788268
54.0364577293192,-246.085353536771,8.67622838138907,6.26718737462758
53.8424911831423,-247.93647882444,8.60107144972014,6.3239414873553
53.6247756605248,-249.781157524864,8.58894396387179,6.38150003143914
53.3700796308393,-251.627304708338,8.52541961710106,6.44002366895535
53.0658643612381,-253.482416371372,8.50220207303036,6.49964433081634
52.7094969173708,-255.348142302637,8.42064004440103,6.55991809892801
52.3043913525469,-257.222657514397,8.34405562965818,6.62008354315874
51.8588449520907,-259.101411104305,8.31002266889192,6.67993303793927
51.3894265723365,-260.975380602733,8.2318244490876,6.73916100263017
50.9001065328353,-262.842117429413,8.18957492576378,6.79760992422911
50.3859348037627,-264.703660778687,8.18967001747135,6.85543683077636
49.843781901629,-266.561165044525,8.15606780808193,6.91276412232196
49.2707679419973,-268.415667045257,8.11228103716226,6.96967916033579
48.6710688777432,-270.264973956008,8.06645075589095,7.02611016547316
48.0466449093361,-272.107881365468,8.01872685032373,7.08203296592148
47.396114927439,-273.94464093058,7.99015885878802,7.13748330184161
46.719491953266,-275.774910414689,7.99025885255523,7.19248595934622
46.0178988814722,-277.597885501611,7.990359470817,7.24704155955811
45.2914258196818,-279.413181319891,7.99046069698651,7.30116435021368
44.5415150715693,-281.2198791243,7.99056237737536,7.35484005755504
43.7699911523442,-283.016913705397,7.99066441702102,7.40804487271017
42.9794977276393,-284.802914516412,7.99076654577897,7.46073742052503
42.1680201583651,-286.578207122753,7.99086899280526,7.51297060189945
41.3317483758831,-288.34375788703,7.9909719666722,7.5648361875842
40.4693163298296,-290.099674740831,7.99107552853727,7.61637654574984
39.5812202705366,-291.845419199917,7.99117968318254,7.66759484382239
38.6670501499892,-293.580764983407,7.99128441327636,7.7185117976945
37.7254188428689,-295.305820606603,7.99138977532002,7.76916787246664
36.7555670371399,-297.020480735612,7.99149585459286,7.81959097318378
35.7577114047781,-298.724310839085,7.99160259995867,7.86978817796588
34.7295734553031,-300.417703845507,7.99171007929726,7.91981746122636
33.6697758137499,-302.100761364843,7.99181841600577,7.96971969976826
32.5805287357398,-303.772462690902,7.99192748068709,8.01946113130154
31.4643516829643,-305.431694007387,7.99203709332078,8.06899901048035
30.3205675174713,-307.078266138171,7.99214728146598,8.11835498036678
29.1483140952678,-308.712041298019,7.99225808426885,8.16755614892516
27.9499881330562,-310.332011665324,7.98205388611253,8.21677162106666
26.7311949015024,-311.9363449301,7.88883513523311,8.26639184724289
25.4963838996702,-313.523495265333,7.79439458847971,8.31654062214796
24.2471693733809,-315.092595318461,7.69884621589944,8.3672005602501
22.9813553252304,-316.643655675721,7.69281280020697,8.41830245222371
21.6914637288647,-318.177851893412,7.60336828947349,8.46997034899456
20.3688354440249,-319.696607069726,7.50220037331913,8.52220844309272
19.0092255562411,-321.200467772399,7.49314748437637,8.57466833366419
17.6176493496354,-322.68823138057,7.39326063302866,8.62706920099613
16.2046461878502,-324.157693182689,7.38367397689158,8.67907303274913
14.7791288805273,-325.606934426968,7.27462925946001,8.73063461522895
13.3449187572722,-327.034905026596,7.19359838432074,8.78157701922591
11.8987419625532,-328.441721390388,7.15429579823155,8.83198393581203
10.4324697351588,-329.828259930898,7.04212981943866,8.88213942415783
8.94016451436249,-331.195073598405,6.99393276134962,8.93205168751203
7.42191387110091,-332.541875568049,6.91183056339524,8.98182534277915
5.8827018958001,-333.867727213652,6.89415645358257,9.03130674906905
4.32697395917404,-335.171759424945,6.84440114392049,9.08046592076916
2.75668525714258,-336.453417979525,6.79437886912981,9.12926064842024
1.17056393163659,-337.71254989704,6.79448962436411,9.17780989360112
-0.435832145355221,-338.949388150009,6.77410178514401,9.22637099927273
-2.06643289553165,-340.16410518747,6.71175578049135,9.27495731640275
-3.72073522928667,-341.356369187147,6.69482148378228,9.3233911164364
-5.39509825633695,-342.525506461146,6.69493196000342,9.37162837783495
-7.08658692204727,-343.67091666526,6.70098521091839,9.41962017467354
-8.79279368597832,-344.792051556052,6.69515189314106,9.46743910484494
-10.5112027780917,-345.888352730119,6.71511187508065,9.51534589795962
-12.2408538808078,-346.959400399499,6.77024164786321,9.56352907086952
-13.9823371416458,-348.004905163783,6.82405682268846,9.6119808994446
-15.736771447397,-349.024619195004,6.87654502774846,9.66071002293252
-17.5059079355667,-350.018340651594,6.89569150219648,9.70969587243864
-19.2930130284066,-350.985968593729,6.89579798054132,9.75891132816261
-21.1015821519929,-351.927415964308,6.92598072243526,9.80818714439738
-22.9312164031564,-352.842378747289,6.97308616951891,9.85734747179738
-24.7783875829505,-353.730388299875,6.99611607555406,9.90631086164947
-26.6409660487611,-354.59104725526,6.99622129638491,9.95505021171911
-28.5184337449079,-355.424038894692,6.97183793882582,10.0035745667124
-30.409519849363,-356.229009275424,6.89643003841656,10.0518956642277
-32.3132109576158,-357.005770412667,6.79653351485848,10.1000682041738
-34.2318184406218,-357.754522334075,6.72498630758162,10.1481064930578
-36.1661456988538,-358.475387781417,6.64341154241998,10.1960138225543
-38.1121339110601,-359.168233770181,6.59684047617581,10.2436822864684
-40.0670627666055,-359.832999283894,6.49694128237343,10.2912025336342
-42.0337403910896,-360.469919320209,6.3970414469254,10.3387254301889
-44.0153809554304,-361.079249748338,6.37656030417797,10.3862138666381
-46.0094673721195,-361.660969088189,6.29724002528738,10.4335909926454
-48.01260335796,-362.21501511024,6.25585936220777,10.4807379193058
-50.0244505857352,-362.741464891769,6.20213434652234,10.5276926597412
-52.0426755089372,-363.240305240527,6.20871677210418,10.5743959589606
-54.0639666247301,-363.711478767619,6.19762714390314,10.6208046389533
-56.0866042897869,-364.155000194169,6.19772127100205,10.6668939976616
-58.1113410505762,-364.57099605283,6.17728131399865,10.7126977813413
-60.1393421714595,-364.95961121161,6.09790638461443,10.7582844198518
-62.1703276907043,-365.320928454178,6.09799729901657,10.803596124538
-64.2047294288476,-365.655059734575,6.03147099294777,10.8487124477481
-66.2423427481365,-365.962092838185,5.9981760130123,10.8936003760664
-68.281740129399,-366.24207418338,5.99826377756584,10.9382530857446
-70.3225722423553,-366.495081282025,5.99835043383059,10.9827274517073
-72.3644499982558,-366.721190703641,5.99843600250615,11.0271220291014
-74.4070011393678,-366.920479337249,5.99852039775356,11.0714840562803
-76.4512004681155,-367.09304327595,5.99860370216704,11.1158422344378
-78.4992634990169,-367.238989964248,5.99868595693643,11.1602517099978
-80.5529305078674,-367.358425032486,5.99876731806535,11.2047572836996
-82.6107787192143,-367.451457644173,5.99884767518974,11.2493345108664
-84.6682327833519,-367.518212817236,5.99892686854861,11.2938929646554
-86.7217802450241,-367.558807233347,5.99900479420063,11.338364578749
-88.7715091122418,-367.573322961276,5.99908139602281,11.3827581002389
-90.8187205831434,-367.561829450641,5.99915681737185,11.4271084456396
-92.8656742189569,-367.524386150938,5.99923104020604,11.4714713687253
-94.9140299540673,-367.461058599896,5.99930421857001,11.5158889090835
-96.962792611972,-367.371939696483,5.9993762611205,11.5603478525921
-99.008457830204,-367.257150229824,5.99944706442811,11.604780515493
-101.048195728611,-367.116802682902,5.99951655075885,11.6491312156627
-103.083117542169,-366.950954326955,5.99958471480214,11.6934277905025
-105.116494951523,-366.759627931018,6.00690796491173,11.7377638380912
-107.150100629527,-366.542872555682,6.09971751218095,11.7822857124149
-109.183878826533,-366.300771226546,6.19978225140952,11.8270078847855
-111.216318663102,-366.033435646072,6.21146987566513,11.8718580502687
-113.244491060782,-365.741008386177,6.29990808753702,11.9168665358127
-115.265806562371,-365.423623613884,6.39996904127935,11.9619596797619
-117.28047434646,-365.081336355545,6.42488966216367,12.007115388215
-119.289419590812,-364.714178513744,6.50008694512517,12.052451843972
-121.290132904582,-364.322307069849,6.60014379797865,12.0978973905454
-123.279773636651,-363.905892256643,6.70019923754915,12.1433419476123
-125.25692261621,-363.465043777614,6.71889623079779,12.1886853244835
-127.22140233201,-362.999817225613,6.80030564722517,12.2340141166405
-129.173650169856,-362.510242088225,6.80035650379188,12.2793070841783
-131.115853978355,-361.996279091825,6.85332856906046,12.3247307225041
-133.050002933037,-361.457895912343,6.9004542060867,12.3703311552802
-134.973421867462,-360.895204473212,6.90050098390934,12.4159610123064
-136.88125566168,-360.308377749288,6.97141952906169,12.4614638725687
-138.772016251266,-359.697500807754,7.00058969886323,12.5066308962442
-140.648740791678,-359.062546903319,7.00063183009654,12.5514540642896
-142.516050215099,-358.40345269584,7.0006724734367,12.5960512950392
-144.377838263314,-357.720170329243,7.00071196530998,12.6405315648918
-146.239766290278,-357.012615861732,7.00075032871048,12.6853173175063
-148.106161188706,-356.280734442825,7.00078766622582,12.7308138304262
-149.977873203217,-355.52456414931,7.00082407146166,12.7771021997183
-151.856962225415,-354.744100266537,7.00085950949371,12.8242960957336
-153.745852455144,-353.939321003908,7.00089406427846,12.8725192150724
-155.646907846931,-353.110208217626,7.00092782137184,12.9218877153074
-157.558925844192,-352.257013789879,7.00096061949936,12.9724171980897
-159.474777162227,-351.380535059552,7.00099243084379,13.0239658199543
-161.386266177177,-350.481686092113,7.00102286093245,13.0763531302823
-163.286030970115,-349.561274583246,7.00105190750903,13.1294109846171
-165.168512793667,-348.619845019687,7.00107932397936,13.183010927323
-167.029350462462,-347.657745453725,7.0011050973828,13.2370599987275
-168.867537201992,-346.674716451428,7.00112912272923,13.2915712594373
-170.685830132111,-345.669758686629,7.00115158544193,13.3466756045281
-172.487986267135,-344.641662541602,7.00117236152089,13.4025422496112
-174.277385589414,-343.589302365744,7.00119177835948,13.4593360666098
-176.055707498536,-342.511951054707,7.00120951455585,13.5171762455569
-177.822312812641,-341.409451269452,7.00122586865506,13.5761100072812
-179.572643323756,-340.282653205595,7.00124056657975,13.6360473394851
-181.296100202658,-339.134028413896,7.13314005501982,13.6968264949103
-182.985725970206,-337.965031154767,7.20126449998397,13.7580662612845
-184.641113359778,-336.775223105322,7.28927330713122,13.8199324434767
-186.265248136037,-335.56315992893,7.41363516582334,13.8826306655896
-187.858456744584,-334.32820084889,7.50128625183086,13.9461398149446
-189.422274220374,-333.069334927191,7.55536269776955,14.0106366846578
-190.95976876726,-331.785077787995,7.67308580020537,14.0764649376166
-192.470646663979,-330.474986736017,7.70129155384241,14.143512505316
-193.946066610546,-329.141264773543,7.80172996469983,14.211749345757
-195.379377280446,-327.785440364097,7.90128559524481,14.2810328232167
-196.784531289976,-326.402736988378,7.9190512262171,14.3518957105498
-198.149132695776,-324.996351746084,8.00127180666436,14.4239709467345
-199.439215433835,-323.575721078177,8.00126151154353,14.49578106964
-200.646863236576,-322.143266269156,8.00124876951769,14.5658629401428
-201.80272302995,-320.691428668433,8.00123386724326,14.6341031566297
-202.937128322442,-319.212734685801,8.00121732280082,14.7014899305801
-204.057560228899,-317.706686084903,8.00119927790357,14.7682247300997
-205.17443699673,-316.171759220118,8.00117987791965,14.8346017913905
-206.312593358456,-314.600646815531,8.00115929466636,14.9013347720325
-207.475444366703,-312.995751435294,8.00113765008369,14.968409062949
-208.664979587796,-311.360150143885,8.00111505961138,15.0357736324802
-209.891505575641,-309.693128167797,8.00109164610071,15.1036410336524
-211.161723041276,-307.995468146787,8.00106750017678,15.1721199207291
-212.456883569794,-306.27735819381,8.00104252236667,15.2405822402666
-213.740198746558,-304.551935419723,8.00101641288697,15.3080114238554
-214.987156257639,-302.827984822178,8.00098895834975,15.3738132290145
-216.190239179282,-301.107949631579,8.0009601411438,15.4378867796677
-217.354365160882,-299.389469032388,8.00093001244435,15.5004657880049
-218.489348510337,-297.668254170272,8.0008986381582,15.5618950923035
-219.605550461539,-295.939798420297,8.00086608241434,15.6224969365868
-220.709299845394,-294.201211756252,8.00083236649991,15.6824733662604
-221.800338995353,-292.452262774735,8.00079747857398,15.7418541126177
-222.875128777552,-290.694058872984,8.00076139290836,15.8005882940377
-223.934502230032,-288.925895930488,8.00779800862332,15.8587364121628
-224.979821921564,-287.14684630461,8.09915691965374,15.9164234377949
-226.010524626119,-285.356812329244,8.10064569896737,15.9735554986548
-227.022736280614,-283.557155100802,8.18349975353697,16.0301754454462
-228.011976282272,-281.749508975378,8.20056229699278,16.0861262943608
-228.972779883713,-279.935960806547,8.25172957668368,16.1413785759563
-229.909016829163,-278.114235953538,8.30047371980611,16.1960499801598
-230.820681177911,-276.283910149373,8.38075193923724,16.2502075543522
-231.705216571696,-274.445774336699,8.44286585660171,16.3037856767042
-232.564022501787,-272.598771881029,8.50346371063156,16.3568679668845
-233.399962336655,-270.741162487098,8.60028090928274,16.4095872057722
-234.215775615929,-268.871266759628,8.70022935971461,16.4619958910301
-235.011832233878,-266.988707188569,8.77894356511514,16.5140947684707
-235.782045249891,-265.097217676906,8.90012220364223,16.5658309840542
-236.529085712852,-263.194037997434,8.92913028611287,16.6171781294805
-237.251083596805,-261.280351164068,9.00000954892033,16.6682233891931
-237.947380139477,-259.356136888598,8.99995114754007,16.7189248070553
-238.621289694919,-257.416892215486,8.99989126145773,16.7694616535652
-239.274787736826,-255.459828813558,8.99982978251219,16.8199262783299
-239.908644508425,-253.483860284652,8.99976669348877,16.8703597617047
-240.52301078747,-251.488818385038,8.99970195229847,16.9207766254496
-241.111450309721,-249.484245332908,8.99963585652492,16.9709254869059
-241.672342951345,-247.472991449949,8.99956842870126,17.0207483722393
-242.207981089015,-245.452802335763,8.99949969687447,17.0703275970399
-242.717547504049,-243.425277984537,8.99942961201044,17.1196364764219
-243.200224958337,-241.392018413095,8.99935830238801,17.1686497724457
-243.655107883098,-239.354724430686,8.99928581201799,17.2173400035578
-244.082743356081,-237.313470384172,8.99921209382931,17.2657243350305
-244.483920178127,-235.268061746602,8.9991372226389,17.313825910315
-244.859712265883,-233.217986106467,8.99906118817936,17.361674360598
-245.211154019594,-231.162775557102,8.99898391339214,17.4092965768457
-245.540823374372,-229.100200104126,8.99890540392012,17.4567625504825
-245.850731751195,-227.028684654724,8.99882561969077,17.5041224423459
-246.139295860029,-224.950856317875,8.99874463911868,17.5513208955277
-246.403349766841,-222.871210647066,8.99866255375933,17.5982591328015
-246.643117861483,-220.790200906775,8.99857939001906,17.6449405680133
-246.859237912931,-218.707782094984,8.99849519742552,17.6913800034812
-247.050735407454,-216.625876971672,8.99841004425764,17.7375443998799
-247.215900088564,-214.547318614878,8.998324032709,17.7833805963004
-247.356935831085,-212.470029149351,8.99823710255291,17.8290065167581
-247.475474698078,-210.392658056711,8.99814921529836,17.8747296807006
-247.570459212458,-208.317326581864,8.99806043551825,17.9206731471938
-247.639560559986,-206.247824904227,8.99797092105715,17.9666431087303
-247.681290213338,-204.186818557424,8.99788077901452,18.0124780169125
-247.694538699133,-202.136455266437,8.99779009944193,18.0580824290532
-247.679580866852,-200.096954419305,8.997698904504,18.103345848853
-247.638448998169,-198.066046388035,8.99760712876849,18.1482300222532
-247.575265669472,-196.038464377178,9.07671830156022,18.1928937693655
-247.493810988712,-194.009436792646,9.09742111551667,18.2373797499229
-247.396472908784,-191.976218152752,9.17806510508774,18.2818144094836
-247.283472738043,-189.939237735384,9.1972310591406,18.3261273393374
-247.152737856313,-187.902316212649,9.19713465593418,18.3702757186902
-247.001639755691,-185.870105992865,9.26124237680012,18.4141957066633
-246.829018785333,-183.845029999687,9.29693988069784,18.4578111429543
-246.634821923873,-181.8278070023,9.34062876405716,18.501135316388
-246.419517337844,-179.818342604387,9.39674292037955,18.5441822490343
-246.184149110627,-177.815633006814,9.39664362433543,18.5869568407172
-245.93025201133,-175.817890487422,9.39654366078412,18.6295169499961
-245.659759157551,-173.822683408686,9.45628031043865,18.6719328527364
-245.373771528816,-171.828941535848,9.45724889398897,18.7141913757074
-245.072528200538,-169.837022597953,9.49623942222559,18.7563159061095
-244.756729598985,-167.84651035508,9.48682034915074,18.7983023921643
-244.427458111049,-165.856340669757,9.46150136301194,18.8401836324301
-244.08589858163,-163.865273903806,9.39592825718145,18.8819995058896
-243.732557884146,-161.873243172215,9.36137563932091,18.9237174451136
-243.367650049485,-159.880693618108,9.29571669099509,18.9653627503763
-242.991447040077,-157.887967912811,9.25641849170739,19.0069010268687
-242.604359132398,-155.895161115218,9.22136422913149,19.0483445693419
-242.207105398125,-153.901808813955,9.19083610285317,19.0897030856321
-241.80076197489,-151.906792226135,9.15960968868939,19.1309990342722
-241.386329608732,-149.909132214962,9.12776300079122,19.1722500802526
-240.964397142849,-147.908620233564,9.09506228495372,19.213460028135
-240.535455402617,-145.90523284108,9.09495010570276,19.2546236934786
-240.099869831152,-143.899185509839,9.03697099873159,19.2957588042541
-239.657921541461,-141.890855794351,8.99495502959221,19.3368343844809
-239.209863061634,-139.880676654941,8.99460840369981,19.377842055599
-238.75598336663,-137.869009813314,8.99449282592949,19.4187840082341
-238.2966831102,-135.855996915866,8.99437645592275,19.4596576260176
-237.832437875098,-133.841630775559,8.99425922609831,19.5004627798335
-237.363648806828,-131.826053204493,8.99414122972136,19.5411967430869
-236.890719668829,-129.809400731402,8.99402244902238,19.581856848621
-236.41406165832,-127.791794775253,8.99390286117036,19.6224406559715
-235.934088007143,-125.773352584452,8.99378254139919,19.6629457672323
-235.451213731186,-123.754187720788,8.97175855180436,19.7033720931498
-234.965855508562,-121.734410282949,8.93446900938035,19.7437192512109
-234.478431586542,-119.714127076641,8.89702056315622,19.7839807590948
-233.989361922156,-117.693441289968,8.89329370554099,19.824147876958
-233.499067959472,-115.672452938804,8.89316967827554,19.8642248166971
-233.007972530802,-113.651258975638,8.88404896144485,19.9042098665107
-232.516491336161,-111.629949717442,8.84628681661952,19.9441068118456
-232.02489168278,-109.608544369334,8.80851492393711,19.9839094219588
-231.533336816456,-107.587013859224,8.77074571707383,20.0236190138543
-231.041948410599,-105.565310438795,8.73298854149724,20.0632374065971
-230.550775473935,-103.543354689438,8.6952471835608,20.1027672959267
-230.05986851547,-101.521052330427,8.69228212190997,20.1422051712104
-229.569291149513,-99.4982763177116,8.69215256231923,20.1815608825414
-229.079078560561,-97.474962931771,8.68215874769215,20.2208372638539
-228.589188175543,-95.4512263681904,8.64451455104729,20.2600392069068
-228.099548549699,-93.4272474202187,8.60688888492781,20.299159032706
-227.610077478691,-91.4032318881313,8.56927422449897,20.3381946363778
-227.120699814704,-89.3793687730033,8.53166522481242,20.3771441882714
-226.631365625376,-87.3557867492317,8.49405891446437,20.4160068402247
-226.142069137988,-85.3325078029753,8.49122632730494,20.454777187488
-225.652849203157,-83.3094449717788,8.49109134154157,20.4934641305017
-225.163739721381,-81.2865234673251,8.48126516825682,20.5320705279632
-224.674740816745,-79.2637527072363,8.44368363066939,20.5706027876323
-224.185861776528,-77.2411189679963,8.40611061208086,20.6090563842707
-223.697112504824,-75.2186069219895,8.36854567110679,20.647432666942
-223.208502576502,-73.1962020609126,8.33098989121103,20.6857329473428
-222.72004149445,-71.1738900343846,8.29344484766551,20.7239585116006
-222.231739190965,-69.1516553271903,8.25591120846344,20.7621106427697
-221.743605070661,-67.1294838048076,8.18998736229901,20.8002034885986
-221.255648571055,-65.1073612120435,8.18088120906878,20.8382066197185
-220.767878811887,-63.0852741327651,8.14338621705197,20.87614578132
-220.28030502071,-61.0632088172133,8.08956225072281,20.9140228484354
-219.7929362438,-59.0411519905643,8.0719715772163,20.9518211337863
-219.305781233826,-57.0190911787971,8.03099288781583,20.9895590486073
-218.818848939154,-54.9970133015273,7.99356118941162,21.0272304993279
-218.332148373206,-52.9749050450549,7.98898597958022,21.0648317968253
-217.845688016146,-50.9527546402023,7.98884022813757,21.1023699112832
-217.359476508692,-48.9305497837135,7.98869381577512,21.1398459729656
-216.873522456313,-46.9082782289329,7.98854668316286,21.177261003817
-216.387834309841,-44.8859281564269,7.98839890891964,21.2146160028709
-215.902420071,-42.8634891123495,7.98825044292956,21.2519119315791
-215.417287839734,-40.8409502610733,7.98810128485944,21.2891497424709
-214.932445693036,-38.8183007724953,7.98795148318063,21.3263303732487
-214.447901532649,-36.795530327133,7.9878009569335,21.3634547390161
-213.963663135136,-34.7726289506349,7.98764976834256,21.4005237353399
-213.479738148133,-32.7495870288774,7.98749792211882,21.4375382383756
-212.996134086796,-30.7263953231619,7.98734534207173,21.4744991049823
-212.512858329853,-28.7030449879281,7.98719211706004,21.5114071727855
-212.029918116612,-26.6795275860457,7.9870382025279,21.5482632602702
-211.547320543357,-24.6558351079539,7.98688358191235,21.5850681668013
-211.065072722806,-22.6319593642579,7.98672831411148,21.6218226827283
-210.583184161701,-20.6078826001616,7.9865723272364,21.6585277408894
-210.101663705994,-18.5835896087892,7.98641565943374,21.6951842208603
-209.620508626771,-16.5591130236882,7.98625834373828,21.731792219175
-209.139710561711,-14.5345093143795,7.98610026221139,21.7683514404273
-208.659260534546,-12.509837514206,7.98594153899153,21.8048615424081
-208.179151228816,-10.4851490845138,7.98578215084702,21.8413222999483
-207.699379052213,-8.46047814958433,7.98562205822325,21.8777337620718
-207.219945987355,-6.43583214725413,7.98546133302503,21.9140964018071
-206.740860811265,-4.41118498252445,7.9852999151966,21.9504112250085
-206.262133552739,-2.38650410058148,7.98513781792979,21.986679330525
-205.783768528211,-0.361786910731212,7.98497508171524,22.0229013209269
-205.305769973084,1.66296882753551,7.98481162646501,22.0590777839952
-204.828142721078,3.68776883321709,7.98464751731047,22.0952093549181
-204.350891571828,5.71261871692292,7.98448275947229,22.1312966581449
-203.874021291142,7.73752397553204,7.98431727347573,22.1673403074943
-203.397536611516,9.76248998867277,7.98415114896498,22.2033409062862
-202.921442231717,11.7875220091237,7.98398435006039,22.2392990473715
-202.445742818579,13.8126251684654,7.98381684767259,22.2752153134049
-201.970443005279,15.8378044576901,7.98364870533755,22.3110902767058
-201.49554739223,17.8630647266136,7.98347986228674,22.3469244994219
-201.021060548309,19.8884106865746,7.98331034033983,22.3827185337412
-200.546987009845,21.9138468941235,7.98314017763712,22.4184729217909
-200.073331281785,23.9393777536484,7.98296928906038,22.4541881958412
-199.600097837633,25.9650075084405,7.98279774618073,22.4898648783163
-199.127291119811,27.9907402356488,7.98262555007663,22.5255034818655
-198.654915540583,30.0165798476002,7.9824526250346,22.5611045095348
-198.182975481465,32.0425300745289,7.98227905617833,22.5966684546305
-197.711475294617,34.0685944729844,7.98210480766938,22.6321958010009
-197.240419302718,36.0947764127804,7.9819298317731,22.6676870229616
-196.769811799293,38.1210790689062,7.98175421081473,22.7031425853002
-196.29965704991,40.14750542939,7.98157789455116,22.7385629435386
-195.829959292164,42.1740582765555,7.98140089025853,22.773948543756
-195.36072273653,44.2007401903332,7.98122324182161,22.8092998227704
-194.891951566841,46.2275535427285,7.98104487451274,22.8446172081737
-194.423649940744,48.2545004939327,7.98086584044453,22.8799011183899
-193.955821990099,50.2815829912053,7.98068616156591,22.9151519627769
-193.488471820893,52.3088027586631,7.98050574324624,22.950370141578
-193.021603512306,54.336161298443,7.98032467785218,22.9855560460604
-192.555221114172,56.3636598875933,7.98014294932969,23.0207100585883
-192.089328641545,58.3912995700766,7.97996049831211,23.0558325526226
-191.623930089807,60.4190803532139,7.97977740194858,23.0909238795684
-191.159034656778,62.4468765240066,7.97959363412813,23.125982302184
-190.694645769596,64.4746746061907,7.9794091743944,23.1610079483059
-190.230737330721,66.5029622360283,7.97922403908393,23.1960092662931
-189.76727968587,68.5322711494915,7.97903812612159,23.2309954085209
-189.304265164036,70.5627791169228,7.97885143180388,23.2659696193239
-188.841556849166,72.5942865933331,7.97866401154701,23.3009294407647
-188.379047617879,74.6262588142332,7.97847583770841,23.3358668299367
-187.916658373358,76.6578832537749,7.97828702788805,23.3707691271392
-187.454336051683,78.6881102524487,7.97809769569035,23.4056197457005
-186.991998962038,80.7161314552935,8.07537011309819,23.4404441910567
-186.529457255689,82.7419884445683,8.07925518774013,23.4751682772556
-186.066456508233,84.7661992383529,8.17752661454684,23.5098784757715
-185.602735206788,86.7893312519826,8.18680430176584,23.5445081494149
-185.13802477389,88.8119986189353,8.29052818527383,23.5791499133967
-184.672067848713,90.8347448327621,8.3769501204425,23.6137577855113
-184.204639092313,92.857920859869,8.39799975385468,23.648323653141
-183.735565970149,94.8815740458532,8.50176832103409,23.6829186880601
-183.26472099553,96.9055037083363,8.57636706260503,23.7174782459739
-182.79195392546,98.9296292561578,8.6093454005835,23.7520048152787
-182.317091268699,100.953987805861,8.71315034575844,23.7865564625583
-181.839976108493,102.978535882628,8.77577732334713,23.8210673849108
-181.360450017933,105.003237057471,8.82078379218312,23.8555576731686
-180.878367269537,107.027997820623,8.87538046875545,23.8900380250631
-180.393617459839,109.052571861966,8.92841867029449,23.9245007250558
-179.906092850429,111.076598900334,8.97498068965493,23.9589388108178
-179.415695736223,113.099678273821,8.97477982025392,23.9933405118351
-178.922325285619,115.121421414168,8.97457830244465,24.0277089388794
-178.425865252095,117.141497431473,8.97437622894993,24.0620396016408
-177.926171667162,119.159675756785,8.97417355094966,24.0963297498212
-177.423065208073,121.175849691417,8.97397031743716,24.1305787753739
-176.916358608869,123.189939509387,8.97376655005306,24.1647865495426
-176.405889089971,125.201784803699,8.97356218139491,24.1989984182589
-175.891483327724,127.211258903273,8.97335731393398,24.2333957599572
-175.372926768711,129.218363352087,8.97315188555737,24.2681201436989
-174.849994789497,131.223130153508,8.97294590420437,24.3031802286121
-174.322479822788,133.22554109584,8.97273940211066,24.3385841285836
-173.790197455784,135.225511586099,8.97253229718969,24.374339086418
-173.252991748281,137.222877514864,8.97232469997524,24.4104511816943
-172.710736821528,139.217392966208,8.97211655374515,24.446925222231
-172.16333659598,141.208732984521,8.97190793240537,24.4837647242694
-171.610682265011,143.196605525779,8.97907550525197,24.5209742293286
-171.052634255189,145.180796140501,9.07148935216394,24.5585972979307
-170.489054167269,147.161087489913,9.07127946394099,24.5965649164319
-169.919813175285,149.137239245109,9.0836460524983,24.6349214410492
-169.344784265996,151.10900682695,9.17085847112364,24.6737069281705
-168.763841980261,153.076142097477,9.17064744471502,24.7128588080082
-168.176862932236,155.038392280105,9.1704361131312,24.7524186019145
-167.583723866858,156.995504312236,9.17022449301926,24.7923934621067
-166.984302480592,158.947223096862,9.1700125916676,24.8327908750283
-166.378421229093,160.893409057251,9.16980046409657,24.8736212845537
-165.765823402442,162.834084611153,9.16958804277416,24.9148993404136
-165.147012403833,164.767749676182,9.16937557442748,24.9566057263659
-164.522272176997,166.693334522913,9.16916308707579,24.9987300979405
-163.890864759232,168.611733319109,9.16688075942614,25.0413079622716
-163.251580625185,170.524729865851,9.12905897001515,25.0844057454615
-162.60356566484,172.433449090952,9.16786819808724,25.1280626234423
-161.947255635751,174.336667325895,9.1245812100204,25.1722707296747
-161.279067817969,176.240335912263,9.17099944687794,25.2172012401227
-160.597892566763,178.146080558338,9.21652078904415,25.2629226969032
-159.910470787089,180.042167076932,9.26766532365847,25.3091619468969
-159.224802722739,181.91479783685,9.267451659486,25.3555509882528
-158.543315605208,183.758957423313,9.3584946583274,25.4020249073337
-157.860196919308,185.58232375853,9.45195693766073,25.4487214887475
-157.165514086691,187.398972054218,9.46682105340136,25.4959414069993
-156.451285363519,189.219819299541,9.53841022560436,25.5440835771332
-155.714073925355,191.047910039092,9.5663963252867,25.5932149865074
-154.952740478559,192.881961918282,9.62612214566397,25.6433947604349
-154.165129987186,194.722802777542,9.72047689110141,25.6947175053603
-153.348400645144,196.572862702134,9.76574414448397,25.747237350603
-152.500358212209,198.432849776726,9.81063560308588,25.8010900371509
-151.619716545977,200.300728673068,9.90637187416694,25.8563408042761
-150.705771296587,202.172507264037,9.96507065312882,25.9128663240365
-149.758293977551,204.042453901495,9.9981453865523,25.9705887205737
-148.777358205725,205.903661815451,10.0935331625492,26.0294164416176
-147.764042017024,207.745129171724,10.164385761634,26.0889236939051
-146.720489727709,209.551268367581,10.1804710040148,26.1485424349962
-145.650278950879,211.307724121864,10.2639381434567,26.2078716835277
-144.553761478042,213.016272660282,10.2637201263161,26.2663496756601
-143.428984142181,214.6908634877,10.3438577703623,26.3239504767029
-142.273573980598,216.347734066353,10.4287604879082,26.3810916110163
-141.086097368037,217.99792711276,10.4630729204137,26.4380197125846
-139.866201877843,219.646470345348,10.4628553994244,26.4948997425706
-138.614748291989,221.291620221312,10.4820933584242,26.5517026037358
-137.333727314003,222.925306242341,10.5624177204068,26.6082785964132
-136.02552190754,224.537256404017,10.5621996296373,26.6643205889928
-134.691723393739,226.121629148365,10.6295713391041,26.7199240582801
-133.333893740464,227.672745294001,10.7090433436011,26.7753589775325
-131.953299185586,229.186532289822,10.7866007219605,26.8306626461191
-130.550162045223,230.664466984151,10.8079545498059,26.8859468821891
-129.124097908799,232.111168452334,10.8471887916485,26.9416922237704
-127.674456784836,233.532591835936,10.9092501655921,26.9981834649239
-126.201367348272,234.930890296838,10.9808799293548,27.0555335706177
-124.705959075412,236.303466880813,11.0511926392652,27.1136740323559
-123.19026790726,237.643534750906,11.0603321923747,27.1723080963367
-121.657287730476,238.939988476135,11.086240065508,27.2310704073635
-120.108474578401,240.188482926601,11.0952454201725,27.2892574734457
-118.54200895215,241.398644040175,11.0372647087491,27.3466142284082
-116.954943536336,242.584728626125,11.0729116112711,27.403931926076
-115.346190316557,243.753671208906,11.0327782166168,27.4622093481405
-113.715423821021,244.909520759759,11.0474523124728,27.521918642914
-112.063992615765,246.050221802722,11.0503826001741,27.5830257919896
-110.397052111315,247.160317642705,11.0085949255842,27.6450347665128
-108.720384352861,248.222222229465,11.0616020863775,27.7072840666492
-107.037424104175,249.226014722564,11.0570863819906,27.7694000094369
-105.348091518354,250.172756325971,11.0614604483905,27.8307658578498
-103.650749126958,251.068158085377,11.1072967260028,27.8909029456763
-101.943548871628,251.91853279672,11.1508240155109,27.9500114578044
-100.221780061308,252.738043865505,11.2706056653797,28.0085554273249
-98.4812685994218,253.53943993053,11.3337771926136,28.0666444460207
-96.7214757154374,254.326222346344,11.4199247918385,28.1244588403928
-94.944754758975,255.094762880038,11.5133662049667,28.181896321881
-93.1543144651637,255.83938163953,11.5514662025568,28.2387729803902
-91.3529579160076,256.555348967132,11.5880945889614,28.2950568194703
-89.5427841343792,257.239550081055,11.6525372419677,28.3507239502764
-87.72773586524,257.884722498372,11.6913891664797,28.4056079588853
-85.9093601862638,258.488883920768,11.7566426030194,28.4597426893483
-84.0865146160635,259.055829736232,11.7565077219576,28.5131847524308
-82.2594948055918,259.586360308615,11.7563763862195,28.566003802278
-80.4298132815852,260.078826538945,11.7682646309777,28.6181855706428
-78.5969331110292,260.535559916719,11.7915996971265,28.6698002769579
-76.7593938709531,260.960615997332,11.8133103740888,28.7209388032289
-74.9173579896357,261.355148881848,11.8334557958875,28.771627065168
-73.0728764660142,261.717081323922,11.8519295443915,28.8220426152682
-71.2253613312071,262.048667976039,11.8688479065451,28.8726889249761
-69.3751612993444,262.350684884902,11.8842500014575,28.9237280076556
-67.5269801283481,262.617283386417,11.8978361461334,28.9749088316916
-65.682333077989,262.847302898608,11.9095468570961,29.0258222595811
-63.8381805334643,263.04608038576,11.9196555840355,29.0762343952898
-61.9924236800609,263.217647140632,11.9283689118331,29.1262331376375
-60.1455040461813,263.362595040332,11.9357171109347,29.1758267947545
-58.2963658629291,263.483499385257,11.9418322430919,29.225067135442
-56.4392938460702,263.588991127789,11.9471563769433,29.2741277511102
-54.5768816066304,263.677102876561,11.9515888307307,29.3229443131902
-52.715768157658,263.740800578857,11.9547693285632,29.3713561970219
-50.8592531044011,263.777144841465,11.9565472128643,29.4193002989244
-49.0056015768886,263.789201556827,11.9570798282673,29.4668437582265
-47.1511256568909,263.782280785353,11.9588278959659,29.514095047281
-45.2914763912055,263.762415270888,12.0397948444412,29.5612130239631
-43.4245166189987,263.733365220746,12.1539560680045,29.6082506931358
-41.5453161022411,263.701558678064,12.2253410703003,29.6552344348835
-39.6597117472718,263.66396902697,12.3502189835957,29.7021462028135
-37.7668832936288,263.622910576159,12.4145193091292,29.7488661331563
-35.8557692382444,263.588085589715,12.5461451082181,29.7958237138049
-33.9192214271719,263.566711476637,12.6089909925284,29.8430225278355
-31.9570653507866,263.562151317733,12.74998753914,29.8906524422376
-29.9687782387541,263.577935945133,12.8453350808543,29.9385634999374
-27.9522161968358,263.618284994464,12.947302786828,29.9868870909304
-25.9132921980317,263.684327959337,12.9505863040956,30.0357461991743
-23.8609830193359,263.776094774285,12.9551869367857,30.0853444413224
-21.7908647211308,263.898308882053,12.9613463786014,30.1357686344121
-19.7000271241313,264.055164640883,12.9692796046278,30.1870401520818
-17.5925690777244,264.248421468075,12.9790770518398,30.2390188865426
-15.4715672626999,264.480185542509,12.9908467191794,30.2915899350377
-13.3458139596097,264.750735013135,12.9527728277809,30.344302385408
-11.2352697706539,265.054393796044,12.9526335728026,30.3964095786964
-9.16270950023528,265.384840997385,13.0033784846246,30.4473901179686
-7.12911174930656,265.739276669396,13.1549437362653,30.4973469184043
-5.11161562918005,266.116988796446,13.2133116077901,30.5466116429178
-3.09116984985951,266.51718260852,13.367883619069,30.5958735481423
-1.06236729997073,266.939294246039,13.4230944376734,30.6450231578948
0.970111088326234,267.382984330781,13.5517465690771,30.6941544437115
2.99693437072773,267.847962741535,13.6336311426102,30.7429297156333
5.01962378118134,268.333890567648,13.7514258112314,30.7914905766808
7.04111382761505,268.840406712985,13.8429984524122,30.8398415313007
9.05803598037596,269.367350566757,13.9510932293782,30.8879652496682
11.068313383149,269.914504016708,14.0510545904088,30.9357982536932
13.069504625225,270.481669828104,14.1507496860533,30.9833067801411
15.057994133424,271.068733185583,14.2562278881811,31.0304311699623
17.0316632851817,271.675455397518,14.3503967356656,31.0771187426996
18.9903816795916,272.301410437927,14.4570054206622,31.1234039075689
20.9355390536073,272.946014160795,14.6057826412285,31.1693706912431
22.8692717710175,273.608598946068,14.6536782439668,31.2149041436282
24.7949207571039,274.288355598494,14.8009573189171,31.2602911524745
26.7161298277668,274.984438202146,14.8494759849499,31.3053986815453
28.6343961097857,275.696264641251,14.9945988278623,31.3504644056307
30.5492154420087,276.423499393523,15.1410419927141,31.3953823161258
32.4592758582014,277.165907008989,15.2871134994616,31.4401276049386
34.3628984606689,277.923298537946,15.4326951922899,31.4846715330755
36.2578655702915,278.695556676002,15.609550206498,31.5290298515249
38.142189456834,279.482531206157,15.7217074403456,31.5730180741874
40.0167277408359,280.283625787019,15.8650558331731,31.6167963831884
41.8839276701837,281.097969796327,16.0078372157283,31.6603696069227
43.7455517030265,281.924821577426,16.1501940153789,31.7037712493101
45.6031059221587,282.76349139425,16.2474734852178,31.7469728991116
47.4580757927382,283.613293933715,16.3340768940425,31.7900466864806
49.3112935220641,284.4736904358,16.4757834019605,31.833082364312
51.1625260466959,285.344389526238,16.607758431029,31.8759979717739
53.0111591268289,286.225190846816,16.7038669859302,31.9187559541112
54.8571766863549,287.115747726578,16.7464030312847,31.9613608464312
56.7008642422381,288.015638055384,16.7940177945507,32.0038578374115
58.5424680648538,288.924449753525,16.8881459353499,32.0462817794182
60.3824870522492,289.841704803489,16.9817135981618,32.0886067895994
62.2215085366264,290.766901616609,17.0574036336233,32.1308274261065
64.0600435727472,291.69955936318,17.0674579750975,32.1729385600582
65.8988544145489,292.639127433804,17.1597883266881,32.2150208715361
67.7384546134379,293.585125695822,17.2518402429534,32.2570393747172
69.5786558604376,294.537276834025,17.4244287489743,32.2990940955188
71.4188505302787,295.495427110051,17.5971001017686,32.3410705492373
73.2583079290375,296.45945980163,17.8498370631835,32.3831204248101
75.0961361008878,297.429307738062,18.0775730271699,32.4250074205723
76.9314634544995,298.404897350296,18.3118760944726,32.4667903295235
78.7636700977084,299.386074143945,18.5584716591753,32.5084730060896
80.5928991229799,300.372432402421,18.7489813771261,32.5499122192806
82.4195470048387,301.363480895908,18.9395324981163,32.591229789317
84.2439964530469,302.358733161813,19.1301350914292,32.6324301308008
86.0666930653271,303.357680353467,19.285935075578,32.6734614460648
87.8881524326172,304.35978798267,19.4251836734826,32.7143638113368
89.7089182945027,305.364510933248,19.5643770342525,32.7551663781454
91.5295132156749,306.37131233836,19.6417506615747,32.7958122716504
93.3504491899112,307.379659584446,19.74150614335,32.8363884373251
95.1722565034175,308.389012450474,19.7887359071368,32.8768459135069
96.9954776698242,309.398825455833,19.7958510927254,32.9172163595046
98.8206054123256,310.408575283946,19.8437351122341,32.9575252577718
100.648446578886,311.417593845302,19.8517978475719,32.9977607435923
102.479865227259,312.42518574323,19.8396544234071,33.0379430182442
104.315304588631,313.430863680147,19.8286956239546,33.0780758905281
106.154294806414,314.434608255401,19.8359348337652,33.1181524679942
107.995711116333,315.436747762401,19.8842093500596,33.1581689396204
109.838331312335,316.437664075503,19.8964570862293,33.1980894640167
111.681240893141,317.437563820591,19.9809347492395,33.2379436508492
113.524195777064,318.436257996163,19.9755614831338,33.2776634376637
115.368100860217,319.432854616877,20.0047505918086,33.317293283466
117.214474761959,320.426072126322,20.0554487341569,33.3568524012043
119.064864788579,321.414610067353,20.0756366779881,33.3963389227686
120.921895261697,322.396431552797,20.1249513912111,33.43579875398
122.787846930505,323.369743230289,20.1675016959937,33.4752440558461
124.664491468861,324.333124413416,20.2119943221423,33.5146980931679
126.552056691345,325.286314421923,20.219612144573,33.5541560815173
128.449207435495,326.230247835641,20.3453423532341,33.593683099341
130.356984097546,327.164023487992,20.4871115944383,33.6332403275082
132.276275687908,328.086858137915,20.7286409381531,33.6729857992182
134.207209713713,328.998565432103,20.8917290159178,33.7126192054775
136.149698447844,329.899128430545,21.1109217545595,33.7525328266858
138.101203294763,330.79046197636,21.2516806647559,33.7927671549792
140.057252265754,331.675998428318,21.4140884231588,33.8335526022405
142.01364887089,332.558956434544,21.5976653025144,33.8748607586047
143.967795475271,333.441338013486,21.6949184378885,33.9165332865895
145.920087844249,334.322919056376,21.8598284152833,33.9587779359995
147.871282394742,335.203213110523,21.975397182256,34.0014744687245
149.822234557906,336.081663231206,22.0496494349727,34.0446751999489
151.7735695905,336.957873031891,22.1551290390431,34.088468310747
153.724743473712,337.832246907789,22.2390452800557,34.1328186200235
155.674680243862,338.705547993074,22.2836428211673,34.177724885661
157.622888104086,339.578150015911,22.328204044357,34.2232240200061
159.56897641796,340.450359757278,22.3727421637512,34.269330796079
161.51243874812,341.322560360879,22.5172784437023,34.3161571574932
163.452603378633,342.195243817913,22.6018359479124,34.3635484667146
165.388405501213,343.06916080036,22.749820640546,34.4116614402068
167.31878609076,343.945058178663,22.8315741516873,34.4603452655993
169.243029041377,344.823458215572,22.9313110354172,34.5097124790301
171.160856985798,345.704597180473,22.9910895271485,34.5597315377162
173.072445835001,346.588417665583,23.0818297527466,34.610494609404
174.978351959918,347.474617322979,23.1305183930136,34.6619799702591
176.879350285382,348.362753850501,23.1817010451339,34.7142670725224
178.776209627606,349.252388825076,23.1810059777991,34.7673863257473
180.669348541087,350.143306768452,23.1917397796882,34.8213994302369
182.559111875583,351.035339039678,23.1456529971292,34.8763663542001
184.445881299475,351.928293494541,23.0995199563721,34.9323273008873
186.33004519509,352.821973564357,23.0533500418463,34.9893392522258
188.211992926064,353.716181737272,23.0286490933179,35.0474538826237
190.092113470223,354.610719854907,23.0283797840297,35.1067444147541
191.970793172273,355.505387838991,23.0147099945476,35.167290064721
193.848411323881,356.399977999801,22.9684911116529,35.2291845266484
195.725344031293,357.29428033773,22.9434145281093,35.2924922892976
197.60196771183,358.188083285663,23.0808706427899,35.35746126024
199.478660751018,359.081173379913,23.318214241618,35.4243604090617
201.355803712583,359.973335314568,23.5278288679137,35.4929400873001
203.233779355056,360.864352049582,23.720015068203,35.5633770191147
205.112952994434,361.754017622731,23.9292349226803,35.6359416067791
206.993615432071,362.64217438526,24.1658152299171,35.7108647320763
208.877503531615,363.527719570487,24.3019898410963,35.7879511754253
210.76318370716,364.411629276437,24.459916517272,35.8677752154252
212.646564271346,365.296627770487,24.594784125856,35.9503829365864
214.524190721971,366.17487674167,24.7476417754801,36.0359075163086
216.399557446442,367.033642398574,24.8600810064262,36.1243621499572
218.279966601424,367.857690722024,25.0199603476426,36.2162943174481
220.161913772146,368.630050159835,25.1990302080707,36.3115335357697
222.039875568564,369.335081455118,25.2711950630442,36.4095534240496
223.902360498566,369.961138247594,25.3784605132001,36.5103602758034
225.748113632752,370.489572429507,25.4893028218976,36.6138602791193
227.568990474641,370.90658599832,25.6073576973963,36.7197587718151
229.366625295455,371.191242415961,25.6594352531107,36.8280899582953
231.131543510175,371.331094474147,25.7015942971987,36.9388386625264
232.866849468508,371.303406252927,25.7721092692099,37.0528723695088
234.57101631764,371.08959058355,25.83622034581,37.1714783953166
236.250116051633,370.663451199371,25.8588701828398,37.2979818779187
237.923350097702,369.984125325012,25.9520268779463,37.4298924662812
239.603761050244,369.018112120565,26.03248349879,37.5630388136457
241.226402452791,367.822690733585,26.1195726542502,37.6936971287958
242.687241554599,366.495035342777,26.2375665349285,37.8216402720658
243.897557633687,365.118871355625,26.259605417378,37.9467540066582
244.850565790037,363.71102171643,26.2603437842722,38.0686735641238
245.561841560963,362.269567209099,26.2408692103474,38.1903983476843
246.06677348384,360.774133487375,26.2153914800114,38.3099570316651
246.393723439086,359.211998224291,26.2477902811584,38.424099590148
246.542610771204,357.607796933053,26.1769579597673,38.533760411949
246.522415098318,355.971533697689,26.2175261124853,38.6406039454861
246.334403329461,354.328651236205,26.240360841264,38.749230161604
245.978380041774,352.708235031995,26.2439651661992,38.858236883339
245.463708361659,351.109853755498,26.2869059698182,38.9637140586197
244.799513494608,349.53398456079,26.3172531297994,39.0666871501904
243.996424795811,347.973997101879,26.336152853957,39.1681353835527
243.062860444254,346.436352804714,26.3439234243539,39.2681386687316
242.004022227785,344.951937414899,26.339370050863,39.3689956674648
240.824363181268,343.559186910664,26.3208546340947,39.4731825687201
239.529323386378,342.282753945469,26.2875219986069,39.5810851825166
238.125161449486,341.130806988357,26.2394299847445,39.6888892765496
236.618375227428,340.104378170955,26.1770256245674,39.7928879038691
235.015630171998,339.19717790568,26.1011375225947,39.8942198073159
233.323529980909,338.406501515693,26.0777309748003,39.993444494608
231.548857279708,337.718380738832,26.0120976551838,40.091289455434
229.698261153152,337.126030983032,25.9321085581044,40.1879387090528
227.778514009739,336.617720786565,25.8803571396303,40.2834921175243
225.796914577763,336.166643684641,25.8081404906086,40.3781496308838
223.760707206834,335.747116833869,25.7178376312845,40.4718840862777
221.676105989389,335.321466317142,25.6520000007857,40.5647347070468
219.548261256202,334.864956089284,25.5410200568765,40.6568989445934
217.374888575288,334.427265471295,25.4669511805198,40.748033041341
215.162339371385,333.983890153036,25.3508779849826,40.8383211873192
212.917254356473,333.508160723823,25.1036278542388,40.9281179924187
210.645480020392,332.978671573688,24.9571024211239,41.0167781212784
208.351573752187,332.38171056939,24.8123610010331,41.1047540981046
206.039472044575,331.706956934603,24.5702323851542,41.1924545118589
203.713269019948,330.943289629265,24.3843092281974,41.2795553933292
201.371411600844,330.106649843302,24.1955315289496,41.3662320725501
199.003543778945,329.253465055635,23.9583223374399,41.4522974387978
196.613499471327,328.376695779844,23.8312534339369,41.5373224666862
194.204054156042,327.47391551724,23.858302416494,41.6214919524406
191.777946055912,326.542856542618,23.9064396905132,41.7049294324442
189.337890911124,325.581345192893,23.9800882160336,41.7876560093161
186.886294834408,324.588484513364,24.0824001065999,41.8696851110566
184.425339141692,323.564294556802,24.1603940632117,41.9509595928188
181.957602007624,322.507188061378,24.2150223213115,42.0314977148656
179.482681407364,321.427605707477,24.2679146941441,42.1112538519032
176.998093051559,320.344403876348,24.1336125631959,42.1901983441124
174.505138528224,319.261050116288,23.8986791288616,42.2684200749248
172.004235059515,318.184634488587,23.6627760242131,42.3456831036635
169.496899569526,317.117694552437,23.4258915171104,42.421973200737
166.985453413398,316.059396250721,23.1283139387323,42.4974512134677
164.472751792963,315.006639490112,22.8978675985316,42.5717859248496
161.961817986445,313.955602501407,22.5911777012998,42.6453671238357
159.455402379319,312.903646014169,22.3746501389324,42.7177659342079
156.955828153571,311.849993650295,22.3364605739194,42.7889907095513
154.464895025898,310.796160572957,22.3013595297113,42.8592449323481
151.984178109332,309.744647494664,22.2744427932041,42.9285041063404
149.515582124467,308.696506227565,22.2308172383099,42.9967594251386
147.060853007953,307.653487886108,22.2824789438669,43.0639883622884
144.621787098776,306.617121048067,22.2634703216356,43.1301566290363
142.200382771717,305.588039423398,22.2891818219858,43.195260391517
139.798628823036,304.566919298065,22.3000265529497,43.2592787778925
137.418569961555,303.554187536297,22.225386519879,43.322223577996
135.064661926908,302.539484218213,22.1466608422994,43.3844224960913
132.741503207322,301.511809887653,22.0997416828014,43.4466506219611
130.452039337681,300.467622879164,22.0536690290532,43.5094198445497
128.196894210669,299.414099495144,22.0080716388467,43.5727702178983
125.974955207323,298.366827812269,21.9616220733926,43.6366437760133
123.783669336182,297.348933810174,21.9147152940547,43.7003693728659
121.617284267677,296.402078590689,21.8520521062998,43.7626341366691
119.479926303636,295.504578491844,21.8099746401025,43.8231159636698
117.376341215834,294.630699559802,21.7687675124193,43.8828992186558
115.310492083308,293.759551249688,21.7585108311646,43.9428396225245
113.285762703364,292.873502473285,21.7775172670345,44.002781254328
111.304568224494,291.959837329095,21.7199049971922,44.0625808083979
109.36737510692,291.014916772561,21.741206683245,44.1223292331422
107.471678171239,290.048257570458,21.7232510328415,44.1823508995143
105.612038443645,289.082214814251,21.6803309592229,44.2426666284032
103.789563563885,288.110163007616,21.6408624067968,44.3033183932082
102.003498102545,287.133659151455,21.5683779199635,44.3643776211691
100.252722925409,286.15583633072,21.4009161133025,44.4260198822191
98.5365975667407,285.177784628574,21.2395704519227,44.4880909647556
96.8549032770027,284.198823186569,21.0820179820805,44.5506288168516
95.207782507229,283.216778848536,20.9308529564835,44.6136863430211
93.5945068913126,282.233020090588,20.7345860041621,44.6774702479738
92.014046495405,281.250123222947,20.5432314620507,44.74186478587
90.4661573981143,280.267563670198,20.3568426234224,44.8068325866684
88.9550550150185,279.267486220804,20.1769936196616,44.8723682317293
87.4846124890537,278.233345785286,20.0051170630585,44.9384573249415
86.0565410142312,277.15671657282,19.7844214486913,45.0053842482163
84.6711352625443,276.034354756931,19.5876008183902,45.0730227606937
83.3279132868029,274.865759067194,19.5085775222475,45.1402185572185
82.0243329609018,273.657386132401,19.4710480630944,45.2062030200612
80.7543578219111,272.426891442846,19.4372287512012,45.2708093592906
79.5134949036488,271.187247986694,19.4061068531317,45.3338699389663
78.306689708912,269.924227201632,19.3787949755246,45.3957247188089
77.1368202640052,268.629305455489,19.3559486677561,45.4571364942296
76.0018745994936,267.306934921938,19.3371889891451,45.519094882662
74.9011221328298,265.958301197165,19.3342076878239,45.5820891667211
73.8374534374601,264.575755034473,19.3479363713026,45.6462095081255
72.8139058482344,263.151305789223,19.3481677352807,45.7106601797107
71.8261276116451,261.693311452854,19.3010951217221,45.7744234063571
70.8696540266662,260.210367763481,19.2280774438775,45.8373962813638
69.9480169034784,258.695035093832,19.1577256955893,45.8997720993835
69.0637324274033,257.141818235381,19.0508142164828,45.961834000204
68.214933777881,255.5532494344,18.9044359529902,46.0236586474553
67.4042067208192,253.924047560202,18.7776424114971,46.0860720414647
66.6327200213257,252.251320270304,18.6597115453709,46.1492160987637
65.8921342488253,250.54762879204,18.5465151756809,46.2120361860727
65.1708728600001,248.830627304584,18.4268994790311,46.2741525110716
64.465427312549,247.105613040813,18.2844901966406,46.3355030767508
63.780017905852,245.366296845297,18.1872437957706,46.3961254741804
63.1164313591515,243.609975959379,18.1020690899551,46.4562049318751
62.4737356310747,241.8379035032,17.9876777667846,46.5158208506449
61.8513215215216,240.050867440079,17.9228138276283,46.5748674914076
61.2444065998172,238.255612860154,17.7940022473582,46.6333967318004
60.6439508991248,236.464889925716,17.748249716269,46.6909312360299
60.046301211813,234.683967865671,17.7027102277615,46.7475043563749
59.4518888815713,232.912536498,17.5732626553007,46.8032739492404
58.8491294605716,231.166442398374,17.4376257397383,46.8584279724075
58.2336920193279,229.45192805143,17.3026403716199,46.9136819013667
57.6163808363926,227.75560299309,17.1684404794937,46.9695840060929
57.0093375977708,226.062389997466,17.035184595275,47.0263986755544
56.4253520218151,224.356421016206,16.9030413659346,47.0842941950012
55.875214816867,222.624184006541,16.7284366492316,47.14350820952
55.3652228485723,220.857292969662,16.5471159759924,47.2034088222392
54.890626967738,219.059638870901,16.4140543811003,47.2631165675418
54.4266137274818,217.257067787912,16.2861308436845,47.3221535907153
53.9625634244159,215.459974943727,16.1584899965404,47.3802934545739
53.5009220419335,213.664553321659,16.0311161318564,47.4376657386077
53.0405313713021,211.870911208179,15.9039313347261,47.4943083584808
52.5820589430343,210.077172142379,15.7408397327993,47.5503851699596
52.129481096344,208.277858793696,15.55618866351,47.6060243184283
51.694124990489,206.459472370447,15.4234621252124,47.6613709988587
51.2765309672484,204.620346357959,15.2972142049017,47.7166163092716
50.8666067168994,202.77048825519,15.1710037174999,47.7715601718344
50.4547152991054,200.919407313672,15.072332136992,47.8259546581913
50.0363852884515,199.070935676189,15.0177942965153,47.879738132488
49.6137842675347,197.221401484044,14.9083643734219,47.9331353537755
49.193446763945,195.361872739698,14.8439321969483,47.9862393616772
48.782897742495,193.482096481767,14.7451673654187,48.0393922176023
48.3863231628711,191.576905108197,14.7072984260524,48.0926208141659
48.0017926447057,189.651931586406,14.5857837026008,48.1459434764006
47.6282667063705,187.710990436919,14.5510727375249,48.1990840872384
47.2659600887694,185.754953990323,14.429868548348,48.2522101724656
46.916880628963,183.779894947485,14.3502777454195,48.3052771567434
46.5821115059089,181.784684744086,14.2779359634072,48.358368466046
46.2621195000199,179.770243591481,14.2447421090238,48.4114468106753
45.9575235921366,177.736965404251,14.1405115163482,48.4645952875285
45.6682133978056,175.687724185969,14.0594752838495,48.5176598586089
45.3963554804663,173.618074728924,14.0293657701478,48.5707450042437
45.144924852276,171.521149395274,13.9599365020688,48.6240821227246
44.9131667028431,169.400701316669,13.9601681529482,48.6775337103511
44.6983594842621,167.26329765665,13.9603998334431,48.7309759516647
44.4972293947641,165.116997286683,13.960630920035,48.7842231095874
44.307807252026,162.966387642728,13.9608610514379,48.8371739534594
44.1288241663,160.814211467972,13.9610900174805,48.8897737237536
43.9584409522619,158.664702069466,13.9613174952056,48.9419358335521
43.798196145826,156.513331688366,13.9615438029497,48.9937783480901
43.6497358305388,154.355295853837,13.9617693528826,49.0454230978901
43.5116510342991,152.193586796774,13.9619939324865,49.0968100012235
43.3827629433386,150.030615811949,13.9622173810269,49.1478931188359
43.2617144159669,147.869237407794,13.9624394919852,49.198616999587
43.1472935106078,145.711950931379,13.9626600895856,49.2489350414619
43.0382743811132,143.561289343917,13.962878999368,49.2988005150857
42.9333620976124,141.419951938139,13.9630960350843,49.3481635959633
42.8329434141841,139.286569026766,13.8691948938275,49.3971132706427
42.7383819105792,137.157373598756,13.8600241239475,49.4456497070474
42.649787917775,135.031734274637,13.7637374940289,49.4938912586695
42.5666672369296,132.910559991396,13.7422684179778,49.5417301743387
42.4888017028392,130.794045073216,13.6337437782369,49.5892769362045
42.4161927838115,128.681806580202,13.564365935148,49.6364509329239
42.3488837451498,126.573350047395,13.517320203721,49.6832936264086
42.2868611103505,124.468334733535,13.4093808708511,49.7298824872367
42.2300672974632,122.366541246261,13.3649820096619,49.7761286729854
42.1783879441701,120.267908908176,13.293991507789,49.8221065882718
42.131684288755,118.172446365958,13.2653862663556,49.8677841147118
42.0898615155735,116.080035299133,13.1792418241534,49.9132257824677
42.052831364372,113.990538121709,13.0720909131331,49.9584266417518
42.0204974353866,111.903841589329,13.065087101084,50.0033146302299
41.9927624074127,109.819835262844,12.9661798461648,50.0480062616605
41.9695283262073,107.738410665857,12.9663752208338,50.0924085155387
41.9506966176747,105.65946128018,12.9665694367401,50.1365786920712
41.9361678658261,103.582883298929,12.9667625100998,50.1805234955161
41.9258421906976,101.508574439238,12.9669544610306,50.2242494131099
41.9196191374632,99.4364343452111,12.9671453033238,50.2677627152875
41.9173992594548,97.3663592102758,12.967335055879,50.3110695762637
41.9190803641152,95.2982548306929,12.9675237346158,50.3541758084579
41.9245538551098,93.2320498999015,12.9677113549868,50.3970865967597
41.9337102752064,91.1676762608051,12.9678979306401,50.4398069208409
41.9464413051978,89.1050614935966,12.9680834755603,50.4823417148071
41.9626391139857,87.0441313051119,12.9682680044606,50.5246958222076
41.9821948480661,84.9848154259322,12.9684515310858,50.5668738798476
42.0050150535841,82.9269813919432,12.9686340740756,50.6088816771174
42.0310146906102,80.8704618375331,12.9688156553493,50.6508046667255
42.0600967132553,78.8151405916697,12.9689962872267,50.6929854597134
42.0921517037939,76.7609557622168,12.9691759594027,50.7356966135647
42.127064308592,74.7078722776395,12.9575064673168,50.7789560325976
42.1647148669757,72.6558751293588,12.9497943897846,50.8227803368551
42.2049808902781,70.6049629054887,12.8697094826322,50.8672220609935
42.2477417208419,68.555125095956,12.8698855233883,50.9122335146722
42.2928918873259,66.5062730841245,12.8700606829812,50.9578708542152
42.3403318033912,64.4582868703411,12.8638977527751,51.0041589218382
42.3899565712536,62.411075877169,12.8678593760883,51.0511228542012
42.4416599121399,60.3645574889999,12.8218428786127,51.0988017084462
42.4953345145275,58.3186553001501,12.7762498405194,51.1472120932102
42.5508720009431,56.2732996050902,12.7806617528216,51.1963723029391
42.6081629334798,54.2284276833101,12.7852071368225,51.2463263003459
42.6670970606747,52.1839824454541,12.7898775616153,51.2971083797694
42.7275629858266,50.1399151571668,12.7714319759256,51.3487571093583
42.7894484247717,48.0961839313269,12.699559822056,51.4013403416872
42.8526400432788,46.0527554818725,12.704553958326,51.4548374417707
42.9170237911354,44.0096027758162,12.620664985707,51.5093717867275
42.9824845591161,41.9667086910587,12.5781683446926,51.5649126991309
43.0489298674799,39.9238278512203,12.5200470083848,51.6215641058988
43.1162226460111,37.8812029529611,12.4253526799038,51.6794054335665
43.1840892293164,35.8407114349855,12.3639389933529,51.738370033076
43.2524590405083,33.801547087831,12.3226705171236,51.7985674663377
43.3216589021777,31.7570006448694,12.2415372579997,51.8603267383987
43.3914280891892,29.7103851850981,12.1494769279832,51.9236195697668
43.4614213664158,27.6666706634785,12.144642635085,51.9883056744563
43.531632545012,25.623087926291,12.0580638277542,52.054696637143
43.6019330462209,23.5802698828396,12.025058901859,52.1223131729611
