<?xml version="1.0" encoding="utf-8"?>
<kml xmlns="http://www.opengis.net/kml/2.2">
  <Document>
    <name>MalloryPark_OptimalPath_RR</name>
    <Placemark>
      <Snippet maxLines="0"> </Snippet>
      <description> </description>
      <name>MalloryPark_OptimalPath_RR</name>
      <Style>
        <LineStyle>
          <width>4</width>
          <color>ffff0000</color>
        </LineStyle>
      </Style>
      <LineString>
        <coordinates> -1.33699430913179,52.5986689592092,0 -1.33699185092884,52.5986505053978,0 -1.33698939340838,52.5986319775103,0 -1.33698693764094,52.5986134521338,0 -1.33698448496256,52.5985949540107,0 -1.33698203720305,52.5985764334112,0 -1.33697959632992,52.598557846446,0 -1.33697716211754,52.5985392318423,0 -1.33697473510008,52.5985206052542,0 -1.33697231575126,52.5985019826432,0 -1.33696990484119,52.5984833759154,0 -1.33696750311626,52.5984647908034,0 -1.3369651119171,52.598446224656,0 -1.33696273264196,52.5984276701592,0 -1.33696036676187,52.5984091219107,0 -1.33695801531473,52.5983905777646,0 -1.33695567954012,52.5983720364104,0 -1.33695336051865,52.5983534949362,0 -1.33695105870703,52.5983349598607,0 -1.33694877365682,52.5983164448596,0 -1.33694650629407,52.5982979521947,0 -1.33694425902734,52.5982794733584,0 -1.3369420357392,52.5982609904141,0 -1.33693984042236,52.5982424848014,0 -1.33693767502773,52.5982239482108,0 -1.33693553996376,52.598205379287,0 -1.33693343308828,52.5981867871537,0 -1.33693135015274,52.5981681888685,0 -1.33692928858488,52.5981495956445,0 -1.33692724755194,52.5981310129781,0 -1.33692522884842,52.5981124383842,0 -1.33692323601451,52.5980938644562,0 -1.33692126899737,52.5980752931705,0 -1.33691932604598,52.5980567306108,0 -1.33691740648324,52.598038180404,0 -1.33691551881512,52.5980196273,0 -1.33691367525695,52.5980010489763,0 -1.33691188264312,52.5979824326143,0 -1.33691014495637,52.5979637704003,0 -1.33690846069694,52.5979450631912,0 -1.33690681912799,52.5979263267437,0 -1.33690520794868,52.597907579039,0 -1.3369036191503,52.5978888316405,0 -1.33690205670545,52.5978700781005,0 -1.33690052383681,52.5978513130426,0 -1.33689901797367,52.5978325393851,0 -1.3368975382463,52.5978137577138,0 -1.33689608343865,52.597794968941,0 -1.33689465257652,52.5977761738339,0 -1.33689324441421,52.5977573733748,0 -1.33689185772607,52.5977385685497,0 -1.3368904913495,52.5977197603302,0 -1.3368891440031,52.5977009497857,0 -1.33688781438795,52.597682137999,0 -1.33688650128882,52.5976633259517,0 -1.3368852028949,52.5976445153428,0 -1.33688391730501,52.5976257079575,0 -1.33688264324429,52.5976069048772,0 -1.33688138018582,52.5975881063655,0 -1.33688012824742,52.5975693120069,0 -1.33687888789647,52.5975505209764,0 -1.336877660044,52.5975317320677,0 -1.33687644523275,52.597512944375,0 -1.33687524297744,52.5974941580672,0 -1.33687405253916,52.5974753735475,0 -1.33687287350377,52.5974565909428,0 -1.33687170543213,52.597437810361,0 -1.33687054798923,52.5974190318532,0 -1.33686940067741,52.5974002555648,0 -1.33686826325916,52.5973814814728,0 -1.33686713526534,52.5973627096925,0 -1.33686601637882,52.5973439402443,0 -1.33686490629259,52.5973251731384,0 -1.33686380459895,52.5973064084435,0 -1.3368627111073,52.5972876460926,0 -1.33686162535702,52.5972688861792,0 -1.33686054719865,52.5972501286143,0 -1.33685947621041,52.5972313734588,0 -1.33685841215985,52.5972126206659,0 -1.33685735480598,52.5971938701889,0 -1.33685630383138,52.5971751220257,0 -1.33685525897427,52.5971563761383,0 -1.33685421998255,52.5971376324806,0 -1.33685318660015,52.5971188910099,0 -1.33685215854768,52.5971001517027,0 -1.33685113552721,52.5970814145506,0 -1.33685011775456,52.5970626791298,0 -1.33684910515227,52.5970439452514,0 -1.33684809692261,52.5970252132989,0 -1.33684709183905,52.5970064839933,0 -1.33684608851235,52.5969877581825,0 -1.33684508554784,52.5969690367191,0 -1.33684408175891,52.5969503202968,0 -1.33684307651291,52.5969316091911,0 -1.33684207018112,52.5969129029243,0 -1.33684106313009,52.5968942010235,0 -1.33684005559416,52.5968755031156,0 -1.33683904784615,52.5968568088015,0 -1.3368380401983,52.596838117657,0 -1.33683703298093,52.5968194292523,0 -1.33683602653796,52.5968007431664,0 -1.33683502126645,52.5967820590166,0 -1.33683402463999,52.5967633799844,0 -1.33683304486427,52.5967447098054,0 -1.33683208974049,52.5967260525258,0 -1.33683116576933,52.5967074131454,0 -1.33683027940693,52.5966887966964,0 -1.33682944912999,52.5966701999087,0 -1.33682870225062,52.5966516136497,0 -1.33682804174065,52.5966330453199,0 -1.33682746351321,52.5966145076368,0 -1.33682696033425,52.5965960158657,0 -1.33682651707869,52.5965775922209,0 -1.33682612344023,52.5965592546319,0 -1.3368257957128,52.5965409986266,0 -1.33682555256355,52.5965228179039,0 -1.33682539571221,52.5965047183205,0 -1.33682529738207,52.5964867255448,0 -1.33682525487505,52.5964688494108,0 -1.33682526893059,52.5964510977388,0 -1.33682533749758,52.596433479869,0 -1.33682548644379,52.5964159907587,0 -1.33682578631002,52.5963986038441,0 -1.33682631328911,52.596381289987,0 -1.33682711881251,52.5963640307831,0 -1.33682819128783,52.5963468343242,0 -1.33682951705469,52.5963297095598,0 -1.33683108909332,52.5963126627038,0 -1.3368329060944,52.5962956976222,0 -1.33683500479783,52.5962788025607,0 -1.33683743850228,52.5962619590144,0 -1.33684008753687,52.596245218068,0 -1.33684295202032,52.5962285834604,0 -1.33684616702061,52.5962120067789,0 -1.33684992770787,52.5961954169437,0 -1.33685441920829,52.5961787465718,0 -1.33685968029158,52.5961619808718,0 -1.33686566062802,52.5961451362202,0 -1.33687223779894,52.596128253495,0 -1.33687916720643,52.5961114137911,0 -1.33688639032609,52.5960946390838,0 -1.33689398021428,52.5960779110499,0 -1.33690198298843,52.5960612193416,0 -1.33691044116894,52.5960445546363,0 -1.33691929313434,52.5960279366337,0 -1.33692850995584,52.5960113761556,0 -1.33693811203285,52.595994870935,0 -1.33694809918054,52.5959784240447,0 -1.33695845480205,52.5959620427203,0 -1.33696917756684,52.59594573042,0 -1.33698024618915,52.5959294953991,0 -1.33699163374268,52.5959133472285,0 -1.33700330121251,52.5958972982223,0 -1.3370152783292,52.5958813454564,0 -1.33702762131951,52.595865480249,0 -1.33704035034231,52.5958497016312,0 -1.3370534580734,52.5958340144414,0 -1.33706695056335,52.5958184207132,0 -1.33708084828203,52.5958029194723,0 -1.33709516243427,52.5957875116656,0 -1.33710988982178,52.5957722011976,0 -1.33712506406872,52.5957569845388,0 -1.33714070550095,52.5957418607767,0 -1.33715678149993,52.5957268390821,0 -1.33717325488404,52.5957119294622,0 -1.33719013564543,52.5956971336174,0 -1.33720743650644,52.5956824527861,0 -1.33722512208863,52.5956678960259,0 -1.33724310961301,52.5956534798162,0 -1.3372613334831,52.595639218025,0 -1.33727976987642,52.5956251184454,0 -1.33729845127259,52.5956111809619,0 -1.33731748788731,52.5955973950568,0 -1.33733700756383,52.5955837479297,0 -1.33735707302791,52.5955702346472,0 -1.337377610121,52.5955568660557,0 -1.33739846345418,52.5955436619187,0 -1.33741950134821,52.5955306395163,0 -1.33744066751125,52.5955178082533,0 -1.33746201026654,52.5955051670828,0 -1.33748364948246,52.5954927081593,0 -1.33750567288711,52.5954804264872,0 -1.33752807911189,52.5954683246653,0 -1.33755079468097,52.5954564111037,0 -1.33757375391866,52.5954446936307,0 -1.3375969279961,52.5954331772183,0 -1.3376203357202,52.5954218632314,0 -1.33764404259042,52.595410749594,0 -1.33766810658525,52.5953998347627,0 -1.33769252034577,52.5953891217009,0 -1.33771723012115,52.5953786164661,0 -1.33774219258988,52.5953683244538,0 -1.33776737221036,52.5953582505925,0 -1.33779273188457,52.5953483998911,0 -1.33781825744741,52.5953387761197,0 -1.33784395758104,52.5953293818862,0 -1.33786984879694,52.5953202194184,0 -1.337895956914,52.5953112905369,0 -1.33792233014556,52.5953025961477,0 -1.33794902010865,52.5952941370256,0 -1.33797602090703,52.5952859159047,0 -1.33800328044618,52.5952779370018,0 -1.33803076730001,52.5952702038862,0 -1.33805847382286,52.5952627194038,0 -1.33808638124347,52.5952554867391,0 -1.33811447462591,52.5952485075757,0 -1.33814278811555,52.5952417801077,0 -1.33817133354261,52.5952353032393,0 -1.33820005104144,52.5952290781552,0 -1.33822890041009,52.5952231054179,0 -1.33825792312433,52.5952173829075,0 -1.33828716666796,52.5952119083122,0 -1.33831659380634,52.595206681848,0 -1.33834615448388,52.5952017040553,0 -1.33837584367586,52.59519697425,0 -1.33840562699275,52.5951924925367,0 -1.33843545551744,52.5951882594431,0 -1.33846530389192,52.5951842748309,0 -1.33849518320233,52.5951805375688,0 -1.3385251106218,52.5951770463622,0 -1.33855508210459,52.5951738004433,0 -1.33858510393426,52.5951707988311,0 -1.33861517315233,52.5951680407197,0 -1.3386452686931,52.5951655256913,0 -1.3386753853819,52.5951632530546,0 -1.33870551747752,52.5951612221216,0 -1.33873565948711,52.595159432201,0 -1.33876582579637,52.5951578824298,0 -1.33879604910014,52.5951565718435,0 -1.33882635508017,52.5951554994934,0 -1.33885672274119,52.5951546643981,0 -1.3388870845655,52.5951540654319,0 -1.3389173887205,52.5951537015447,0 -1.33894763650548,52.5951535719992,0 -1.33897784712269,52.5951536761719,0 -1.33900805391694,52.5951540135295,0 -1.33903828138432,52.5951545834838,0 -1.33906851483961,52.5951553851996,0 -1.33909870256962,52.5951564175898,0 -1.33912880281445,52.5951576796427,0 -1.33915883197305,52.595159170844,0 -1.3391888383297,52.5951608909893,0 -1.33921884808355,52.5951628396254,0 -1.33924886037211,52.5951650160191,0 -1.3392788528524,52.5951674191822,0 -1.33930878238298,52.5951700478046,0 -1.33933861071909,52.5951729006905,0 -1.33936834090611,52.5951759773604,0 -1.33939798665818,52.5951792775068,0 -1.33942751093212,52.5951827997222,0 -1.33945687179706,52.5951865424803,0 -1.33948604827314,52.5951905048087,0 -1.33951503780844,52.5951946861833,0 -1.33954384679158,52.5951990863641,0 -1.33957250757042,52.5952037056819,0 -1.33960104947268,52.595208544438,0 -1.33962943300333,52.5952136016331,0 -1.33965758656802,52.5952188756905,0 -1.33968548815821,52.5952243658652,0 -1.33971318259941,52.5952300723966,0 -1.33974073809566,52.5952359958504,0 -1.3397682121072,52.5952421366582,0 -1.33979568817893,52.5952484955761,0 -1.33982323016316,52.5952550730985,0 -1.33985085060742,52.5952618688834,0 -1.33987857990996,52.5952688829738,0 -1.33990645384517,52.5952761155663,0 -1.33993450729841,52.5952835668244,0 -1.33996272252418,52.5952912344842,0 -1.33999099431646,52.5952991113783,0 -1.34001920173321,52.5953071892901,0 -1.34004723613523,52.5953154609592,0 -1.3400750154925,52.5953239214911,0 -1.34010247544731,52.5953325677572,0 -1.3401296011427,52.5953414020887,0 -1.34015643326523,52.5953504334667,0 -1.3401830272569,52.5953596727627,0 -1.34020943299594,52.5953691300931,0 -1.34023567526526,52.5953788119924,0 -1.34026174463264,52.5953887198746,0 -1.34028757383306,52.5953988460984,0 -1.34031300650443,52.5954091684238,0 -1.34033793990948,52.5954196738209,0 -1.34036236806595,52.5954303662114,0 -1.34038633503937,52.5954412585723,0 -1.34040984562319,52.5954523566774,0 -1.34043292247099,52.5954636696114,0 -1.34045561089052,52.5954752106936,0 -1.34047790649936,52.5954869839355,0 -1.34049967887688,52.5954989695029,0 -1.34052082984669,52.5955111536754,0 -1.34054156528255,52.5955235793979,0 -1.34056170230157,52.595536217905,0 -1.34058073962341,52.5955489844234,0 -1.34059856045157,52.5955618571752,0 -1.34061561704205,52.595574904092,0 -1.34063235702638,52.5955881923411,0 -1.34064889080399,52.5956017264015,0 -1.34066537211768,52.5956155199676,0 -1.34068216745416,52.5956296387103,0 -1.34069932721131,52.59564406104,0 -1.34071688075124,52.5956587593055,0 -1.34073498016961,52.595673739932,0 -1.34075372435092,52.5956889958877,0 -1.34077283662662,52.5957044356148,0 -1.34079177410966,52.5957199410516,0 -1.34081017507087,52.5957354332485,0 -1.34082792858203,52.5957508902486,0 -1.34084510721221,52.5957663332683,0 -1.34086185579079,52.5957818008505,0 -1.34087832721847,52.5957973334955,0 -1.34089461488979,52.5958129571752,0 -1.34091071500216,52.5958286739691,0 -1.34092657532814,52.5958444739252,0 -1.34094220816233,52.5958603633693,0 -1.34095763362994,52.595876350616,0 -1.3409728433784,52.5958924365916,0 -1.34098778027733,52.5959086090161,0 -1.34100237817198,52.5959248532437,0 -1.34101655644095,52.5959411504919,0 -1.34103037218154,52.5959575212126,0 -1.34104382531312,52.5959739692086,0 -1.3410568780998,52.5959904873864,0 -1.34106955119722,52.5960070852368,0 -1.34108188686806,52.5960237783877,0 -1.34109392553245,52.5960405819411,0 -1.34110567264354,52.5960574992971,0 -1.34111703838887,52.5960744968811,0 -1.34112806215674,52.5960915995398,0 -1.34113871637855,52.5961087966003,0 -1.34114899130931,52.5961260882807,0 -1.34115893587295,52.5961435150243,0 -1.34116857922109,52.5961611018881,0 -1.3411779327199,52.5961788586351,0 -1.34118699859418,52.5961967867774,0 -1.34119568186415,52.5962148005646,0 -1.34120395862142,52.5962328743829,0 -1.34121186269432,52.5962510284913,0 -1.34121938202285,52.5962692485117,0 -1.34122650454671,52.596287520066,0 -1.34123321690207,52.59630582787,0 -1.34123952716186,52.5963241712558,0 -1.34124544696616,52.5963425519716,0 -1.34125099216255,52.5963609746224,0 -1.34125617801549,52.5963794434131,0 -1.34126104256755,52.5963979783836,0 -1.34126561550127,52.5964165936883,0 -1.34126987345172,52.5964352657192,0 -1.34127376969865,52.5964539540774,0 -1.34127730755313,52.5964726546899,0 -1.3412804964265,52.5964913679611,0 -1.34128332193748,52.5965100766124,0 -1.34128575884731,52.5965287551847,0 -1.3412878396785,52.5965474223508,0 -1.34128958851535,52.5965660902471,0 -1.34129098975227,52.5965847398112,0 -1.34129200902238,52.5966033369833,0 -1.34129262435895,52.5966218578098,0 -1.34129281938896,52.5966402829905,0 -1.34129259816802,52.5966586105539,0 -1.3412919906864,52.5966768608958,0 -1.34129105779551,52.5966950813136,0 -1.34128985525384,52.5967133147426,0 -1.34128841832199,52.5967315858063,0 -1.34128675024375,52.5967498906974,0 -1.34128482044067,52.5967681950645,0 -1.34128259013849,52.5967864570643,0 -1.34128004220703,52.5968046549623,0 -1.34127717587025,52.596822782284,0 -1.34127399803756,52.5968408398758,0 -1.34127052410383,52.596858836788,0 -1.34126677672798,52.5968767890617,0 -1.34126278444824,52.5968947185222,0 -1.34125856348988,52.5969126348391,0 -1.34125411739883,52.5969305347551,0 -1.34124945649518,52.5969484220493,0 -1.34124459675783,52.5969663062701,0 -1.34123955566702,52.5969841985686,0 -1.34123434071615,52.5970020995138,0 -1.34122895505192,52.5970200051337,0 -1.34122340269864,52.5970379123227,0 -1.34121768970664,52.5970558202367,0 -1.34121182668744,52.597073733049,0 -1.34120582952077,52.5970916608157,0 -1.34119971297486,52.597109612336,0 -1.34119348573937,52.5971275894839,0 -1.34118715506415,52.5971455924542,0 -1.34118072632438,52.597163619354,0 -1.34117420368311,52.5971816667551,0 -1.34116759087222,52.5971997307542,0 -1.3411608921481,52.5972178081209,0 -1.34115411342332,52.5972358975822,0 -1.34114726171627,52.597253999203,0 -1.34114034294686,52.5972721117089,0 -1.34113336307366,52.597290233873,0 -1.34112632816492,52.5973083646043,0 -1.34111924431897,52.5973265028492,0 -1.34111211765586,52.5973446475985,0 -1.34110495432611,52.5973627978597,0 -1.3410977605052,52.5973809526653,0 -1.34109054239791,52.5973991110705,0 -1.34108330621747,52.5974172721921,0 -1.34107605820125,52.5974354351655,0 -1.34106880447978,52.5974535991896,0 -1.34106154900402,52.5974717640768,0 -1.34105429418308,52.5974899300885,0 -1.3410470418126,52.5975080976538,0 -1.3410397926158,52.5975262674863,0 -1.34103254734575,52.5975444404145,0 -1.34102530693424,52.5975626175971,0 -1.34101807189767,52.5975807996137,0 -1.34101084160378,52.5975989854478,0 -1.34100361500439,52.5976171734599,0 -1.34099639088642,52.5976353618005,0 -1.34098916814091,52.5976535487712,0 -1.340981946031,52.5976717332155,0 -1.34097472447953,52.5976899149165,0 -1.34096750405251,52.5977080946734,0 -1.34096028524735,52.5977262731653,0 -1.34095306806164,52.5977444503181,0 -1.34094585263884,52.5977626262393,0 -1.34093863912514,52.5977808010667,0 -1.34093142766182,52.5977989749306,0 -1.34092421838913,52.59781714796,0 -1.34091701145365,52.5978353202943,0 -1.34090980698734,52.5978534920773,0 -1.34090260514996,52.5978716633869,0 -1.34089540605562,52.5978898343938,0 -1.34088820984334,52.5979080052147,0 -1.34088101665943,52.5979261759374,0 -1.34087382661853,52.5979443467097,0 -1.34086663985927,52.5979625176329,0 -1.34085945652196,52.5979806888089,0 -1.34085227672476,52.5979988603605,0 -1.34084510059411,52.598017032401,0 -1.340837928257,52.5980352050404,0 -1.34083075983816,52.598053378385,0 -1.34082359545566,52.5980715525287,0 -1.34081643522905,52.5980897275688,0 -1.34080927927753,52.5981079036027,0 -1.34080212771772,52.5981260807231,0 -1.34079498066438,52.5981442590197,0 -1.34078783823038,52.5981624385789,0 -1.34078070052663,52.5981806194836,0 -1.34077356766202,52.5981988018134,0 -1.3407664397434,52.5982169856441,0 -1.3407593168755,52.5982351710477,0 -1.34075219916328,52.5982533580978,0 -1.34074508674705,52.5982715469539,0 -1.34073797975736,52.5982897377526,0 -1.34073087815395,52.5983079302008,0 -1.34072378181344,52.5983261237909,0 -1.34071669060338,52.5983443179926,0 -1.34070960441581,52.5983625123432,0 -1.34070252319775,52.5983807065363,0 -1.34069544697845,52.5983989005048,0 -1.34068837588745,52.5984170944835,0 -1.34068131007275,52.5984352887647,0 -1.34067424959806,52.5984534833718,0 -1.34066719452589,52.5984716783249,0 -1.34066014492757,52.5984898736754,0 -1.34065310087395,52.5985080694738,0 -1.34064606243537,52.5985262657693,0 -1.34063902968167,52.5985444626105,0 -1.3406320026822,52.5985626600444,0 -1.34062498150585,52.5985808581172,0 -1.34061796622099,52.5985990568738,0 -1.34061095689552,52.5986172563576,0 -1.34060395359688,52.5986354566112,0 -1.34059695639201,52.5986536576754,0 -1.34058996534742,52.5986718595897,0 -1.34058298052911,52.5986900623924,0 -1.34057600200268,52.5987082661201,0 -1.34056902983323,52.5987264708079,0 -1.34056206408543,52.5987446764894,0 -1.34055510482352,52.5987628831964,0 -1.34054815211131,52.5987810909594,0 -1.34054120601216,52.5987992998068,0 -1.34053426658903,52.5988175097655,0 -1.34052733390447,52.5988357208605,0 -1.34052040802062,52.598853933115,0 -1.34051348899924,52.5988721465503,0 -1.34050657690169,52.5988903611858,0 -1.34049967178896,52.598908577039,0 -1.34049277372165,52.5989267941254,0 -1.34048588275998,52.5989450124585,0 -1.34047899896371,52.5989632320498,0 -1.34047212239212,52.5989814529087,0 -1.34046525310417,52.5989996750352,0 -1.34045839123567,52.5990178972997,0 -1.34045153683721,52.599036119581,0 -1.34044468952345,52.5990543462612,0 -1.34043784885653,52.5990725821186,0 -1.34043101472317,52.5990908287507,0 -1.3404241851028,52.5991090843644,0 -1.3404173584147,52.5991273441539,0 -1.34041053349187,52.5991456008178,0 -1.34040370955161,52.5991638449235,0 -1.34039688541991,52.5991820691289,0 -1.34039005823382,52.5992002739599,0 -1.34038322429857,52.5992184639212,0 -1.34037637969532,52.5992366442588,0 -1.34036952051938,52.5992548203437,0 -1.34036264293615,52.5992729971499,0 -1.34035574360405,52.5992911778705,0 -1.34034882002509,52.5993093628103,0 -1.34034187028126,52.599327550257,0 -1.34033489215102,52.5993457394969,0 -1.34032788311099,52.5993639307708,0 -1.34032084080832,52.5993821237804,0 -1.34031376291256,52.599400318179,0 -1.34030664728207,52.5994185131036,0 -1.34029949228382,52.5994367063501,0 -1.3402922963262,52.5994548946849,0 -1.34028505795374,52.5994730745417,0 -1.34027777569415,52.5994912423894,0 -1.34027044783191,52.5995093952545,0 -1.34026307224233,52.599527531065,0 -1.34025564627888,52.599545648862,0 -1.3402481671778,52.599563747929,0 -1.34024063253672,52.5995818268246,0 -1.34023303979766,52.5995998844102,0 -1.34022538579407,52.5996179206997,0 -1.34021766721079,52.5996359359807,0 -1.34020988098437,52.5996539300894,0 -1.34020202439313,52.5996719022656,0 -1.34019409513564,52.5996898510345,0 -1.34018609135414,52.5997077741862,0 -1.34017801163073,52.5997256688004,0 -1.34016985436227,52.5997435322462,0 -1.34016161751674,52.5997613625272,0 -1.34015329898813,52.599779157848,0 -1.34014489691271,52.5997969159558,0 -1.34013640943854,52.5998146345965,0 -1.34012783465551,52.5998323116858,0 -1.34011917077413,52.5998499448738,0 -1.34011041597539,52.5998675318864,0 -1.34010156845429,52.5998850704312,0 -1.34009262559054,52.5999025592537,0 -1.34008358359537,52.5999199985555,0 -1.34007444989892,52.5999373748563,0 -1.34006522869225,52.5999546785434,0 -1.34005590908282,52.5999719176537,0 -1.34004647320621,52.5999891082475,0 -1.34003690849844,52.6000062603298,0 -1.34002722133143,52.6000233630513,0 -1.34001735889109,52.600040469732,0 -1.34000730476545,52.6000575950645,0 -1.33999715844902,52.600074633598,0 -1.33998703799934,52.6000914613987,0 -1.33997697929656,52.6001080332634,0 -1.33996689651825,52.6001244182697,0 -1.33995664303453,52.6001407429753,0 -1.33994610109259,52.6001571053528,0 -1.3399352199285,52.6001735328556,0 -1.3399239827576,52.6001900138877,0 -1.3399123577749,52.6002065558847,0 -1.33990030300426,52.6002231807633,0 -1.33988778607993,52.6002398948389,0 -1.33987478804124,52.6002566797716,0 -1.33986129845922,52.6002734997712,0 -1.33984731396856,52.6002903033206,0 -1.3398328356947,52.6003070282677,0 -1.3398178795182,52.6003235758315,0 -1.33980247708177,52.6003398059675,0 -1.33978668124445,52.6003555895564,0 -1.33977049713455,52.6003709427082,0 -1.33975389598671,52.600385990615,0 -1.33973684273857,52.6004008792647,0 -1.33971931620163,52.6004157079445,0 -1.3397013111778,52.6004305218191,0 -1.33968284039469,52.600445305167,0 -1.33966393325503,52.600459985423,0 -1.33964462487243,52.600474470422,0 -1.33962493880067,52.6004887075223,0 -1.33960489807169,52.6005026457449,0 -1.3395845213699,52.6005162485069,0 -1.33956381195118,52.6005295291344,0 -1.33954276417265,52.600542529061,0 -1.33952136844021,52.6005553017957,0 -1.33949962664581,52.6005678667006,0 -1.33947755545577,52.6005802004501,0 -1.33945518489431,52.6005922421172,0 -1.33943255919072,52.6006038918271,0 -1.33940969982155,52.6006151105678,0 -1.33938657990353,52.6006259848915,0 -1.33936315600593,52.6006366427482,0 -1.33933941198537,52.6006471466266,0 -1.33931534309882,52.6006575327775,0 -1.33929096921856,52.6006677827986,0 -1.33926636642583,52.6006777578275,0 -1.33924162013803,52.6006872996888,0 -1.33921678097953,52.6006963193896,0 -1.33919184780514,52.6007048263976,0 -1.33916679646157,52.6007128719993,0 -1.33914159964797,52.6007205129678,0 -1.33911618787197,52.6007278764957,0 -1.33909049945155,52.6007350772824,0 -1.33906452647428,52.6007421467087,0 -1.33903830366739,52.6007490521876,0 -1.33901187835869,52.6007557427444,0 -1.33898529195052,52.600762175822,0 -1.33895857544062,52.6007683234002,0 -1.33893178699599,52.6007741202737,0 -1.33890494948025,52.6007795485753,0 -1.33887804597867,52.6007846425072,0 -1.33885108089067,52.6007894091932,0 -1.33882407654803,52.600793833802,0 -1.33879702502492,52.6007979372853,0 -1.33876990475736,52.6008017561007,0 -1.33874271814223,52.6008053006192,0 -1.33871549545193,52.600808552175,0 -1.33868822800756,52.6008115310288,0 -1.33866092095564,52.6008142441543,0 -1.3386336437231,52.6008166389963,0 -1.33860641867488,52.6008187051264,0 -1.33857920094629,52.6008204905022,0 -1.33855195955864,52.600822031349,0 -1.33852470102838,52.6008233329856,0 -1.33849740977197,52.6008244185539,0 -1.33847000143201,52.6008253656107,0 -1.33844251428902,52.6008261564778,0 -1.33841504633308,52.6008267279488,0 -1.33838764626535,52.6008270536113,0 -1.3383602884791,52.6008271610153,0 -1.33833291854238,52.6008270978742,0 -1.33830547231539,52.6008269183151,0 -1.33827791822409,52.600826656176,0 -1.33825018344901,52.6008263692986,0 -1.33822235420195,52.6008260303862,0 -1.33819441829969,52.6008256603558,0 -1.33816621256356,52.6008253462536,0 -1.33813763139769,52.6008251530772,0 -1.3381086723221,52.6008251108925,0 -1.33807932753435,52.6008252515588,0 -1.33804956542419,52.6008256129383,0 -1.33801947318603,52.6008262052952,0 -1.33798918337463,52.6008270287974,0 -1.33795863069307,52.6008281258885,0 -1.33792777218616,52.6008295342579,0 -1.33789666834597,52.6008312697184,0 -1.33786536457822,52.6008333511981,0 -1.33783399060851,52.6008357812562,0 -1.33780284110021,52.6008385088045,0 -1.33777225219892,52.6008414770413,0 -1.33774223838746,52.6008446607535,0 -1.33771246212322,52.6008480537351,0 -1.3376826423711,52.6008516486322,0 -1.33765269918309,52.600855440582,0 -1.33762270177336,52.600859426354,0 -1.33759278776569,52.6008636034744,0 -1.33756293477085,52.600867968809,0 -1.33753309943159,52.6008725191769,0 -1.33750333149605,52.6008772530917,0 -1.33747366159722,52.6008821686208,0 -1.33744412577345,52.6008872639851,0 -1.33741477739111,52.6008925381487,0 -1.33738564770515,52.6008979889863,0 -1.33735673865907,52.6009036126445,0 -1.33732802976624,52.6009094038413,0 -1.33729948938213,52.6009153567292,0 -1.33727106835983,52.6009214638201,0 -1.33724271276134,52.6009277177223,0 -1.33721440064972,52.6009341129945,0 -1.33718613938878,52.6009406467239,0 -1.33715794834032,52.6009473167975,0 -1.33712985228287,52.6009541215185,0 -1.33710188397337,52.6009610598002,0 -1.33707407266824,52.6009681303974,0 -1.33704640579058,52.6009753278476,0 -1.33701884719594,52.6009826443596,0 -1.33699137087313,52.6009900732675,0 -1.33696395455631,52.6009976084205,0 -1.33693657635132,52.6010052436221,0 -1.33690922403299,52.6010129739588,0 -1.33688190098549,52.6010207968828,0 -1.33685461625143,52.6010287106225,0 -1.33682737005229,52.601036712082,0 -1.33680015822561,52.6010447974043,0 -1.33677297717392,52.6010529628407,0 -1.33674581949303,52.6010612041468,0 -1.33671867649948,52.6010695168336,0 -1.33669154060787,52.6010778966322,0 -1.33666440070166,52.6010863384323,0 -1.33663724912783,52.6010948380091,0 -1.33661008873965,52.601103392782,0 -1.3365829284323,52.6011120014579,0 -1.33655577906382,52.6011206629005,0 -1.33652865370226,52.6011293766224,0 -1.33650156524043,52.6011381419283,0 -1.33647452283284,52.6011469574241,0 -1.33644752430399,52.6011558195394,0 -1.33642056385509,52.6011647237977,0 -1.3363936358383,52.6011736658272,0 -1.33636673364447,52.6011826410937,0 -1.33633984968165,52.6011916447735,0 -1.33631297594106,52.6012006719494,0 -1.3362861046513,52.6012097178656,0 -1.33625922833723,52.6012187776414,0 -1.3362323391005,52.6012278465058,0 -1.33620542894628,52.6012369195427,0 -1.33617849068195,52.6012459919585,0 -1.33615151232123,52.6012550578393,0 -1.33612448113131,52.6012641109134,0 -1.33609739059214,52.6012731467774,0 -1.33607024765536,52.6012821652382,0 -1.33604306894403,52.6012911692209,0 -1.33601587241918,52.601300162245,0 -1.33598867168659,52.6013091460457,0 -1.33596147018539,52.601318119108,0 -1.33593425468705,52.601327073275,0 -1.33590700276707,52.6013359970435,0 -1.33587969153736,52.6013448787851,0 -1.33585228232945,52.6013537001258,0 -1.33582474144738,52.6013624449888,0 -1.33579704275398,52.6013711005961,0 -1.33576918284681,52.6013796646491,0 -1.33574118159251,52.6013881453701,0 -1.33571302353117,52.6013965347764,0 -1.33568469563183,52.6014048257326,0 -1.33565619582497,52.6014130167681,0 -1.33562752554801,52.6014211075763,0 -1.33559872212219,52.6014291155212,0 -1.33556985165169,52.6014370713356,0 -1.33554097606797,52.6014450039472,0 -1.33551213359049,52.601452931473,0 -1.33548331854508,52.6014608517211,0 -1.33545451964138,52.6014687604545,0 -1.33542572426301,52.6014766526586,0 -1.33539692326186,52.6014845246869,0 -1.33536812460852,52.6014923802349,0 -1.33533934416209,52.6015002261821,0 -1.33531058922385,52.6015080658418,0 -1.33528186555882,52.6015159019712,0 -1.33525318075357,52.6015237378972,0 -1.33522454454186,52.6015315782278,0 -1.33519597277738,52.601539429566,0 -1.33516748094243,52.6015472987757,0 -1.33513907970069,52.6015551904524,0 -1.33511077307924,52.6015631067874,0 -1.33508255856305,52.6015710471818,0 -1.33505442785703,52.6015790090038,0 -1.33502636957582,52.6015869882257,0 -1.33499837230974,52.6015949809713,0 -1.33497042995503,52.6016029852293,0 -1.33494253734228,52.6016109995645,0 -1.33491468890489,52.601619022183,0 -1.334886878911,52.6016270513183,0 -1.33485910163982,52.6016350851694,0 -1.3348313513545,52.6016431219519,0 -1.33480362230834,52.6016511599121,0 -1.33477590888051,52.6016591972062,0 -1.3347482055846,52.601667231883,0 -1.33472050703658,52.6016752618727,0 -1.33469280757827,52.6016832853307,0 -1.33466510143915,52.6016913004735,0 -1.33463738298263,52.6016993053382,0 -1.33460964685935,52.6017072980325,0 -1.33458188879052,52.601715277127,0 -1.33455408298593,52.6017232328631,0 -1.33452625075257,52.6017311738676,0 -1.33449845242034,52.6017391246792,0 -1.33447073903843,52.6017470148151,0 -1.33444305898079,52.6017547299126,0 -1.33441530460913,52.6017621329619,0 -1.33438752763914,52.6017690714895,0 -1.33435980945878,52.6017754051143,0 -1.33433231987207,52.6017810290196,0 -1.33430507739346,52.6017857756681,0 -1.33427820225824,52.6017895210713,0 -1.33425167028922,52.6017920771748,0 -1.33422562141764,52.6017933320671,0 -1.33420000991592,52.6017930813879,0 -1.33417485830854,52.601791158152,0 -1.33415007697971,52.601787326989,0 -1.33412538275082,52.6017812205403,0 -1.33410058307751,52.6017725378455,0 -1.33407663644498,52.6017617936747,0 -1.33405507815425,52.6017498613413,0 -1.33403721733484,52.6017374934708,0 -1.33402315419191,52.6017248411576,0 -1.33401265884582,52.6017118871385,0 -1.334005209044,52.601698448271,0 -1.33400038629415,52.6016844101234,0 -1.33399819152891,52.6016699942692,0 -1.33399849248103,52.6016552903434,0 -1.33400127023491,52.6016405271331,0 -1.33400652762009,52.6016259660101,0 -1.33401412652104,52.6016116030188,0 -1.33402393218646,52.6015974424986,0 -1.33403578774784,52.6015834248542,0 -1.33404956894816,52.6015696081399,0 -1.33406519895781,52.6015562698984,0 -1.33408261198514,52.6015437555222,0 -1.33410172769604,52.6015322865412,0 -1.33412245370574,52.6015219363518,0 -1.33414469411148,52.6015127142211,0 -1.33416835055019,52.6015045636204,0 -1.33419332564847,52.6014974601604,0 -1.33421951920337,52.6014912784209,0 -1.33424683312959,52.6014859573938,0 -1.33427516754836,52.6014813916,0 -1.33430441472082,52.6014773401977,0 -1.33433446777406,52.6014735723832,0 -1.3343652351108,52.6014697495526,0 -1.33439664066954,52.6014656494957,0 -1.33442871818767,52.6014617185513,0 -1.33446137386535,52.6014577366014,0 -1.33449450962494,52.6014534640832,0 -1.33452803950119,52.6014487083663,0 -1.3345618961287,52.601443346339,0 -1.33459602130188,52.6014372853662,0 -1.33463035480094,52.6014304253298,0 -1.33466491944763,52.6014229095511,0 -1.33469986794027,52.6014152451647,0 -1.33473514389671,52.6014073687258,0 -1.33477070640773,52.6013992583762,0 -1.33480651490108,52.6013908938875,0 -1.33484252930263,52.6013822557189,0 -1.33487871410442,52.601373335804,0 -1.33491503704863,52.6013641343816,0 -1.33495146008714,52.6013546371842,0 -1.33498798916235,52.6013449380103,0 -1.33502466069531,52.6013352065213,0 -1.33506145557374,52.601325473777,0 -1.33509836774545,52.6013158033769,0 -1.33513537481849,52.6013062181227,0 -1.33517244246544,52.6012967105845,0 -1.33520952869699,52.6012872527571,0 -1.33524658873568,52.601277810456,0 -1.33528358218037,52.601268359774,0 -1.33532047484118,52.6012588936336,0 -1.33535723995647,52.6012494258466,0 -1.33539385428123,52.6012399788781,0 -1.33543028967492,52.6012305622063,0 -1.33546652048962,52.6012211914406,0 -1.33550252002936,52.6012118805015,0 -1.33553825892553,52.6012026349532,0 -1.33557370776013,52.6011934609381,0 -1.33560883627985,52.6011843623692,0 -1.33564357882549,52.6011752460551,0 -1.33567786758171,52.6011660131083,0 -1.33571165904727,52.6011566317347,0 -1.3357449440039,52.6011471664229,0 -1.33577773885014,52.6011377572545,0 -1.33581008123486,52.6011286120479,0 -1.33584205598508,52.6011201052032,0 -1.33587360226934,52.6011120418218,0 -1.33590465006032,52.6011041906698,0 -1.33593514092639,52.6010963639831,0 -1.33596502494792,52.6010884033235,0 -1.33599426638949,52.601080194537,0 -1.33602285852866,52.6010717047519,0 -1.3360508382072,52.6010630196203,0 -1.33607828568407,52.6010543400203,0 -1.33610518464913,52.6010456063817,0 -1.33613154621383,52.6010368327368,0 -1.33615738683099,52.6010280473089,0 -1.33618271605228,52.6010192597844,0 -1.33620753710497,52.601010464048,0 -1.33623184789216,52.6010016405685,0 -1.33625565911226,52.6009928017001,0 -1.33627898601169,52.6009839705409,0 -1.33630183219139,52.6009751423775,0 -1.33632413546059,52.6009661567534,0 -1.33634583867804,52.6009568649857,0 -1.3363669165447,52.6009471914179,0 -1.33638736478475,52.600937106822,0 -1.33640719060013,52.6009266065934,0 -1.33642643142869,52.6009157488377,0 -1.33644517630419,52.6009046922574,0 -1.33646349152095,52.6008935534361,0 -1.33648130410758,52.6008822045073,0 -1.33649857159881,52.6008705688726,0 -1.33651532368328,52.6008586865427,0 -1.33653157115304,52.6008465681601,0 -1.33654727135669,52.6008341449837,0 -1.33656237944853,52.6008213452373,0 -1.33657695961451,52.600808244067,0 -1.33659107775813,52.6007949186974,0 -1.33660468178945,52.6007813022412,0 -1.33661773454347,52.6007673453563,0 -1.33663026356703,52.6007530708027,0 -1.33664223075762,52.6007384310589,0 -1.33665361885951,52.6007234001441,0 -1.3366645509343,52.6007080909477,0 -1.33667519780713,52.6006926621349,0 -1.33668561123908,52.6006771613278,0 -1.33669572901249,52.6006615319368,0 -1.33670552473101,52.6006457497076,0 -1.33671501211211,52.6006298259441,0 -1.33672420021677,52.600613767647,0 -1.33673315951845,52.6005976355491,0 -1.33674202355267,52.6005815440833,0 -1.33675084615602,52.6005655406878,0 -1.33675962088802,52.6005496226601,0 -1.33676851877167,52.600533932331,0 -1.33677760372488,52.6005185257934,0 -1.3367867163058,52.600503282709,0 -1.33679567733619,52.6004880675809,0 -1.33680429807473,52.6004727378052,0 -1.3368124192418,52.600457171995,0 -1.33681994794539,52.6004412947509,0 -1.33682695432113,52.6004251409872,0 -1.33683380451609,52.6004089430244,0 -1.33684065524724,52.6003927942892,0 -1.33684747041942,52.6003766605691,0 -1.33685426712612,52.600360542838,0 -1.3368610354861,52.6003444242685,0 -1.33686771683275,52.6003282556226,0 -1.33687414407181,52.6003119155167,0 -1.3368803091909,52.6002953890192,0 -1.33688636112223,52.6002787660737,0 -1.33689244210729,52.6002621321132,0 -1.33689861814824,52.6002455215616,0 -1.33690485717258,52.6002289015167,0 -1.33691106283625,52.6002121916121,0 -1.33691712402388,52.6001952997831,0 -1.33692297904473,52.6001781794979,0 -1.33692865625741,52.6001608815155,0 -1.33693417114628,52.6001434399524,0 -1.33693952039168,52.6001258628124,0 -1.33694467447579,52.6001081146806,0 -1.33694961738417,52.6000901854473,0 -1.33695434225436,52.6000720833517,0 -1.33695883985614,52.6000538120365,0 -1.33696311189663,52.6000353972401,0 -1.33696712642936,52.6000167989895,0 -1.33697083947797,52.5999979556521,0 -1.33697426227186,52.5999789008543,0 -1.33697743491042,52.5999596936771,0 -1.3369804057015,52.5999404065419,0 -1.33698320370251,52.5999210806743,0 -1.33698584763756,52.5999017407222,0 -1.33698836464581,52.5998824247285,0 -1.33699073202594,52.5998630920045,0 -1.33699292548976,52.5998436993747,0 -1.3369949658285,52.5998242737291,0 -1.33699687043718,52.5998048367371,0 -1.33699865934219,52.5997854140511,0 -1.33700035042734,52.5997660281318,0 -1.33700196178156,52.5997467017418,0 -1.33700351251316,52.5997274591388,0 -1.33700499683573,52.5997082880969,0 -1.33700639478149,52.5996891546059,0 -1.33700770457667,52.5996700531432,0 -1.33700893365179,52.599650991735,0 -1.33701008508879,52.5996319722691,0 -1.33701115897392,52.5996129911941,0 -1.33701215465496,52.5995940440817,0 -1.33701307226053,52.5995751279414,0 -1.33701391274659,52.5995562406947,0 -1.33701467772449,52.599537381874,0 -1.33701536930083,52.599518551498,0 -1.33701598879026,52.5994997485887,0 -1.33701653752665,52.5994809718784,0 -1.33701701703585,52.5994622202473,0 -1.33701742859122,52.5994434928651,0 -1.33701777380087,52.5994247885965,0 -1.3370180540356,52.5994061065678,0 -1.33701827076282,52.5993874458462,0 -1.33701842545681,52.5993688055128,0 -1.33701851960029,52.5993501846657,0 -1.33701855466114,52.5993315823721,0 -1.33701853214771,52.5993129977856,0 -1.33701845366288,52.5992944302655,0 -1.33701832082218,52.5992758791994,0 -1.33701813522438,52.5992573439365,0 -1.33701789846103,52.5992388238093,0 -1.33701761213877,52.5992203181865,0 -1.33701727763704,52.5992018258776,0 -1.33701689621111,52.5991833453789,0 -1.33701646929342,52.5991648756464,0 -1.3370159984989,52.5991464161239,0 -1.33701548552,52.5991279665058,0 -1.33701493213622,52.5991095266448,0 -1.33701434009044,52.5990910965881,0 -1.33701371129315,52.5990726761215,0 -1.33701304723285,52.5990542645118,0 -1.33701234937405,52.5990358606858,0 -1.337011619279,52.5990174638167,0 -1.33701085846521,52.5989990732086,0 -1.33701006855939,52.5989806881359,0 -1.33700925120328,52.5989623079343,0 -1.33700840796969,52.5989439320787,0 -1.33700754048581,52.5989255600562,0 -1.33700665037597,52.5989071914464,0 -1.33700573927154,52.5988888258956,0 -1.3370048089561,52.5988704630067,0 -1.33700386097178,52.5988521026613,0 -1.33700289712833,52.5988337446078,0 -1.33700191874232,52.5988153866839,0 -1.33700092781856,52.598797031086,0 -1.33699992845327,52.5987786946338,0 -1.33699892167777,52.5987603700925,0 -1.3369979026251,52.5987419972143,0 -1.33699687516406,52.5987236057503,0 -1.33699584446784,52.5987052402911,0 -1.3369948104868,52.5986868760748,0 -1.3369937752332,52.5986685186912,0</coordinates>
      </LineString>
    </Placemark>
  </Document>
</kml>