<?xml version="1.0" encoding="utf-8"?>
<kml xmlns="http://www.opengis.net/kml/2.2">
  <Document>
    <name>HockenheimRing_Center_RR</name>
    <Placemark>
      <Snippet maxLines="0"> </Snippet>
      <description> </description>
      <name>HockenheimRing_Center_RR</name>
      <Style>
        <LineStyle>
          <width>4</width>
          <color>ffff0000</color>
        </LineStyle>
      </Style>
      <LineString>
        <coordinates> 8.56585074893265,49.3277711688052,0 8.56582368703025,49.327807957943,0 8.56579660576862,49.3278447410089,0 8.56576950529245,49.3278815180503,0 8.56574238564212,49.3279182890363,0 8.56571524684874,49.3279550539274,0 8.5656880871934,49.3279918122368,0 8.56566090604763,49.3280285638316,0 8.56563370640846,49.3280653096603,0 8.56560649113741,49.3281020505512,0 8.56557926318935,49.3281387874083,0 8.56555202502599,49.3281755210401,0 8.5655247752488,49.3282122510746,0 8.56549751063351,49.3282489764276,0 8.56547022794524,49.328285696007,0 8.56544292398922,49.3283224087565,0 8.56541560419453,49.328359116532,0 8.56538827883385,49.3283958228929,0 8.56536093222046,49.328432522541,0 8.56533354781699,49.3284692099676,0 8.56530610905837,49.3285058796392,0 8.5652786176766,49.3285425324528,0 8.56525110585292,49.3285791799942,0 8.56522354428758,49.3286158118325,0 8.56519589957566,49.3286524162056,0 8.5651681382288,49.3286889812665,0 8.56514023903742,49.3287255003288,0 8.56511223024651,49.3287619860676,0 8.56508410999736,49.3287984365715,0 8.56505587177991,49.3288348478853,0 8.56502750907274,49.3288712160408,0 8.56499901321703,49.3289075374144,0 8.56497037417621,49.3289438126873,0 8.56494160451112,49.3289800455116,0 8.5649127192731,49.3290162394014,0 8.5648837335135,49.329052397871,0 8.56485465556758,49.329088522656,0 8.56482545273578,49.329124605225,0 8.56479613868915,49.3291606503599,0 8.56476673823511,49.3291966658847,0 8.56473727620347,49.3292326596533,0 8.56470776825474,49.3292686364665,0 8.56467814799205,49.3293045737555,0 8.56464844465016,49.329340482075,0 8.56461871817071,49.3293763824904,0 8.56458902839209,49.3294122959215,0 8.56455943569492,49.3294482436742,0 8.56452997189104,49.3294842389327,0 8.56450057724894,49.3295202594092,0 8.56447117729278,49.3295562763825,0 8.56444169757977,49.3295922611865,0 8.56441196255414,49.329628166891,0 8.56437944206306,49.3296635330127,0 8.56434530850352,49.3296985832402,0 8.56431259420778,49.3297338775336,0 8.56428433151484,49.3297699758554,0 8.56426352626975,49.3298074474496,0 8.56425053309023,49.3298471933533,0 8.56424446879861,49.3298886679835,0 8.56424534212583,49.3299306495415,0 8.56425316173231,49.3299719160993,0 8.56426796877656,49.330011292747,0 8.56428984884307,49.3300490350205,0 8.56431685917943,49.3300858625818,0 8.56434652664741,49.3301222229901,0 8.56437637818466,49.3301585639556,0 8.56440400377138,49.3301953217645,0 8.56443031106586,49.330232337215,0 8.56445652283266,49.3302693896464,0 8.56448262615109,49.3303064785961,0 8.56450860815566,49.3303436036993,0 8.56453445520142,49.330380764691,0 8.56456008142138,49.3304179897418,0 8.56458551662424,49.3304552727908,0 8.56461087914363,49.330492577675,0 8.56463628719942,49.3305298680297,0 8.56466185899164,49.3305671075508,0 8.564687456068,49.3306043531553,0 8.5647130078038,49.330641627524,0 8.56473871411473,49.3306788511545,0 8.56476477491687,49.3307159445442,0 8.56479139012673,49.3307528281902,0 8.56481857908453,49.3307895576603,0 8.5648462588509,49.3308262091822,0 8.56487454710565,49.3308626753774,0 8.56490356237141,49.3308988482097,0 8.56493342311974,49.3309346195538,0 8.56496434756778,49.3309699743529,0 8.56499644559612,49.3310050160028,0 8.56502952935434,49.3310397317573,0 8.56506340714774,49.3310741066405,0 8.56509788718595,49.3311081255139,0 8.56513298577031,49.331141795098,0 8.56516900443495,49.3311751531137,0 8.56520582570342,49.3312081938512,0 8.56524331553892,49.3312409097692,0 8.56528133997014,49.3312732934377,0 8.5653199192344,49.3313053196318,0 8.56535932488048,49.3313369730711,0 8.56539936464088,49.331368332492,0 8.56543981635672,49.3313994811752,0 8.5654804579347,49.3314305025105,0 8.56552117080113,49.3314614424768,0 8.56556219154387,49.3314922202306,0 8.56560348254878,49.3315228553283,0 8.5656449716477,49.3315533798199,0 8.56568658664055,49.3315838257043,0 8.56572828787736,49.3316142100726,0 8.56577017375158,49.331644488918,0 8.56581221218245,49.3316746812361,0 8.56585434930788,49.3317048164266,0 8.56589653131147,49.331734923961,0 8.56593872163262,49.331765023515,0 8.5659809905925,49.3317950756501,0 8.56602332159176,49.3318250909984,0 8.56606567629845,49.3318550924338,0 8.56610801654936,49.3318851030881,0 8.56615023506291,49.3319151974657,0 8.56619183397167,49.3319457466517,0 8.56623322843357,49.3319764446762,0 8.56627504590533,49.3320068275421,0 8.5663179138353,49.3320364312386,0 8.56636251778219,49.3320647627493,0 8.56640977922991,49.3320913178187,0 8.56645879067043,49.3321167401815,0 8.56650820169193,49.3321419238579,0 8.56655666176318,49.3321677626979,0 8.56660289120095,49.3321951071891,0 8.56664719796687,49.3322237975849,0 8.56669041164015,49.3322532767684,0 8.56673314200196,49.3322831127899,0 8.56677599903449,49.3323128739847,0 8.56681956895767,49.332342145102,0 8.56686368290293,49.3323710460502,0 8.5669080161647,49.3323998013247,0 8.56695242464376,49.3324285057911,0 8.56699676413424,49.332457254169,0 8.56704089353741,49.3324861399538,0 8.56708484708921,49.3325151414921,0 8.56712870262943,49.3325442073853,0 8.56717247650697,49.3325733263764,0 8.56721618504804,49.3326024871756,0 8.56725984406788,49.33263167818,0 8.56730343464675,49.3326609125061,0 8.56734695114381,49.33269019503,0 8.56739041554156,49.3327195109121,0 8.56743385009269,49.3327488456765,0 8.56747727705511,49.3327781848528,0 8.56752069643724,49.3328075283259,0 8.56756409333053,49.3328368861944,0 8.56760746745839,49.332866258531,0 8.56765081854489,49.3328956454089,0 8.56769414626394,49.3329250468349,0 8.56773744753816,49.3329544648336,0 8.56778072170739,49.33298390004,0 8.56782397405277,49.3330133490966,0 8.56786720983453,49.3330428085626,0 8.56791043439953,49.3330722751092,0 8.56795366058275,49.3331017408114,0 8.56799689189409,49.3331312042137,0 8.56804010590085,49.3331606785701,0 8.56808328000671,49.3331901776789,0 8.56812639161249,49.3332197153346,0 8.56816942616129,49.3332493007338,0 8.56821239768221,49.3332789259275,0 8.56825531798557,49.3333085831884,0 8.56829819858305,49.3333382652729,0 8.56834105090113,49.3333679648288,0 8.56838386180071,49.3333976901266,0 8.56842658829202,49.3334274686798,0 8.56846928137759,49.3334572677848,0 8.56851199842287,49.3334870509959,0 8.56855479663657,49.3335167816719,0 8.56859763269259,49.333546495585,0 8.56864025945415,49.3335763732855,0 8.56868293131144,49.3336062280811,0 8.56872595340729,49.3336358366414,0 8.56876963075052,49.3336649754718,0 8.56881407332523,49.3336940420556,0 8.56885870828421,49.3337251967176,0 8.56890416337289,49.3337561737597,0 8.56895124938765,49.3337840869902,0 8.56900077667901,49.333806049688,0 8.5690546161324,49.333819113555,0 8.56911754525598,49.3338217764401,0 8.56918466416815,49.3338156628692,0 8.56924961493022,49.333802671819,0 8.56930603955073,49.3337847021934,0 8.56935212207329,49.3337617973856,0 8.56939432546558,49.3337321689827,0 8.56943276528563,49.3336979332859,0 8.56946730418493,49.33366132982,0 8.56949780472825,49.3336245980029,0 8.56952569202925,49.3335887101918,0 8.56955375844233,49.333551700029,0 8.56958002330414,49.3335137100982,0 8.56960228708883,49.3334750192407,0 8.56961835025245,49.3334359062694,0 8.56962795871964,49.3333964341858,0 8.56963611667763,49.3333561943622,0 8.56964314487029,49.3333154216655,0 8.56964893353851,49.3332744030325,0 8.56965337287811,49.333233425352,0 8.56965617090892,49.333192633499,0 8.56965698558535,49.3331516834973,0 8.56965678008427,49.3331106768756,0 8.56965662714582,49.3330697731524,0 8.56965759935853,49.3330291316932,0 8.56966129780379,49.332988717335,0 8.56967072283925,49.3329478648474,0 8.56968507333335,49.3329071379278,0 8.56970303191398,49.332867279422,0 8.56972328130178,49.332829032261,0 8.56974566941528,49.3327928660882,0 8.56977605465174,49.3327576809943,0 8.56981345514724,49.3327237167589,0 8.56985547796477,49.3326915232728,0 8.56989973029772,49.3326616505482,0 8.56994446882402,49.3326345394632,0 8.56999267275824,49.3326095098007,0 8.57004392739445,49.332585880731,0 8.57009680440764,49.3325630921467,0 8.57014987547348,49.3325405839428,0 8.57020188616071,49.3325178554467,0 8.57025377144785,49.3324951794663,0 8.57030592624437,49.3324726969094,0 8.57035829975126,49.3324504022475,0 8.57041084116954,49.3324282899521,0 8.57046350442535,49.3324063540268,0 8.57051633000655,49.3323845813769,0 8.57056933166909,49.3323629714742,0 8.57062249687334,49.3323415283225,0 8.57067581307972,49.3323202559257,0 8.57072926793863,49.3322991568362,0 8.57078285978036,49.3322781944497,0 8.57083660026691,49.332257375192,0 8.57089050123159,49.3322367311653,0 8.57094457450784,49.3322162944716,0 8.57099883190265,49.3321960965506,0 8.57105328947067,49.3321761201338,0 8.57110793815277,49.3321563405261,0 8.57116275794687,49.3321367551344,0 8.5712177288509,49.3321173613657,0 8.57127283091394,49.3320981566204,0 8.57132808852217,49.332079145251,0 8.57138351321286,49.3320603184297,0 8.57143907661441,49.3320416561724,0 8.57149475026596,49.332023138429,0 8.57155050548,49.3320047449833,0 8.57160635791867,49.331986485671,0 8.57166233071151,49.3319683703036,0 8.57171839812727,49.3319503728592,0 8.5717745343496,49.3319324672532,0 8.57183071351261,49.3319146273642,0 8.5718869258897,49.331896837031,0 8.57194319038141,49.331879110125,0 8.57199951475468,49.3318614620739,0 8.57205590660143,49.3318439082445,0 8.57211237347806,49.3318264639785,0 8.57216890357375,49.3318091069243,0 8.57222547886159,49.3317917993575,0 8.57228213056836,49.3317745967126,0 8.57233889148119,49.3317575570638,0 8.57239579388732,49.3317407381498,0 8.57245285709914,49.3317241607391,0 8.57251005924369,49.3317077608239,0 8.57256739214176,49.3316915440156,0 8.57262484902147,49.3316755206132,0 8.57268242292463,49.3316597007957,0 8.5727401063994,49.3316440706683,0 8.57279789934952,49.3316285749255,0 8.57285581406884,49.3316132567728,0 8.57291386325918,49.3315981673442,0 8.57297205960301,49.3315833577625,0 8.5730304172697,49.3315688578035,0 8.57308894231014,49.3315545991722,0 8.57314761687108,49.3315405722156,0 8.57320642131433,49.3315267781761,0 8.57326533600178,49.3315132182962,0 8.57332434470366,49.3314998792635,0 8.57338345892205,49.3314866909212,0 8.57344268788106,49.3314736908013,0 8.57350203820602,49.3314609348173,0 8.57356151652251,49.3314484788823,0 8.57362113072538,49.3314363640615,0 8.57368089150006,49.3314245018404,0 8.57374078654175,49.3314128802922,0 8.57380079999328,49.3314015164805,0 8.57386091599033,49.331390427465,0 8.57392112124222,49.3313796243735,0 8.57398143867207,49.3313690464132,0 8.57404186570107,49.3313586822894,0 8.57410238767266,49.3313485440304,0 8.57416298989366,49.3313386436447,0 8.57422365846198,49.3313289893999,0 8.57428440658818,49.331319519565,0 8.57434523770455,49.3313102282292,0 8.57440614571619,49.3313011427996,0 8.57446712447643,49.3312922906558,0 8.57452816801003,49.3312836962374,0 8.574589276948,49.3312752652653,0 8.57465045535796,49.3312669908165,0 8.57471170564193,49.3312589407354,0 8.57477303025658,49.331251182895,0 8.57483443189241,49.3312437840765,0 8.57489591698314,49.331236643878,0 8.57495748306914,49.3312297030073,0 8.57501912155741,49.3312230180647,0 8.57508082412836,49.3312166457885,0 8.57514258241552,49.3312106428732,0 8.57520440654557,49.3312049322756,0 8.57526630250098,49.3311994231635,0 8.57532825603968,49.3311941420865,0 8.57539025329171,49.3311891157776,0 8.57545228039746,49.3311843709753,0 8.57551433820026,49.3311798255807,0 8.5755764378514,49.3311753952974,0 8.57563857518052,49.3311711541708,0 8.57570074619497,49.3311671769687,0 8.57576294688429,49.3311635384502,0 8.57582517928874,49.3311601680014,0 8.57588744853193,49.3311569034016,0 8.57594974888342,49.3311538372574,0 8.57601207420283,49.3311510664461,0 8.5760744182907,49.3311486878185,0 8.57613678194391,49.3311466453479,0 8.5761991735646,49.3311446903693,0 8.57626158634071,49.3311429055652,0 8.57632401276043,49.3311413866292,0 8.5763864453983,49.3311402292937,0 8.57644888274324,49.3311394306113,0 8.576511335141,49.3311387658818,0 8.5765737965064,49.3311382518907,0 8.57663625955918,49.3311379235556,0 8.57669871770348,49.3311378160969,0 8.57676116983843,49.3311380030821,0 8.57682362963286,49.3311386107492,0 8.57688608724334,49.3311395571599,0 8.576948531349,49.3311407423612,0 8.57701095023075,49.3311420662255,0 8.57707333794096,49.3311435391703,0 8.57713571313065,49.3311456146989,0 8.57719806789367,49.3311482186519,0 8.577260390025,49.3311511917735,0 8.57732266737021,49.3311543748302,0 8.57738489108998,49.3311576803637,0 8.57744707320939,49.3311614721012,0 8.57750921339244,49.3311657161059,0 8.57757130797295,49.331170278421,0 8.57763335360634,49.3311750252247,0 8.57769535104318,49.3311798507541,0 8.57775732731446,49.3311849483251,0 8.57781926456973,49.3311903749376,0 8.57788113251738,49.3311961192161,0 8.57794290105231,49.331202169862,0 8.57800454183882,49.3312085334711,0 8.57806607183752,49.3312154545511,0 8.57812750274645,49.3312229110731,0 8.57818883487686,49.33123077008,0 8.57825006935383,49.3312388989477,0 8.57831120768413,49.3312471745725,0 8.57837226094142,49.3312557526095,0 8.57843322407975,49.3312646968688,0 8.5784940842534,49.3312739577893,0 8.57855482951235,49.3312834861707,0 8.57861544797497,49.3312932346939,0 8.57867596273841,49.3313032924512,0 8.57873637465961,49.3313137105981,0 8.57879666080868,49.3313244637029,0 8.57885679878401,49.3313355265442,0 8.57891676560766,49.3313468741832,0 8.5789765482256,49.3313586234317,0 8.57903616520291,49.3313708078554,0 8.57909564084239,49.3313833254697,0 8.5791549998031,49.3313960744312,0 8.57921426688782,49.3314089529538,0 8.57927344175783,49.3314219888356,0 8.57933250760687,49.3314352667669,0 8.57939146909552,49.3314487574934,0 8.57945033107722,49.3314624317903,0 8.5795090986146,49.3314762605145,0 8.57956773751664,49.3314903058296,0 8.57962623136278,49.3315046184913,0 8.57968464277839,49.3315190835623,0 8.57974303494516,49.3315335848774,0 8.5798014705949,49.3315480060968,0 8.57985997239275,49.3315623066359,0 8.57991848920548,49.3315765812666,0 8.57997701694354,49.3315908370665,0 8.58003555301158,49.3316050781879,0 8.58009409470017,49.3316193087395,0 8.58015264337036,49.3316335260577,0 8.58021120469195,49.3316477211019,0 8.58026977271837,49.3316619045777,0 8.58032834068461,49.3316760879762,0 8.5803869021672,49.3316902829197,0 8.58044545303414,49.3317044964432,0 8.58050399812405,49.331718719347,0 8.58056253903711,49.3317329496982,0 8.58062107667565,49.331747186414,0 8.58067961134469,49.3317614281827,0 8.58073814331704,49.3317756747587,0 8.58079667124571,49.3317899284895,0 8.58085519635303,49.3318041879987,0 8.58091371970944,49.3318184512739,0 8.58097224213762,49.3318327162084,0 8.58103076446043,49.3318469813535,0 8.58108928564578,49.331861248528,0 8.58114780530686,49.3318755176972,0 8.581206324097,49.3318897886647,0 8.58126484211181,49.3319040610222,0 8.58132335906296,49.3319183343647,0 8.58138187540325,49.3319326096144,0 8.58144039155631,49.3319468866729,0 8.58149890689464,49.3319611647673,0 8.58155742185007,49.3319754435249,0 8.58161593691891,49.33198972241,0 8.58167445249012,49.3320039996968,0 8.58173296812668,49.3320182769283,0 8.58179148250754,49.3320325562158,0 8.58184999410999,49.3320468395953,0 8.58190850227614,49.3320611292333,0 8.58196700795596,49.3320754237147,0 8.58202551121462,49.3320897223125,0 8.58208401189061,49.3321040255182,0 8.58214250965302,49.3321183337602,0 8.58220100418648,49.3321326476344,0 8.58225949313494,49.3321469713252,0 8.58231797771974,49.3321613028165,0 8.58237646092126,49.3321756368596,0 8.58243494574743,49.3321899682162,0 8.58249343551798,49.332204291843,0 8.58255192855792,49.3322186101279,0 8.58261042323766,49.3322329256115,0 8.58266892037223,49.3322472366325,0 8.58272742087591,49.3322615415666,0 8.58278592571787,49.3322758388121,0 8.58284443358725,49.332290130017,0 8.58290294429956,49.3323044162718,0 8.58296145914684,49.3323186952541,0 8.58301997881187,49.3323329644176,0 8.58307850533578,49.332347221716,0 8.58313705297159,49.3323614422003,0 8.58319562349338,49.3323756223311,0 8.58325419403402,49.3323898018637,0 8.58331274147135,49.332404020571,0 8.5833712428831,49.3324183182988,0 8.58342967945802,49.3324327279934,0 8.5834880625706,49.332447230369,0 8.58354641719226,49.3324617831912,0 8.5836047682837,49.3324763441259,0 8.58366314078247,49.3324908708305,0 8.58372138667952,49.3325056214958,0 8.58377933556276,49.3325208899963,0 8.58383732866355,49.3325360789442,0 8.583895722712,49.332550564993,0 8.58395487355734,49.3325637244764,0 8.58401772710337,49.3325743914086,0 8.58408799658178,49.3325806088985,0 8.58415854019072,49.3325820481708,0 8.58422166708365,49.3325784773862,0 8.58426968669738,49.3325696648217,0 8.58429921960535,49.3325469263798,0 8.58431387288193,49.3325039320552,0 8.58431355250193,49.3324529088724,0 8.58429809473782,49.3324062939235,0 8.58426741323028,49.3323747259718,0 8.58422354506138,49.3323496364968,0 8.58417078503337,49.3323267836829,0 8.58411352828875,49.3323051550569,0 8.58405617005062,49.3322837381828,0 8.58400265390674,49.3322616231604,0 8.58395031384184,49.3322393875442,0 8.58389779995057,49.332217285184,0 8.58384520875393,49.3321952391187,0 8.58379263666722,49.3321731723505,0 8.58374017457802,49.332151012257,0 8.58368777748322,49.3321287949343,0 8.58363540531874,49.3321065527872,0 8.58358305519824,49.332084288853,0 8.58353072397494,49.3320620060781,0 8.58347840856809,49.332039707259,0 8.58342611156747,49.3320173898088,0 8.58337383338114,49.3319950526904,0 8.58332157289272,49.3319726978943,0 8.58326932845504,49.331950327227,0 8.58321709824523,49.3319279423952,0 8.58316488364749,49.3319055414773,0 8.5831126853077,49.3318831237693,0 8.58306050192447,49.3318606912038,0 8.58300833177626,49.3318382455678,0 8.58295617307559,49.3318157886264,0 8.58290402354374,49.3317933223518,0 8.58285188432266,49.3317708454253,0 8.58279975897277,49.3317483549033,0 8.5827476505473,49.3317258476675,0 8.58269556212514,49.3317033206086,0 8.58264350401799,49.3316807648525,0 8.58259147516111,49.3316581802956,0 8.58253946144586,49.3316355816382,0 8.58248744707993,49.3316129830532,0 8.58243541683228,49.3315903989068,0 8.58238336401802,49.3315678381364,0 8.58233129629011,49.3315452910089,0 8.58227922353372,49.3315227493583,0 8.58222715360735,49.3315002044477,0 8.58217509482721,49.3314776476969,0 8.58212305378209,49.3314550740725,0 8.582071024854,49.3314324887299,0 8.58201900289193,49.3314098957594,0 8.58196698436537,49.3313872995649,0 8.58191496511533,49.3313647043357,0 8.58186294305191,49.3313421118225,0 8.5818109231785,49.3313195175967,0 8.58175890349547,49.331296922526,0 8.58170688324584,49.3312743286199,0 8.58165486100981,49.3312517376622,0 8.58160283511443,49.3312291500962,0 8.58155080893269,49.3312065636067,0 8.58149878041643,49.3311839790493,0 8.58144674868948,49.3311613983809,0 8.58139471239287,49.3311388233945,0 8.58134266928799,49.3311162547106,0 8.58129062108663,49.3310936893868,0 8.58123856773441,49.3310711286413,0 8.58118650813737,49.3310485744042,0 8.58113444072331,49.3310260284439,0 8.58108236368517,49.3310034918811,0 8.58103027948195,49.3309809620621,0 8.58097818765223,49.3309584396484,0 8.58092608694034,49.3309359265477,0 8.58087397585479,49.3309134245883,0 8.58082185228315,49.330890935066,0 8.58076971797581,49.3308684552726,0 8.58071757323922,49.3308459856289,0 8.58066541644781,49.3308235279633,0 8.58061324587847,49.3308010840714,0 8.58056106011482,49.3307786554316,0 8.58050886629492,49.3307562336344,0 8.58045666278606,49.3307338211791,0 8.5804044411414,49.3307114270874,0 8.58035219275302,49.3306890603272,0 8.58029990850119,49.3306667298108,0 8.58024757366099,49.3306444500106,0 8.5801951969843,49.330622211929,0 8.58014279994074,49.3305999943478,0 8.58009040396083,49.3305777760362,0 8.58003803003814,49.330555535618,0 8.57998583041394,49.3305331055223,0 8.57993379577836,49.3305104949315,0 8.57988170188363,49.3304879504965,0 8.57982932444745,49.330465718858,0 8.57977643872978,49.3304440465055,0 8.57972325999127,49.3304219647181,0 8.57967002084604,49.3303989299782,0 8.57961620603639,49.3303767772435,0 8.5795612946951,49.3303573584129,0 8.57950476584282,49.3303425253501,0 8.57944597411079,49.3303317941246,0 8.57938492524714,49.3303220720818,0 8.57932247371536,49.3303143038608,0 8.57925948752249,49.3303095427778,0 8.57919683438698,49.3303088420569,0 8.57913488004555,49.330311997187,0 8.579072876698,49.3303163511468,0 8.57901082421972,49.3303214335088,0 8.57894876519911,49.3303268871707,0 8.57888674181887,49.3303323548917,0 8.57882478216886,49.3303376243265,0 8.57876285611264,49.3303429624508,0 8.57870095082366,49.3303483695189,0 8.57863905585235,49.3303538149923,0 8.57857716171782,49.3303592686672,0 8.57851526131176,49.3303647098372,0 8.57845336316574,49.3303701646909,0 8.57839146825777,49.3303756357782,0 8.57832957616122,49.3303811209599,0 8.5782676866099,49.3303866181542,0 8.57820579942855,49.3303921265146,0 8.57814391569556,49.3303976515741,0 8.57808203472297,49.3304031902006,0 8.5780201555643,49.3304087375658,0 8.57795827721197,49.3304142888197,0 8.57789639883747,49.330419840262,0 8.57783452187702,49.3304253991166,0 8.57777264611333,49.3304309637781,0 8.57771077055371,49.3304365294135,0 8.57764889418161,49.3304420911809,0 8.57758701611772,49.3304476448961,0 8.57752513778573,49.3304531973296,0 8.57746325904307,49.3304587478433,0 8.57740137887692,49.3304642915347,0 8.57733949639051,49.3304698235453,0 8.57727761086674,49.3304753393907,0 8.57721572327703,49.3304808460605,0 8.57715383375794,49.3304863437418,0 8.57709194108329,49.3304918261414,0 8.57703004440584,49.3304972871136,0 8.576968142158,49.3305027203072,0 8.57690623516292,49.3305081310139,0 8.57684432399296,49.3305135222702,0 8.57678240787058,49.3305188892955,0 8.57672048601825,49.330524227309,0 8.57665855765849,49.3305295315303,0 8.57659662331334,49.3305348064512,0 8.57653468360764,49.3305400561882,0 8.57647273785101,49.3305452750843,0 8.57641078511751,49.3305504573864,0 8.57634882463701,49.3305555974043,0 8.57628685321601,49.330560682073,0 8.57622487044079,49.3305657121866,0 8.57616288148277,49.3305707104367,0 8.57610089174109,49.3305756997336,0 8.57603890663725,49.3305807029968,0 8.57597630528687,49.3305860437689,0 8.57591254423135,49.3305919816723,0 8.57584892759646,49.33059786764,0 8.5757868057856,49.3306030300977,0 8.57572752923296,49.3306067974858,0 8.5756691198203,49.3306043613047,0 8.57560711753459,49.3305864278911,0 8.57554944948544,49.3305576652499,0 8.57550470149705,49.3305235201658,0 8.57548135937836,49.3304893986766,0 8.5754703167982,49.3304534826435,0 8.57546137075325,49.3304133463276,0 8.57545478570004,49.330370800632,0 8.5754508262724,49.3303276565364,0 8.57544975693167,49.330285724948,0 8.57545033675863,49.3302449422949,0 8.57545128364422,49.3302040693169,0 8.57545282954519,49.3301631841423,0 8.57545520606877,49.3301223647655,0 8.57545864509585,49.3300816892939,0 8.57546413103261,49.3300410923624,0 8.57547240168531,49.3300004839856,0 8.57548275840016,49.3299600017886,0 8.5754944928337,49.3299197850207,0 8.57550689668111,49.3298799729452,0 8.57552061341278,49.3298404425137,0 8.57553773525789,49.3298009379545,0 8.57555785891047,49.3297618088585,0 8.57558051019437,49.3297234200534,0 8.5756052149958,49.3296861363907,0 8.57563267230086,49.3296502473157,0 8.57566484825921,49.3296155395279,0 8.57570017835369,49.3295816138142,0 8.5757369218405,49.3295480720932,0 8.57577333798041,49.3295145162847,0 8.57580935071271,49.3294809458284,0 8.57584846413989,49.3294481962931,0 8.57588804968303,49.3294156165171,0 8.57592493145058,49.329382423702,0 8.57595593368064,49.3293478350982,0 8.57597911426178,49.3293110290465,0 8.57599808583013,49.3292717551264,0 8.57601250778746,49.3292309292428,0 8.57602133116638,49.3291895501208,0 8.57602350702212,49.3291486164916,0 8.57601806312478,49.3291087967646,0 8.57600544584745,49.3290690402675,0 8.57598734619335,49.3290294542901,0 8.57596549705372,49.3289903934284,0 8.57594163081859,49.3289522121217,0 8.57591688693267,49.3289151705771,0 8.57588858492942,49.3288788721944,0 8.57585694001596,49.3288432998018,0 8.57582292799978,49.3288085506513,0 8.57578752406779,49.3287747218053,0 8.57575151112089,49.3287418378237,0 8.57571362266197,49.3287093488659,0 8.57567360661536,49.3286774759423,0 8.57563169503197,49.3286466632285,0 8.57558812038964,49.3286173550297,0 8.57554302211592,49.3285899676355,0 8.57549529486585,49.3285642492804,0 8.57544527432219,49.3285397096674,0 8.57539389874794,49.3285159519843,0 8.57534210627446,49.3284925793808,0 8.5752907951257,49.3284692119447,0 8.57523943408526,49.3284460630776,0 8.57518767286544,49.3284232219503,0 8.57513570347903,49.3284005387003,0 8.57508371797704,49.3283778634765,0 8.57503190643045,49.3283550478178,0 8.57498022757253,49.3283321241904,0 8.5749285729723,49.3283091781497,0 8.57487693709887,49.3282862145934,0 8.5748253145073,49.3282632384444,0 8.57477369971059,49.3282402546116,0 8.57472209907801,49.3282172569416,0 8.57467051624496,49.3281942422196,0 8.57461894219482,49.328171218976,0 8.5745673686659,49.3281481959579,0 8.57451578614922,49.3281251815538,0 8.57446419216606,49.3281021781528,0 8.57441259349603,49.3280791795839,0 8.57436099162469,49.3280561839732,0 8.57430938867846,49.3280331896825,0 8.57425778610419,49.3280101948802,0 8.57420618930543,49.3279871944343,0 8.57415460054571,49.3279641862535,0 8.57410301051427,49.327941179747,0 8.57405140898608,49.3279181843601,0 8.57399978606016,49.3278952096297,0 8.57394813900926,49.3278722580688,0 8.57389647917953,49.3278493185329,0 8.57384480176294,49.3278263957185,0 8.57379310137345,49.3278034954134,0 8.57374137196754,49.3277806232225,0 8.5736896118615,49.3277577810141,0 8.5736378293032,49.3277349600143,0 8.57358602015022,49.3277121647585,0 8.57353417882614,49.3276894011249,0 8.57348229957237,49.3276666749422,0 8.57343037954368,49.3276439891834,0 8.57337842688053,49.3276213342405,0 8.57332643817196,49.3275987139604,0 8.57327440845978,49.3275761345962,0 8.57322233193712,49.327553602171,0 8.57317020530422,49.3275311208354,0 8.57311803619884,49.3275086803541,0 8.57306582172835,49.3274862835194,0 8.57301355654639,49.3274639367271,0 8.57296123601338,49.3274416465616,0 8.57290885612558,49.3274194181516,0 8.57285642351195,49.3273972408888,0 8.57280393675897,49.3273751163966,0 8.57275139120756,49.3273530515349,0 8.5726987820824,49.3273310531331,0 8.57264610536184,49.3273091273377,0 8.5725933663987,49.3272872636163,0 8.57254056462392,49.327265461777,0 8.57248769575942,49.3272437290333,0 8.5724347555788,49.3272220726118,0 8.57238173991244,49.3272004995755,0 8.5723286472483,49.327179005923,0 8.57227547999014,49.3271575870988,0 8.57222224068021,49.3271362432841,0 8.5721689324253,49.3271149748051,0 8.57211555858198,49.3270937814046,0 8.57206224324751,49.327072501443,0 8.57200896549802,49.3270511567951,0 8.57195555441065,49.3270299660687,0 8.57190183948386,49.3270091479781,0 8.57184765003099,49.3269889211906,0 8.57179314834088,49.3269686507251,0 8.57173845462899,49.3269480926703,0 8.57168324372296,49.3269283047234,0 8.57162719002822,49.3269103464165,0 8.57156996799222,49.326895277292,0 8.57151120273929,49.3268827542982,0 8.57145096381759,49.3268713343688,0 8.57138971852154,49.3268614651922,0 8.57132793696698,49.3268536167855,0 8.57126608887139,49.3268482590679,0 8.57120407605514,49.326845385501,0 8.57114135739136,49.3268442764074,0 8.57107839892475,49.3268447959338,0 8.57101568711536,49.3268468228842,0 8.5709537084576,49.3268502360722,0 8.5708923984925,49.3268557404287,0 8.5708310300817,49.3268648210895,0 8.57077022486568,49.3268767452114,0 8.57071066285118,49.3268906884305,0 8.57065302419097,49.3269058264234,0 8.57059754531321,49.3269223364385,0 8.5705433437219,49.3269424340256,0 8.57049060832797,49.3269653844337,0 8.57043961894371,49.3269902299984,0 8.57039065551375,49.3270160130934,0 8.57034392536853,49.3270423087894,0 8.57029908887101,49.3270704338798,0 8.57025565067489,49.3270999714884,0 8.57021312612981,49.3271302902467,0 8.57017103071086,49.3271607588236,0 8.57012900476453,49.3271909206556,0 8.57008741384916,49.3272213396725,0 8.57004623893142,49.3272520513542,0 8.57000536358369,49.3272829557617,0 8.56996467150531,49.3273139529982,0 8.56992406619708,49.3273449617721,0 8.56988363197364,49.3273760676442,0 8.56984338180461,49.3274072842765,0 8.56980329613003,49.327438594204,0 8.56976335526529,49.3274699799183,0 8.56972354432589,49.3275014275892,0 8.56968390382463,49.3275329684967,0 8.56964441657598,49.3275645954743,0 8.56960504281091,49.3275962847474,0 8.56956574276037,49.3276280125414,0 8.56952648024292,49.3276597571537,0 8.56948730807119,49.3276915489221,0 8.56944822467875,49.3277233884235,0 8.56940918675378,49.3277552524108,0 8.56937015105177,49.3277871176634,0 8.56933107562434,49.3278189616589,0 8.56929200745662,49.3278508097925,0 8.5692529586051,49.3278826684873,0 8.56921388592,49.3279145143765,0 8.56917474628655,49.3279463241096,0 8.56913549661878,49.3279780743624,0 8.56909616852025,49.3280097853003,0 8.56905678560513,49.3280414703136,0 8.56901730764977,49.3280731046973,0 8.5689776943614,49.3281046637119,0 8.56893790555508,49.3281361226679,0 8.56889795439673,49.3281674960452,0 8.56885787094168,49.3281988066668,0 8.56881762056532,49.3282300275657,0 8.56877716834217,49.3282611315732,0 8.56873647954194,49.3282920916199,0 8.56869554017946,49.3283229113046,0 8.56865437011518,49.3283536214825,0 8.56861296682661,49.3283842030141,0 8.56857132741004,49.3284146358748,0 8.5685294489008,49.3284449000082,0 8.5684875073031,49.3284751875862,0 8.56844569141597,49.3285057520171,0 8.56840354578985,49.3285361258742,0 8.56836059031132,49.3285658134925,0 8.56831634482408,49.3285943191798,0 8.56827045736939,49.3286218467268,0 8.56822300292306,49.328649733499,0 8.56817380365169,49.3286765691836,0 8.5681226521912,49.3287007311172,0 8.56806934118367,49.3287205966368,0 8.56801308148297,49.3287352134097,0 8.5679522263169,49.3287463399438,0 8.56788863844211,49.3287539319394,0 8.56782452301426,49.3287576635358,0 8.5677620851879,49.328757208874,0 8.56770226631996,49.3287517836843,0 8.56764152295307,49.3287396833045,0 8.56758165546528,49.3287221097061,0 8.56752522111429,49.328700593837,0 8.5674747771031,49.3286766666216,0 8.5674312356533,49.3286508724487,0 8.56738917236268,49.3286198333318,0 8.56735075118109,49.3285845478808,0 8.56731931219608,49.3285467094857,0 8.56729819524443,49.328508011379,0 8.5672889391703,49.3284695618707,0 8.56728380893238,49.3284294692554,0 8.56728199018429,49.3283881082738,0 8.56728411399775,49.328346324527,0 8.56729081132983,49.32830496354,0 8.56730241849731,49.3282647187283,0 8.56731702639342,49.3282250441901,0 8.56733350381097,49.3281856629918,0 8.56735103380385,49.3281464498752,0 8.56736879930892,49.328107279509,0 8.5673860834851,49.3280680406973,0 8.56740338296466,49.3280288004104,0 8.56742093057484,49.3279896040387,0 8.56743873071061,49.3279504667716,0 8.56745678754663,49.3279114036651,0 8.56747509330096,49.3278724123817,0 8.56749352226064,49.3278332595818,0 8.56751229110965,49.3277940707615,0 8.56753172555161,49.3277551111442,0 8.56755215119273,49.3277166458994,0 8.56757391945274,49.3276789097921,0 8.56759823848607,49.3276411153175,0 8.5676254733991,49.3276034340856,0 8.56765540958784,49.3275667151842,0 8.5676878324302,49.3275318076901,0 8.5677225562703,49.327499541007,0 8.56776198332322,49.3274688181868,0 8.567806734217,49.3274392026323,0 8.56785536614559,49.3274115486577,0 8.56790643638909,49.3273867106174,0 8.56795850611508,49.3273655414222,0 8.5680127093429,49.3273476346421,0 8.56806989276636,49.3273315800592,0 8.56812874059738,49.3273165170676,0 8.56818793706309,49.327301585072,0 8.56824616638956,49.3272859234802,0 8.5683039580606,49.327269846129,0 8.56836239334693,49.3272540574491,0 8.56842045564241,49.3272379492034,0 8.56847712406433,49.3272209104589,0 8.56853137778518,49.3272023303077,0 8.56858324165313,49.3271811609801,0 8.56863375208606,49.3271568729245,0 8.56868248289394,49.3271302252993,0 8.56872898379547,49.3271019921359,0 8.56877280445993,49.3270729474473,0 8.56881378868398,49.3270430403697,0 8.5688526644283,49.3270112952551,0 8.56889005915047,49.3269783129938,0 8.56892658970367,49.3269447431838,0 8.56896287293836,49.3269112354217,0 8.56899921730487,49.3268780917811,0 8.56903514384109,49.3268447213263,0 8.56907073310681,49.3268111577944,0 8.56910610865448,49.3267774833349,0 8.56914139426547,49.3267437801703,0 8.56917709437527,49.3267102299464,0 8.56921409380851,49.3266770617792,0 8.56925107526667,49.3266438653812,0 8.56928653553653,49.3266101789991,0 8.56931897124171,49.3265755408339,0 8.56934762568281,49.3265394817994,0 8.56937492877917,49.3265018733594,0 8.56939956607215,49.3264631783796,0 8.56941957920402,49.3264239027375,0 8.56943300976735,49.3263845522962,0 8.56943763539331,49.3263452546339,0 8.56943144376884,49.3263045092744,0 8.56941630519136,49.3262633243154,0 8.56939456090578,49.3262231573737,0 8.56936855208439,49.3261854660521,0 8.56933947721756,49.3261514182122,0 8.56930219305095,49.3261198656713,0 8.56925812754896,49.3260901655222,0 8.56921016095189,49.326061952122,0 8.56916117344084,49.3260348598208,0 8.56911357320274,49.326008564914,0 8.56906506805778,49.3259831364476,0 8.56901525162357,49.3259584291356,0 8.56896465540581,49.3259342097759,0 8.56891381082376,49.3259102451495,0 8.56886321003547,49.3258863096273,0 8.56881260976534,49.3258623877869,0 8.56876178141846,49.3258386153641,0 8.56871065315969,49.3258151176459,0 8.5686591528571,49.3257920198581,0 8.56860722444831,49.3257694106576,0 8.56855519252766,49.3257464979441,0 8.56850290335013,49.3257235748116,0 8.56844994222753,49.3257015308008,0 8.56839589462946,49.3256812554835,0 8.56834034332259,49.3256636157931,0 8.56828283115409,49.3256474850408,0 8.56822363976683,49.3256325020715,0 8.56816333973532,49.325619634544,0 8.56810250133212,49.3256098500624,0 8.56804168780066,49.3256041172175,0 8.56797971673762,49.3256033179808,0 8.56791642040227,49.3256070439295,0 8.56785326319822,49.3256144097617,0 8.5677917092794,49.3256245301307,0 8.56773322246937,49.3256365202657,0 8.56767740164195,49.3256522690792,0 8.56762319723657,49.3256730685885,0 8.56757096237546,49.3256973762289,0 8.56752105018314,49.3257236494347,0 8.56747381381817,49.3257503456464,0 8.56742871770169,49.325777729483,0 8.56738502922643,49.3258071589315,0 8.56734312210931,49.3258381488302,0 8.56730337318871,49.3258702083355,0 8.56726615965755,49.3259028466932,0 8.56723138421523,49.3259361515665,0 8.56719823639538,49.3259706755624,0 8.56716641678893,49.3260060502449,0 8.56713563704629,49.3260418913293,0 8.56710560887718,49.326077814549,0 8.56707621628763,49.3261137085063,0 8.56704759012597,49.3261499543956,0 8.5670194954519,49.3261864468475,0 8.56699168110286,49.3262230571325,0 8.5669638960335,49.3262596565554,0 8.56693599478784,49.3262961734462,0 8.56690817938553,49.3263327199199,0 8.56688046494705,49.3263693028454,0 8.5668528452554,49.3264059174493,0 8.56682531428471,49.3264425590262,0 8.56679787081699,49.3264792256904,0 8.5667705273251,49.3265159252613,0 8.5667432724234,49.3265526539413,0 8.56671609183911,49.3265894063655,0 8.566688971423,49.3266261772188,0 8.56666190238315,49.3266629631899,0 8.56663490586451,49.3266997723851,0 8.56660797324557,49.3267366021028,0 8.56658108951368,49.3267734472833,0 8.56655423948211,49.3268103027899,0 8.56652741172087,49.3268471647309,0 8.5665006289421,49.3268840407087,0 8.56647388532364,49.3269209290351,0 8.56644716483446,49.3269578245886,0 8.56642045190578,49.326994722472,0 8.56639373301496,49.3270316184038,0 8.56636703015399,49.327068519268,0 8.56634034120241,49.327105424462,0 8.56631365021168,49.3271423290108,0 8.56628694120443,49.3271792279222,0 8.56626019926019,49.3272161165609,0 8.5662334431826,49.327253000979,0 8.56620667488944,49.327289881758,0 8.56617987903215,49.3273267539487,0 8.56615304028263,49.3273636126136,0 8.56612614355313,49.3274004529331,0 8.56609919109547,49.3274372759475,0 8.56607219135673,49.327474084472,0 8.56604514516666,49.3275108786885,0 8.56601805270305,49.327547658361,0 8.56599091447202,49.3275844234601,0</coordinates>
      </LineString>
    </Placemark>
  </Document>
</kml>