xpos,ypos,zpos,time
226.900605935705,-207.581616974223,1467.27638474378,0
224.076027992554,-211.123109368215,1467.40433575681,1.24090335492773
221.24907478797,-214.666353644657,1467.50342711182,1.75654940736976
218.41834544267,-218.212134951199,1467.60561933381,2.15436861948067
215.584102454474,-221.759612058441,1467.70793827406,2.49151910681072
212.744601810761,-225.309877081316,1467.81044287954,2.79025257212591
209.898558088949,-228.863586545439,1467.91318153727,3.06193983104135
207.046133594922,-232.420042404499,1468.01615029493,3.31322901338849
204.187911500578,-235.978159240608,1468.11932168485,3.54841296815589
201.325857339829,-239.535600678582,1468.22262338729,3.77037555883598
198.461524712715,-243.090396865782,1468.32600708732,3.98122480495208
195.593799213516,-246.642913584125,1468.41135761669,4.18267421868068
192.719716157474,-250.195112087061,1468.48241797221,4.37617413966018
189.837531715735,-253.747915934475,1468.55376471451,4.5628268412122
186.947816589817,-257.300310119861,1468.56072371136,4.74338370838207
184.051479544649,-260.851000852301,1468.50196969828,4.91849893735682
181.148584101596,-264.399380271274,1468.44355395866,5.08870857155195
178.23892653991,-267.945053905221,1468.38550364174,5.25448894477926
175.322359447943,-271.487583045236,1468.3278434108,5.41624380612961
172.399090860166,-275.026254258167,1468.27060180569,5.57430560267392
169.469275862593,-278.560394369585,1468.22548943959,5.72895980077478
166.532431092781,-282.089807768987,1468.20161555024,5.88048378534662
163.587489997749,-285.614728051252,1468.13985464923,6.02916181371673
160.633020969385,-289.135653154706,1468.0715204597,6.17523712529937
157.668278210036,-292.652592508276,1468.0035416834,6.31890772521276
154.693676384437,-296.164742857161,1467.92068568577,6.46032040368955
151.710489969051,-299.670709392443,1467.83652620032,6.60014984353815
148.72054429434,-303.168725223342,1467.75290014236,6.74128709199389
145.725409789873,-306.65719243138,1467.65278114991,6.88615265506513
142.725646950114,-310.135170135727,1467.51093192396,7.0349767064623
139.720595773597,-313.602497021687,1467.39941252161,7.18797198775696
136.708948469432,-317.059418219617,1467.28831041536,7.3454994339003
133.689876027894,-320.505883638673,1467.17763184686,7.50791789587265
130.662993004348,-323.941574339978,1467.06738518316,7.67561727214585
127.628192853788,-327.366005206768,1466.95759375538,7.84903250193378
124.585541586279,-330.778590045688,1466.8482718905,8.02865852251077
121.535053485476,-334.178772453517,1466.76263305005,8.21505419949529
118.477052128297,-337.5658208635,1466.67496019801,8.40890826368485
115.40724876902,-340.930219870755,1466.583268571,8.61086467070379
112.321030065026,-344.261077695685,1466.42931344204,8.82174688773325
109.213906464907,-347.547435723845,1466.21997784843,9.04251820905967
106.08122650903,-350.778421509305,1466.01497608673,9.27255935571504
102.917964070224,-353.943359371778,1465.80025893529,9.51075968764036
99.7186974096229,-357.031778859346,1465.52121334757,9.75731961512649
96.4787930186043,-360.032805295336,1465.24696582604,10.011969191386
93.1924947087069,-362.936133341479,1464.97767459046,10.2745900730531
89.8530321280576,-365.73196623103,1464.73444525874,10.545011909026
86.455695242273,-368.409486425544,1464.51640627586,10.8231057118485
82.9994039391914,-370.956103227618,1464.31251544538,11.1087237329742
79.4897593069849,-373.35601550936,1464.12428920351,11.4013394951362
75.9392123498736,-375.590193809356,1463.95345844591,11.6955685828598
72.3250333896125,-377.655790787154,1463.80066314628,11.9907660184096
68.5503579750572,-379.583113559639,1463.66434312648,12.2943029463613
64.5274869818201,-381.398429471659,1463.26094728463,12.616661099877
60.2556257276257,-383.088878926974,1462.8499484715,12.9683368386303
55.8207644498027,-384.600320019923,1462.44789228104,13.3539339188017
51.3701244965662,-385.847463160419,1462.07167654905,13.7688587068693
47.071468611867,-386.751681023211,1461.75592629032,14.1953907662515
43.0572835625842,-387.253919913322,1461.47747652216,14.6186558034552
39.3526061874884,-387.353865928006,1461.24388958928,15.0281139722255
35.9590845247485,-387.063216176578,1461.05451390612,15.4281534673466
32.9169132715947,-386.37597217016,1460.91220001669,15.821426331373
30.1822901742428,-385.3190355538,1460.8228968165,16.196388301782
27.6840163819072,-383.927723826111,1460.77699329033,16.5668416335596
25.4482741209167,-382.216852731425,1460.77716408946,16.9108815180572
23.4484538938972,-380.207179174233,1460.81256632942,17.2030149380058
21.6883502877799,-377.918690270278,1460.85373616787,17.4543098527149
20.2057722709952,-375.373038965185,1460.89561351005,17.6753846204269
19.0260910963702,-372.590534431011,1461.01767072601,17.8723092735107
18.1134910159404,-369.582365290878,1461.16916657268,18.0563157621179
17.3936102965796,-366.353073871892,1461.3254207764,18.2378944814571
16.8041876303638,-362.909430663914,1461.51732469933,18.4239961109039
16.3577778807492,-359.27236739688,1461.72705387437,18.6164013012162
15.9335560159252,-355.437369032072,1461.90381555944,18.8135540763089
15.5109154278052,-351.418820820722,1462.09082404635,19.0114374730409
15.1215992632298,-347.240890794621,1462.25948023985,19.2075199812086
14.7584987884536,-342.920511590022,1462.42640789405,19.4014988507385
14.4157680305548,-338.474850086535,1462.50327755185,19.59296013483
14.0873302915162,-333.921030523913,1462.6018672502,19.7817569530184
13.7690515501666,-329.266893801663,1462.68214676216,19.9679613743001
13.4582332779221,-324.518218091007,1462.7438697766,20.1517317217841
13.1532815635575,-319.680984542862,1462.81774866827,20.3332003405684
12.8536979506554,-314.761375754904,1462.8885847601,20.5124415840535
12.559718467366,-309.765709654667,1462.95470150412,20.6895140290583
12.2722814979624,-304.700434007087,1463.05833298315,20.8644807739314
11.9894308134124,-299.571459361389,1463.17647112603,21.0373806670609
11.703237905414,-294.383582301836,1463.25326219764,21.2082630733556
11.3959353576956,-289.139765157672,1463.32433194538,21.3772995852244
11.0641333650001,-283.845605206746,1463.40025379554,21.5445189284873
10.7111314625887,-278.507863572821,1463.46748997698,21.7098835918239
10.348068405975,-273.134562987539,1463.57032166616,21.8733241005397
9.99199769396648,-267.734593524588,1463.68990685791,22.0347048235016
9.6619241621554,-262.31710605757,1463.7732723328,22.1938610392908
9.35955529152864,-256.889104150684,1463.84654618048,22.3507725677093
9.06744505848485,-251.455301804165,1464.00002130838,22.5072572451329
8.75580350366738,-246.018948017143,1464.1742154192,22.6667559917521
8.43939839242728,-240.588587011758,1464.38517740783,22.8309744666631
8.11709762077089,-235.170902182589,1464.60762470893,23.000011865499
7.78808137366696,-229.772612886861,1464.82862514113,23.1739885754141
7.45169362175182,-224.400457030059,1465.04781981421,23.3530569032256
7.10707457588433,-219.061149831643,1465.26482615025,23.5373918146483
6.75434774234532,-213.76151414892,1465.47909287471,23.7271879587702
6.39463104444815,-208.508479886164,1465.64074154977,23.9225981728739
6.02949299163379,-203.309024688633,1465.80003639079,24.1239377326815
5.66028461718099,-198.170103475247,1466.00581142967,24.331576464442
5.28764896110215,-193.09859794622,1466.20820739117,24.5458101153834
4.91095572200675,-188.101258889658,1466.40686237857,24.7670849372328
4.52784086662086,-183.184658993192,1466.601279447,24.9959604629255
4.13415445192834,-178.355186748313,1466.75154787999,25.2330775262565
3.7258631255437,-173.61924276398,1466.88995767103,25.4793828651484
3.2988637545235,-168.983220328007,1467.05282113388,25.7360922032354
2.84872408329875,-164.453477863672,1467.22397672487,26.0047114117615
2.38316706636897,-160.037672325737,1467.37193339439,26.2870690492628
1.88836819399432,-155.741145225079,1467.46903923906,26.586098494952
1.38990663443565,-151.573505869474,1467.54040352207,26.9040844452005
0.818780101110178,-147.534078223984,1467.64162928014,27.2305215334879
0.0329888564510838,-143.614140734736,1467.69211025674,27.5596465344259
-1.03274702676174,-139.813338618683,1467.70952063969,27.8945119756056
-2.40927715703776,-136.134653911299,1467.69814564927,28.2295105867107
-4.05582985151796,-132.585956114339,1467.66323825236,28.5712181229578
-6.01878092533332,-129.173523289682,1467.63799109325,28.9275988396479
-8.35157318553934,-125.904098693627,1467.57913226575,29.2833615429901
-11.0205465450885,-122.768495247959,1467.49047767664,29.6208612844338
-14.0342859003362,-119.771096933422,1467.38815282714,29.9435949570266
-17.4085351929559,-116.919550673794,1467.2889144824,30.2574131292254
-21.036789665267,-114.15296603466,1467.23053687968,30.5673451773413
-24.7926677831906,-111.39811311649,1467.13983484708,30.8674384769373
-28.5349928401865,-108.572436699816,1467.05242556636,31.1446616504708
-32.2713994183011,-105.683955883354,1466.96761463926,31.4025303618487
-36.0285452566018,-102.751943492573,1466.95405247506,31.6456171607263
-39.7978855382162,-99.7752529030674,1466.90940823476,31.8765149719712
-43.5674427519468,-96.7507874868313,1466.90056971813,32.0969889565734
-47.3270068214842,-93.6764321546615,1466.90743831132,32.3084187346953
-51.0674521859933,-90.5506595864269,1466.93443627995,32.5118819086778
-54.7821492260483,-87.3732604811864,1466.9768373414,32.7082680405343
-58.4679293254491,-84.1458044976765,1467.0493263184,32.8983539582291
-62.1243356349556,-80.8712184440784,1467.13579984899,33.0828002936348
-65.7525453494959,-77.5532267561857,1467.20134203604,33.2621595683453
-69.3551501261583,-74.1962290387126,1467.28846713834,33.4369525494916
-72.9289719615493,-70.8019257004559,1467.41229839567,33.6095990853511
-76.4646307320214,-67.3691702397703,1467.59260998321,33.78519863127
-79.9488631154413,-63.8950693272421,1467.75445763581,33.9668154827003
-83.3802501640598,-60.3819305482127,1467.8929169208,34.1549274210957
-86.7714140904014,-56.8380440901628,1468.03907784164,34.3503514731643
-90.1339917057792,-53.2712949393724,1468.19053888268,34.5539737207122
-93.457298886625,-49.6807268133631,1468.35373826635,34.7664648470433
-96.7182447757444,-46.0606375534931,1468.54629738164,34.9834573133687
-99.8853328865457,-42.4022075369239,1468.72835842398,35.2006490875377
-102.929113744101,-38.697355093361,1468.88899499185,35.4176547022386
-105.835878582205,-34.9435027297289,1469.05626958274,35.6327218530753
-108.628901441605,-31.1505234676467,1469.24348280008,35.8454381759981
-111.351537595693,-27.3347291374838,1469.44731737493,36.0544754068337
-114.022968265743,-23.5051259430521,1469.65281368111,36.2598596944957
-116.627204053855,-19.6607714436981,1469.84308361537,36.4637751989193
-119.139785532276,-15.7984892741894,1470.00918874733,36.6670401224184
-121.548235478107,-11.9180368853482,1470.20961636651,36.8694242941825
-123.860508266677,-8.02378242484599,1470.41288960595,37.0715720992964
-126.097001075658,-4.12265539878842,1470.61814531615,37.278196829459
-128.271008640819,-0.22762594590813,1470.82427219667,37.4932168720294
-130.376863442376,3.6515321999716,1471.02875636662,37.7148723274554
-132.388459444659,7.50817233754526,1471.18994782004,37.9388488275481
-134.286818795013,11.3346633333895,1471.35236102364,38.1645754847811
-136.079538709163,15.1201514918616,1471.55189273483,38.3963323777552
-137.794016888567,18.8518070300781,1471.75686189857,38.6378897001224
-139.481226296117,22.515097051989,1471.95798959468,38.890747397889
-141.189058169557,26.0956109950852,1472.15337641001,39.1558858229704
-142.939829118047,29.5790653262346,1472.36339874139,39.434430081309
-144.742171554304,32.9507649516041,1472.57443698519,39.724872773476
-146.647637668509,36.1988054381131,1472.77225609185,40.0200081529601
-148.737280983257,39.3142268414406,1472.97191047093,40.3207133300997
-151.047869554984,42.2822082268165,1473.17021271725,40.6297203086985
-153.591707767462,45.0840418329889,1473.35002897923,40.9415790388742
-156.346450795039,47.6948857848261,1473.50976083752,41.2553236804214
-159.280166212865,50.0881393517212,1473.63751435871,41.5760661604303
-162.36239612498,52.237460318762,1473.74529733194,41.9028417270426
-165.575846933502,54.1184985503016,1473.85181281688,42.2376536126064
-168.973249432554,55.7150595418289,1473.98118605382,42.5875810233456
-172.649084523723,57.0141349897494,1474.09827127788,42.9421111568039
-176.691740187298,58.0024869148397,1474.21025335023,43.295200459748
-181.119371779273,58.6663020923901,1474.29443882107,43.6645820020448
-185.816704712174,58.9918868382679,1474.37570592038,44.0624875237531
-190.500822702703,58.9631476362775,1474.63753256729,44.4808911758106
-194.922106913192,58.5656745966055,1474.850643864,44.8964797605738
-198.925620483171,57.7935887876184,1475.0057519906,45.2968068617755
-202.511780665895,56.659172930308,1475.1040089198,45.6864338207738
-205.766926782239,55.184831263941,1475.14748057127,46.0433742181734
-208.782278871299,53.3934290167509,1475.13769772445,46.3551272114223
-211.610157389147,51.3057136936391,1475.09106874455,46.6343868641695
-214.261645008806,48.942030734888,1475.01003167196,46.8928684924906
-216.726085755332,46.3233848045982,1474.89596738211,47.1351644589801
-219.013410377425,43.4695837373844,1474.75120705586,47.3669178855118
-221.154232924964,40.3988946054307,1474.57900046556,47.5934521001632
-223.179756703199,37.1295370761858,1474.37376264544,47.8190808533738
-225.140858214861,33.6781682092217,1474.12560581838,48.0481515545941
-227.060800553639,30.0635242722026,1473.85883085263,48.2816693307311
-228.958024715435,26.3046889375446,1473.60993886081,48.5176301627052
-230.839340600451,22.421570627717,1473.45688027574,48.7512355796685
-232.711551991048,18.4340782040415,1473.29664426909,48.9776819868857
-234.561788060583,14.363575248554,1473.18459869856,49.1948532020387
-236.358579125084,10.2260316605351,1473.12498762015,49.4067962209491
-238.069943632196,6.02812921334566,1473.03421459144,49.6182010271542
-239.671752777453,1.77583997720103,1472.92947510551,49.8294875703105
-241.155467371666,-2.52636616303585,1472.8157763042,50.0402913773979
-242.536935234545,-6.87647928552201,1472.71446048028,50.2509253468175
-243.846331413788,-11.2739693653357,1472.62027360545,50.4619625849652
-245.115117425447,-15.7184398401671,1472.53506189623,50.6693965239308
-246.362539269044,-20.2082340239386,1472.44707198513,50.8696583839609
-247.592939516246,-24.7401634946482,1472.35648626549,51.0636701076606
-248.804864999602,-29.31044068585,1472.28320556492,51.2520738830886
-249.988329179115,-33.9143776995182,1472.19857579752,51.4353059885904
-251.130500033019,-38.5469750120681,1472.10470266718,51.6136688887821
-252.223495995523,-43.2038036179778,1472.00665495723,51.7874721692757
-253.262512319925,-47.8808108260755,1471.90426566443,51.9570154713027
-254.240820592138,-52.5736927882941,1471.79723713626,52.1225306605112
-255.149268271993,-57.2778060243234,1471.68513434832,52.2859861309807
-255.982848975983,-61.9891308144619,1471.58813955915,52.4491593012255
-256.740827944174,-66.7043335630672,1471.5089473064,52.6119685406375
-257.42536117553,-71.4205720487442,1471.3871577187,52.7744103441638
-258.046136605308,-76.136342945934,1471.25860185811,52.9347347656619
-258.619886528906,-80.8514338334538,1471.10841408295,53.0914791813726
-259.162376828339,-85.5654522499881,1471.00807993965,53.2449189990755
-259.684489050593,-90.277090776343,1470.91858344169,53.3953371698803
-260.192352086265,-94.9841530642541,1470.78791750733,53.5429409916804
-260.69217627265,-99.6844579081997,1470.65634423442,53.6878498769609
-261.187631870972,-104.375356074956,1470.51345204198,53.8327155597933
-261.680746335697,-109.053898753168,1470.3846437681,53.9806624551524
-262.175062279127,-113.71741047118,1470.2564921714,54.1323813772346
-262.67468926059,-118.363316929681,1470.16823463782,54.288021890515
-263.183110468693,-122.988933239334,1470.08523442913,54.4478066144304
-263.703431564113,-127.591508555939,1469.97709408741,54.6119765002109
-264.23922530934,-132.168372828704,1469.85023888188,54.7807871627234
-264.799489066173,-136.717786496394,1469.72666438236,54.9545736012644
-265.396258163184,-141.238527824182,1469.64507020653,55.1337531458842
-266.043002048835,-145.729617324794,1469.56788153588,55.318913624138
-266.740377880058,-150.187954428734,1469.48089883816,55.5105608073395
-267.481643288817,-154.609265285092,1469.37554884336,55.7091871999065
-268.259646625328,-158.989215917827,1469.237372736,55.9153837955548
-269.089064403134,-163.32631773921,1469.04535822603,56.1261357979374
-270.000401811572,-167.620808824049,1468.87409170811,56.3371446019241
-271.019821772475,-171.872563357343,1468.65120442313,56.5488765057939
-272.155770529651,-176.0804673462,1468.4234416508,56.7616626134326
-273.415879025741,-180.243385301726,1468.20790143179,56.9756052591466
-274.792846727102,-184.360229886962,1468.00413568256,57.1904107531145
-276.273204123559,-188.43010761977,1467.79406042692,57.405845536284
-277.846493369255,-192.451952789468,1467.60256440933,57.6218682286581
-279.51962361113,-196.423282106653,1467.43932871442,57.8391693631547
-281.3087961069,-200.340630880093,1467.28898991221,58.0582055625445
-283.227808927919,-204.200846493697,1467.15440223281,58.2774181567502
-285.2755892581,-208.003079607189,1467.04290291154,58.4956888392666
-287.444379456481,-211.747683474452,1466.9455705535,58.7129847484571
-289.713791725925,-215.437594126961,1466.86050833164,58.9292268319884
-292.0635393654,-219.075724414282,1466.7858445083,59.1456077136858
-294.491596452173,-222.660311741111,1466.7215433133,59.3630617028422
-297.021928105488,-226.182131954162,1466.67024438585,59.5826612117827
-299.679410882342,-229.631669676039,1466.6346936278,59.8052120474598
-302.466274482549,-233.007364546442,1466.61518903741,60.028709044083
-305.372551925771,-236.312302182694,1466.63414597251,60.2518181140882
-308.364905248536,-239.559033404717,1466.67083168309,60.4745428037067
-311.411899369047,-242.759298501921,1466.71499026693,60.6938935893581
-314.505488231429,-245.914350240014,1466.76587887746,60.9069488143711
-317.663403255199,-249.013193123658,1466.82565901358,61.1185432336207
-320.915419141883,-252.038700643729,1466.89787864725,61.3327153340317
-324.278486478093,-254.980775247134,1466.98457059326,61.5482896922163
-327.752145099004,-257.839594081062,1467.17147629614,61.7645350334949
-331.334118513373,-260.616486932973,1467.38890192091,61.981361080698
-335.027424511252,-263.309198356272,1467.60805710294,62.1989725896359
-338.828548496348,-265.920140400332,1467.83895341557,62.4175415395353
-342.744528963928,-268.443795564164,1468.15420051045,62.6376038365081
-346.764459199865,-270.888762766775,1468.521543108,62.8591205477763
-350.875898539096,-273.264910875421,1468.89953261675,63.0818235637166
-355.071640328153,-275.577559251834,1469.28733239862,63.3059198909817
-359.34369019219,-277.832739454354,1469.68401107039,63.5304182095634
-363.673030251892,-280.046759719548,1470.11454579906,63.7497166256851
-368.070859123851,-282.207238192297,1470.57089913967,63.9609317102066
-372.52082251616,-284.328014078669,1471.0018521533,64.1647387009075
-376.989911074844,-286.438686671168,1471.41072645539,64.3614597357658
-381.443657791942,-288.570216075228,1471.81055193096,64.5513328496171
-385.871994018055,-290.730946290489,1472.18046514251,64.7348750693978
-390.273827451297,-292.920936288079,1472.54622597095,64.9127924843704
-394.655007777684,-295.13383902404,1472.92273960624,65.0857645294928
-399.027263609592,-297.357855569463,1473.30977961884,65.254426199245
-403.41411049085,-299.570156534389,1473.68292878056,65.4194475258627
-407.820734790126,-301.765255117649,1474.01372169045,65.5811499572063
-412.230019474948,-303.958937640303,1474.34486547392,65.7396420182682
-416.642369856013,-306.150213854309,1474.6764562963,65.8951706614521
-421.057148834103,-308.33909490709,1475.00841940009,66.0479391594029
-425.473216772856,-310.526076072291,1475.34659743663,66.1981327049975
-429.890041594187,-312.71106588933,1475.69905909611,66.3459301738702
-434.307596983352,-314.893483288769,1476.05171386251,66.491453607797
-438.726171593055,-317.072441497929,1476.40463207833,66.6348444150576
-443.146145581828,-319.246964667633,1476.79929843721,66.776320926811
-447.567775940267,-321.416197248734,1477.1982637711,66.9159163742235
-451.991009479998,-323.579587779433,1477.59767607158,67.0537234393162
-456.415351016691,-325.737019858833,1477.99748712399,67.1898290488873
-460.839972063157,-327.888706541573,1478.39758588372,67.3243080843088
-465.264021605309,-330.034883245156,1478.79786557317,67.4572284393297
-469.686624790472,-332.175809154753,1479.20332791884,67.5886627858661
-474.106844599735,-334.311805700409,1479.62328475456,67.7186872595259
-478.523774926566,-336.443163234708,1480.04496196307,67.847324484092
-482.936435829061,-338.570246622131,1480.48698423592,67.9746626703042
-487.343734577702,-340.693534936693,1480.92851386139,68.1006946906612
-491.744590821083,-342.81349468215,1481.363530215,68.2254444294879
-496.138065271149,-344.93044879402,1481.76472115255,68.3488901319119
-500.523459054021,-347.044475178384,1482.15050043896,68.4711100606517
-504.900371574885,-349.155347556306,1482.5276412193,68.5921549252897
-509.268718748664,-351.262516931593,1482.90402036263,68.7120771198512
-513.628711569497,-353.365133689738,1483.27970851811,68.8319988836547
-517.980632742996,-355.462275250995,1483.56471647569,68.9535199854356
-522.324854004792,-357.552928584699,1483.7035669237,69.0773474507434
-526.661942080253,-359.635882855247,1483.84254236113,69.2037539668197
-530.992544036147,-361.709845834911,1483.98179615144,69.3328639910816
-535.317113652574,-363.773720898269,1484.12145160017,69.4648106566098
-539.635796754437,-365.826722828116,1484.27615693267,69.5997481724308
-543.948385924328,-367.868423469756,1484.43554821672,69.7378185861148
-548.254340066383,-369.89873195515,1484.59530108081,69.8791783085337
-552.552857808464,-371.917820619462,1484.75534533037,70.0240003789927
-556.843068510332,-373.925931909472,1484.91559910871,70.1724753841959
-561.124230162708,-375.923177872291,1485.07599245378,70.3248173701024
-565.395775694356,-377.909492803467,1485.23649852478,70.4812685288971
-569.657153039133,-379.884795704569,1485.39708465417,70.6421013806048
-573.907319441026,-381.849507692459,1485.55764502741,70.8076155714265
-578.144997915653,-383.804290697935,1485.7180315085,70.9781478263204
-582.368989714978,-385.749725791775,1485.8781171085,71.1540854329009
-586.578429107284,-387.686047965548,1486.03782449365,71.3358820433438
-590.772972663955,-389.612946490471,1486.19715530669,71.5240765507521
-594.952899717078,-391.529456706226,1486.35620110183,71.7193158322177
-599.119144281661,-393.433923525078,1486.73133651687,71.9229533602757
-603.273021229099,-395.324288776438,1487.12447919543,72.1355020527123
-607.415608023775,-397.198746280689,1487.52044448751,72.3580825022944
-611.541067421095,-399.048338804601,1487.92995257281,72.591724096347
-615.635064743072,-400.873171613188,1488.35404146482,72.8374758160839
-619.690973609993,-402.66510905132,1488.84144180862,73.0972430882002
-623.713486703578,-404.403891511329,1489.32730022916,73.3714157896777
-627.727727464928,-406.047344024346,1489.81806432006,73.6551365056591
-631.773662511076,-407.537332320364,1490.3234144785,73.9448268620655
-635.883057160855,-408.82460262645,1490.86922687323,74.2400111741767
-640.078239376707,-409.870303120966,1491.43678618341,74.5355475754387
-644.34089047253,-410.68193388122,1492.01854196,74.8293068197826
-648.666269355404,-411.25063202553,1492.61822994549,75.120583791475
-653.035763064719,-411.585570875018,1493.23284230039,75.4062099117979
-657.432177035249,-411.6938898898,1493.89635419437,75.6936237179057
-661.852807942264,-411.559342554636,1494.57501307907,75.9880559286926
-666.292759387576,-411.169730044437,1495.24552267293,76.2868796659393
-670.743660515884,-410.520305232158,1495.92482285481,76.5908591891707
-675.202219441864,-409.593483410515,1496.54721464515,76.8955787582741
-679.651256608892,-408.413718636904,1497.08131470921,77.1966068181398
-684.084518455914,-406.964763951381,1497.62105673996,77.4959840998095
-688.483619046892,-405.287628201552,1498.16323725506,77.7906171939243
-692.829260400091,-403.429037937002,1498.66512873754,78.0804269790646
-697.101461331484,-401.441743742452,1499.03200733305,78.3639539866159
-701.278703970963,-399.398749692426,1499.41028538326,78.644241815117
-705.341402235308,-397.331989499416,1499.80040331131,78.9322974031378
-709.261859252971,-395.247410711572,1500.17934614784,79.2347260214169
-713.012143823901,-393.159780850356,1500.58149835844,79.5521104094429
-716.5644811323,-391.049456550075,1500.96855445965,79.8792025193746
-719.891006399804,-388.852329155561,1501.32719950884,80.209826005034
-722.963682601512,-386.478446612893,1501.64458718008,80.5419643098697
-725.755428411337,-383.90975215928,1501.94430597183,80.8792759253702
-728.240325707245,-381.168091401725,1502.2489918221,81.2219252747641
-730.390583221521,-378.246042193923,1502.54373476255,81.5730364571868
-732.18144128827,-375.16182423776,1502.81312798603,81.9347585610041
-733.588950220569,-371.937904917125,1503.05425204939,82.3120188911536
-734.574746992021,-368.544750992862,1503.26485928555,82.7141925428181
-735.090531133051,-364.926054130198,1503.45262350999,83.1098362346968
-735.098112163857,-361.04741046202,1503.60224389634,83.4643966838529
-734.614402359661,-356.977320479202,1503.70723353707,83.7820716472801
-733.616097277004,-352.715643712944,1503.78960632259,84.1049741345365
-732.121205839069,-348.329741872189,1503.93392668969,84.4592244521625
-730.198646863181,-343.972360005393,1504.0280668171,84.8343010774873
-727.97459314994,-339.87010814328,1504.19579737744,85.2158842911868
-725.523765718607,-336.144039826949,1504.36824811126,85.5947535466323
-722.894996292031,-332.856370551467,1504.47500916397,85.9666086005846
-720.108895812602,-330.002048688324,1504.51864206791,86.3335961549411
-717.169190213598,-327.535949055566,1504.5044890434,86.6768517537452
-714.070988806169,-325.393059417122,1504.43924801384,86.9857913083203
-710.804143581661,-323.496680330253,1504.33038710134,87.2728039585278
-707.359056182356,-321.771289712967,1504.18530265309,87.5506855928894
-703.734664007577,-320.159221217129,1504.01025761403,87.8275036104639
-699.923697954333,-318.589917730721,1503.81232747974,88.1056004590789
-695.956224164671,-317.06996453493,1503.5937147449,88.3784339981389
-691.866201824291,-315.613864914091,1503.34563460279,88.6446374249234
-687.673666785822,-314.208436950666,1503.0495134445,88.9029257053778
-683.400578582153,-312.844239345429,1502.74017531463,89.1507090324963
-679.0680656636,-311.510250288116,1502.42110980111,89.386567427646
-674.696199666611,-310.193480025924,1502.09590986764,89.6104982061167
-670.284848105101,-308.888980568099,1501.69976608036,89.824867287337
-665.834456430957,-307.592841678645,1501.27159455046,90.0311030724594
-661.34662251159,-306.303188997898,1500.83822202319,90.2302553232727
-656.824603968832,-305.021032566817,1500.39995628008,90.4231489159822
-652.27350418044,-303.750534184936,1499.9570378533,90.6103433600421
-647.699979887588,-302.498457263011,1499.50965956483,90.7922060751805
-643.11122796872,-301.272450804228,1499.05801193968,90.9690025409107
-638.512643248422,-300.077272153431,1498.60232113801,91.1410306238526
-633.907119636836,-298.913744069527,1498.14001525438,91.3101764730945
-629.292976156709,-297.775605198063,1497.64304817077,91.4817899254735
-624.677510718122,-296.670332326218,1497.14319277988,91.6592346691304
-620.080505221676,-295.624294702016,1496.64080188046,91.8394984564022
-615.523749915058,-294.666850753697,1496.13623827308,92.0186257631632
-611.019786675081,-293.813949679398,1495.62977832493,92.1952435001251
-606.566093191647,-293.060388450231,1495.12153832994,92.3691906128657
-602.151437085581,-292.389126447984,1494.61555968935,92.5410177513531
-597.759634300322,-291.776593373063,1494.1204437814,92.7091495935363
-593.36991208273,-291.193314947515,1493.6625422596,92.8724154605905
-588.972412932132,-290.623605663522,1493.25366712796,93.0316523939014
-584.567309196343,-290.064261224848,1492.84325033997,93.1873950125766
-580.158464080665,-289.516592032174,1492.43159153843,93.339805749096
-575.749510343372,-288.981632460504,1492.0269162941,93.4890056772929
-571.342162294076,-288.458167675734,1491.60880052381,93.6352508648542
-566.935792047061,-287.942288495524,1491.18866570874,93.7787584124008
-562.529015200593,-287.429228033014,1490.76521915127,93.9197843359723
-558.118931039556,-286.912516281861,1490.34163489201,94.0585992424437
-553.702872161919,-286.385944122351,1489.90500656124,94.1954898133306
-549.277824596575,-285.842916394631,1489.47335498212,94.3309863792214
-544.848771398463,-285.285664902142,1489.0449245411,94.4677120854913
-540.424479016999,-284.720554940404,1488.61734318702,94.6079072210067
-535.989947778476,-284.128143577344,1488.18872832826,94.7523558606623
-531.530728292845,-283.489590837584,1487.75329994784,94.9019329514667
-527.043154199739,-282.798003379616,1487.3173528835,95.0550418155639
-522.51429385182,-282.036193099502,1486.8803290047,95.210692867005
-517.937321267757,-281.193700337931,1486.4419974209,95.3692709454193
-513.310603330596,-280.265689287755,1486.0024100928,95.530232253562
-508.649379363769,-279.265150463725,1485.56255852203,95.6910208361314
-503.963386480234,-278.199398716028,1485.12312149749,95.849666793481
-499.253091175837,-277.0663278525,1484.68201880937,96.0063940201026
-494.545572807297,-275.890920886353,1484.23096670518,96.1604117672836
-489.869844324259,-274.700125348955,1483.78374632503,96.3108302503142
-485.22942265764,-273.495303875318,1483.3406783235,96.4577755692873
-480.62479698725,-272.274847452792,1482.94590417199,96.6013499064863
-476.054204270352,-271.034991557628,1482.54697412705,96.743656211255
-471.518595220704,-269.774503034265,1482.13987351618,96.8877053896462
-467.017737915347,-268.49107543344,1481.73738967618,97.0348764304107
-462.55123074872,-267.182252524798,1481.33959427734,97.1853988611378
-458.118690454299,-265.845593834343,1480.95173109641,97.3395151823735
-453.719779988915,-264.478697596028,1480.60090560533,97.4974387727423
-449.354442443664,-263.079391095541,1480.25285291405,97.659574160053
-445.022929345761,-261.645748279006,1479.9099880843,97.8262603307581
-440.725433181425,-260.17579685078,1479.57243861104,97.9978957046499
-436.461430944075,-258.667015261735,1479.19971665088,98.1751000849884
-432.230378186469,-257.116865826599,1478.80803163769,98.3584181256414
-428.031998683069,-255.523008760022,1478.42244126834,98.5484346685845
-423.866046655632,-253.883126297445,1478.02815107648,98.7459967120424
-419.733729001064,-252.192790369117,1477.63978165182,98.9496183896581
-415.636168640548,-250.447514575919,1477.23764716705,99.1573638911213
-411.574377554827,-248.64273702996,1476.84167086127,99.3690874018107
-407.549217887649,-246.773796007087,1476.45296109488,99.584690046801
-403.561149339629,-244.83576735632,1476.07179828247,99.8040492010949
-399.610518557902,-242.823654833116,1475.71733974296,100.026968643536
-395.700942818189,-240.734500539156,1475.391599226,100.252898590109
-391.830179340255,-238.561778016307,1475.07484346177,100.481009999962
-387.988988728442,-236.294804814646,1474.76661939465,100.7112616585
-384.171137385801,-233.924632821781,1474.4667173435,100.944199959107
-380.373717196515,-231.444162153144,1474.1751967999,101.180296963416
-376.598876161454,-228.84897158164,1473.89253670372,101.419817912003
-372.853898154094,-226.137213066172,1473.61967138794,101.662784946045
-369.153765943686,-223.310658626005,1473.35819296725,101.908862733096
-365.519454477579,-220.373712630763,1473.13329161242,102.157051632158
-361.945315904071,-217.319837076246,1472.92663677599,102.408031985222
-358.427042697786,-214.143012433407,1472.76065797419,102.663647962161
-354.985834864426,-210.84647594825,1472.63053412762,102.922922808409
-351.662751080392,-207.440169491491,1472.54021654119,103.184268743653
-348.489686768053,-203.931161758111,1472.45253878186,103.447012198935
-345.477017136717,-200.320140965802,1472.38103901484,103.711669788382
-342.637117999716,-196.608364021939,1472.35767983477,103.978253570588
-339.983928949146,-192.797514795055,1472.38103393654,104.24253875756
-337.50519641738,-188.888672866714,1472.44176356626,104.502407526844
-335.187804018419,-184.885057179476,1472.52099701772,104.761606106311
-333.041324442472,-180.795907388751,1472.61888056851,105.022844968488
-331.053977095413,-176.628816958133,1472.75937987815,105.286499109617
-329.220798419274,-172.393310497686,1472.92824013,105.55237353096
-327.543679701233,-168.10091365169,1473.08009837025,105.820850655702
-326.030542018325,-163.764975944696,1473.21044083867,106.091552428096
-324.712502811616,-159.406088763602,1473.35605828136,106.363409329615
-323.585363812021,-155.033433347233,1473.46821982661,106.636334884382
-322.664170328442,-150.662729994121,1473.56259127004,106.909946771935
-321.962181421523,-146.309053286115,1473.6762619304,107.183826697946
-321.471921608499,-141.979476359866,1473.83736465319,107.458264462245
-321.193326835348,-137.684146933093,1474.01317930766,107.733229637509
-321.124783608811,-133.432519998551,1474.18053977149,108.008641432812
-321.2596659038,-129.231637407651,1474.34518821793,108.28520322105
-321.612543719026,-125.099535372769,1474.52408256985,108.562992145899
-322.170972618064,-121.039186713847,1474.71615017036,108.842263344758
-322.945808628941,-117.067583028171,1474.92160637052,109.116568521897
-323.921880828504,-113.184702828823,1475.15812556844,109.381438528624
-325.084293298743,-109.390722335108,1475.42771425282,109.637458788704
-326.404281821649,-105.67475068099,1475.70603162601,109.886572244553
-327.849129392893,-102.022395809005,1475.95130128933,110.130960868362
-329.39219489008,-98.4251531967955,1476.20209965639,110.371556624915
-331.001169384039,-94.8686359032372,1476.48001278063,110.604716346286
-332.633117453234,-91.3269209175168,1476.76673814909,110.827527068174
-334.248123183398,-87.7774402957819,1477.02958464944,111.051328410682
-335.821898557133,-84.214991837643,1477.28952359325,111.287156567448
-337.326910527595,-80.6308440802118,1477.552773436,111.534498237672
-338.74592260731,-77.0270162444214,1477.83466676902,111.791228036171
-340.046188759047,-73.3903021798331,1478.10832612828,112.054504270498
-341.180761744177,-69.6947099679982,1478.36955083374,112.32265669564
-342.104436293087,-65.9156646651676,1478.63314394287,112.597484101879
-342.810886795036,-62.0569618084326,1478.88274013147,112.879571814944
-343.288666061526,-58.1190451435218,1479.09734858386,113.161963692847
-343.554151957619,-54.118712165706,1479.27143619368,113.438157550575
-343.6355307756,-50.0789985318356,1479.42823934676,113.709361383265
-343.563884404428,-46.0243155147674,1479.60666707948,113.979807778817
-343.295741523974,-41.9475726344783,1479.76494975107,114.25543690395
-342.829514913362,-37.8570772012677,1479.90253712897,114.537483551111
-342.132991202312,-33.7514359272156,1480.01602062099,114.828280777549
-341.180586523606,-29.6310048653623,1480.1072251235,115.129504352114
-339.939011233289,-25.494512318507,1480.16732381649,115.434474730315
-338.419342936149,-21.347906661047,1480.17927063087,115.735714796815
-336.64052362989,-17.1980729437256,1480.16741651625,116.034107360862
-334.62127905362,-13.0518791305574,1480.16284687644,116.33110405903
-332.377711486733,-8.90740800525771,1480.14600710573,116.628413747123
-329.999460688224,-4.76358319373355,1480.11087006181,116.919787788166
-327.502151440342,-0.62017229491039,1480.03245080855,117.199066267107
-324.906880408011,3.52323548559445,1479.94498965839,117.466138308925
-322.25212639932,7.66789576573706,1479.85208046642,117.718972598816
-319.573355698669,11.8148919396808,1479.75702900623,117.957314964826
-316.878949006862,15.9636900332135,1479.66059941876,118.183524838741
-314.172242214805,20.1134517359329,1479.66690279437,118.39940304682
-311.462065320139,24.2636653875996,1479.70259904258,118.606289108943
-308.754580557441,28.4136666222502,1479.77662235228,118.80524539128
-306.05047376717,32.5624911691699,1479.93251317749,118.997263437086
-303.347001872196,36.7089919982481,1480.08823099342,119.18309098808
-300.64102918537,40.8520009717602,1480.25250833961,119.363429691498
-297.931018189471,44.9904403226036,1480.42063697906,119.538827240255
-295.217032673852,49.123330596577,1480.58923308426,119.70972203607
-292.500810443487,53.2498053654321,1480.79352530971,119.876508622261
-289.784666967002,57.3690409264919,1480.99702631163,120.039429663841
-287.070282278634,61.4801628147053,1481.18475995974,120.19872597685
-284.357092393575,65.5821060432662,1481.34889757543,120.354650645624
-281.643660256414,69.6737278036372,1481.51843476383,120.507476909859
-278.929400566748,73.7539642951671,1481.7220749425,120.65743884763
-276.214882351558,77.8218624823761,1481.93394742726,120.804668205903
-273.500338413609,81.8764361204292,1482.14434806374,120.94930071119
-270.786003078814,85.9166991185488,1482.35318311968,121.091468576911
-268.072105638533,89.9416648669471,1482.55957622593,121.233875425565
-265.358806622567,93.9503395585128,1482.75568573283,121.379469963256
-262.646136602795,97.9417156113774,1482.98070062364,121.528710993507
-259.933828154717,101.914753496307,1483.22396133714,121.681796216442
-257.221338910534,105.868383853154,1483.44182555416,121.838893411038
-254.508178509047,109.801543045726,1483.64445126504,122.000281073627
-251.794145817258,113.71319983517,1483.84484120607,122.166270089919
-249.079477823069,117.602373101024,1484.01175877852,122.337141389381
-246.364909545124,121.468140081941,1484.17191578029,122.51329319239
-243.651529588921,125.309620549782,1484.33098220296,122.695143970499
-240.940302839084,129.125918982817,1484.50070349552,122.883191430999
-238.233443149226,132.916298526269,1484.6683352217,123.077957623977
-235.533789487077,136.680103911718,1484.84059955183,123.280079553857
-232.843761930685,140.41662375956,1485.03876626257,123.490360543313
-230.164487610299,144.124969297268,1485.22987788058,123.709700029641
-227.495274029742,147.803996751092,1485.41235135449,123.939323179322
-224.835180271794,151.435001785652,1485.6154702302,124.180074742176
-222.184526701355,154.999463041726,1485.81243996434,124.432893862473
-219.547713463311,158.479460498296,1486.00172417334,124.699002598822
-216.920549718114,161.855787535344,1486.18097086453,124.978730665698
-214.285408087681,165.107190252872,1486.33084971661,125.271780382061
-211.624480920995,168.212386561978,1486.46584337866,125.574480740668
-208.881553132509,171.143827653104,1486.60377806936,125.879333168
-206.015691022977,173.876630530492,1486.71812430525,126.186516486321
-203.015316673922,176.391642106096,1486.80286377458,126.49701430777
-199.875198704737,178.671163449545,1486.85591412337,126.81268365494
-196.56822564096,180.691445345121,1486.88468757387,127.136826731028
-193.102652495652,182.44057027409,1486.88185212138,127.455567578427
-189.509887437318,183.915905226303,1486.84165272813,127.768561131639
-185.831296761738,185.119541744816,1486.76665544352,128.089287524163
-182.053188874484,186.023001662053,1486.76883580553,128.420748950883
-178.177820697511,186.608070665412,1486.75347801908,128.750429896525
-174.218975023082,186.865077101172,1486.70023502417,129.085243263163
-170.168053011141,186.765465848363,1486.61600360862,129.438989026585
-166.004052088607,186.268993993994,1486.50136280184,129.795928695689
-161.771046301869,185.401901196848,1486.36863959491,130.136058961145
-157.53037334227,184.209011413839,1486.20415349958,130.461080609891
-153.300227145819,182.687201956111,1486.00654177427,130.776557867159
-149.087253840205,180.820308137553,1485.77424006508,131.084052174015
-144.934774166691,178.633342233148,1485.51021944879,131.383665851512
-140.909786982577,176.212851784408,1485.22391382316,131.673406090758
-137.063393394904,173.629034667068,1484.92295670727,131.952293800031
-133.404190952126,170.910847482447,1484.61036301935,132.221128269684
-129.925472455569,168.073107118021,1484.28290241466,132.481450371477
-126.606415802413,165.117998163906,1483.95512207077,132.735153709039
-123.42506442422,162.046700351181,1483.62808506304,132.984152849213
-120.359033128888,158.860014658099,1483.28999393082,133.230373097463
-117.381879106486,155.555136374697,1482.94042275213,133.475576179286
-114.478501841647,152.139494598446,1482.58004448668,133.720696065272
-111.645181670477,148.630979718842,1482.2106493601,133.965522141894
-108.875635247665,145.045069685107,1481.84157714759,134.208810698871
-106.163592597089,141.397255357146,1481.53794791293,134.447060602217
-103.501402464709,137.701657766587,1481.27997835197,134.676961236603
-100.879172823083,133.970117630025,1480.99923522887,134.896726030144
-98.2846382171613,130.212000976795,1480.69889287242,135.106081799564
-95.7132784638573,126.428950723717,1480.39532216295,135.306608828404
-93.1628697114355,122.625117533623,1480.08900327579,135.499439447067
-90.6322011493014,118.805786791504,1479.86561351754,135.685211808886
-88.1199099406983,114.976068851391,1479.65168043156,135.864788333103
-85.6244978677454,111.140913606063,1479.52785397023,136.03861747302
-83.1439963497658,107.304696430422,1479.42358841801,136.207293770956
-80.6758894263718,103.471103468858,1479.31862901193,136.37126689347
-78.2167498560627,99.6426383802981,1479.2473052097,136.530928370302
-75.7623528952586,95.8207393180064,1479.14727323909,136.686721282081
-73.3083683532337,92.0066995230021,1479.03428623114,136.838992473979
-70.8505081054358,88.2018716680052,1478.92777929073,136.988037672493
-68.3845986775711,84.4077749396839,1478.80028706467,137.13414985782
-65.9066030389728,80.6261322950705,1478.67444341067,137.277544101334
-63.4125906723389,76.8588303440265,1478.55063010458,137.420404447457
-60.8986582298917,73.1077986669941,1478.42923398795,137.565982567476
-58.3605895848133,69.3744574392665,1478.31061572751,137.715676774887
-55.7940049799022,65.6599523879991,1478.18539745926,137.86984205032
-53.1945040418519,61.9653936263157,1478.0261027074,138.028906256317
-50.5578954017285,58.2922632668067,1477.88481043777,138.193248153008
-47.879770091175,54.6416441993729,1477.77100046929,138.363379655823
-45.1547281294628,51.0127451329984,1477.67150319809,138.540002450271
-42.3776110326119,47.4052454940909,1477.53045198412,138.723955836771
-39.5433164766605,43.8189376631969,1477.39328444823,138.916111229077
-36.6450334499585,40.2500596947914,1477.26115472637,139.11773660663
-33.6765274212753,36.6960935787439,1477.1469354503,139.327768382366
-30.6359973604663,33.1644674261631,1477.02092800293,139.544128504626
-27.5217753480063,29.6629198326755,1476.88237281868,139.767023979792
-24.3308221218981,26.1958663313078,1476.71789046069,139.99667006501
-21.0634881520632,22.7763140887746,1476.56861145691,140.230685043896
-17.7249370305317,19.4302101853248,1476.42831300911,140.466201977494
-14.3241025964112,16.1943925857245,1476.29967541152,140.701624394286
-10.8613663391538,13.0792159541224,1476.18353401085,140.936629542596
-7.32959698333741,10.0707129072591,1476.04422648994,141.172265461111
-3.72734677548351,7.17374788605821,1475.91070833568,141.408705918897
-0.0536783407004577,4.39490870452789,1475.79938154021,141.646075061268
3.68516002114211,1.74441142433056,1475.67453784338,141.884377208213
7.47957691826002,-0.755623199678325,1475.64576932536,142.12293684729
11.3229223182059,-3.09390536000137,1475.61658415909,142.361537192269
15.211711029031,-5.27115499013144,1475.62693668149,142.599831821818
19.1494357418438,-7.31491177299313,1475.64026654,142.838472293392
23.1373467856213,-9.24419517050842,1475.66415248353,143.079294197729
27.1700582873017,-11.053209332116,1475.73316491191,143.321865222572
31.2351063616577,-12.7099573329667,1475.79515188865,143.565324627966
35.321683027921,-14.188537873711,1475.85670691958,143.80914676685
39.4262678270311,-15.4891801499869,1475.95262320326,144.050198778194
43.5543328935574,-16.6424507928517,1476.05443219225,144.287468886918
47.7034433984438,-17.6543020170029,1476.16476202727,144.521621213569
51.8664031695325,-18.5170714029742,1476.30849800682,144.752827633173
56.0390293716447,-19.2310458359757,1476.46087175288,144.981018500285
60.2164744008147,-19.7948784442559,1476.6217382972,145.208254631886
64.3977686407217,-20.2161823529302,1476.80568556985,145.43664352945
68.577366274881,-20.4925343739125,1477.00472608897,145.665980819688
72.7589532744172,-20.6408001898651,1477.12576687924,145.896212484764
76.9425377622223,-20.6705652269538,1477.25230744614,146.128554306464
81.1169489329517,-20.570579195944,1477.38452262557,146.362600190777
85.2665843278818,-20.3218240508522,1477.52280831341,146.598052468197
89.3807701976515,-19.9134257803258,1477.66034557338,146.834790919139
93.454812743647,-19.3438370201831,1477.790164896,147.069774591069
97.4926420629102,-18.6241757133507,1477.92595043773,147.301385566679
101.501858405432,-17.7706349384868,1478.0671524084,147.530844579061
105.49557912405,-16.8066271830033,1478.213030074,147.761182639353
109.470610879434,-15.7353352728051,1478.3680356848,147.993305233567
113.418161411159,-14.5533825590635,1478.53207490317,148.227615033063
117.322011309971,-13.2492004769094,1478.69926392915,148.463739331589
121.165557370357,-11.8108213872717,1478.86953444735,148.701688226637
124.933528463999,-10.2275867359753,1479.04281081861,148.941353355463
128.618602293246,-8.49621947238165,1479.2110163917,149.179507577352
132.235522818975,-6.6328125143425,1479.37142070014,149.414585804142
135.803783194534,-4.65740637476404,1479.53469587879,149.648019890616
139.323428113762,-2.57473383016395,1479.70066842829,149.880390305397
142.777661384389,-0.37702355008912,1479.86919833204,150.111437844086
146.163660188536,1.93375859058006,1480.04014163191,150.341243647075
149.483278485051,4.35259901079257,1480.0946605462,150.569520361168
152.72099783515,6.88502649629686,1480.13728723207,150.796191872003
155.870079807654,9.5316359941105,1480.18547980881,151.021060174782
158.942670019022,12.2832234322457,1480.23871360533,151.244697601405
161.93930434161,15.136153381895,1480.28634310758,151.467493441983
164.838045881118,18.0967982275012,1480.35393286949,151.689113456724
167.638144450472,21.1626885883795,1480.41379829446,151.909438964558
170.362779319159,24.3218569375812,1480.45947370876,152.129079411564
173.032038484035,27.5635208426438,1480.50617434069,152.349153647604
175.654447348771,30.881234390463,1480.52978673456,152.569355104473
178.249979536592,34.2643077683837,1480.55877035377,152.786028294545
180.84967223523,37.6979619304526,1480.60442020181,152.995366385512
183.462859482442,41.1754596111457,1480.65125552053,153.196758985021
186.07917857393,44.697381960082,1480.69962205557,153.391151054348
188.699891057135,48.2599884381269,1480.74933886349,153.579423855009
191.326697118258,51.8593755079964,1480.77334485236,153.762277366196
193.960119987317,55.4920764308321,1480.79182747253,153.940282072862
196.600456608253,59.1570235686971,1480.81098304439,154.113969678288
199.247826380144,62.8532150167908,1480.83077527797,154.283783248103
201.902858024221,66.5794601977019,1480.8511559223,154.45010336424
204.566144353463,70.3345818704706,1480.87207537128,154.613255316078
207.238252894915,74.1174122246402,1480.88283134537,154.773518220274
209.919761178065,77.9267797012005,1480.89093135429,154.931136891824
212.611285551075,81.7614981195667,1480.89936707854,155.086325072947
215.31378928501,85.620249945801,1480.90806186162,155.239273583398
218.028710496093,89.5015368873605,1480.90978538939,155.390154979582
220.75529578878,93.4046997691066,1480.89690004565,155.539106318822
223.491595903805,97.3295402677683,1480.88410605765,155.686239022614
226.235645721192,101.275866216558,1480.8397108807,155.831658363542
228.986399659551,105.243125743694,1480.78869922838,155.975456196084
231.744489405253,109.230105717645,1480.75651709047,156.117723765614
234.513564248306,113.234394661633,1480.72424603119,156.258575432622
237.300100976512,117.252451413647,1480.83276434693,156.398161724529
240.110489306306,121.280769756092,1480.98425838904,156.536592864516
242.947036677695,125.31748610786,1481.13502403085,156.673911717776
245.808201735491,129.362286462308,1481.24420983407,156.810133975784
248.688930227063,133.416269240565,1481.32018664417,156.945289922367
251.58140740812,137.481639327865,1481.39609392214,157.079390653968
254.475869725244,141.561379180084,1481.47290195177,157.212415348408
257.364665912308,145.657633102392,1481.55135928693,157.344356923608
260.243735740625,149.771128554602,1481.63182773024,157.475231390632
263.111989910275,153.901426639766,1481.71436180872,157.605072077882
265.970952964073,158.047066095333,1481.79529822223,157.733924274836
268.824110374399,162.205820277341,1481.85844866398,157.861837302876
271.675789100194,166.375134213142,1481.93050558117,157.988876692431
274.529741686641,170.552677356212,1482.00297713221,158.115088339928
277.38802154138,174.736784947739,1482.0755720682,158.24050783196
280.252097472488,178.926022268786,1482.14806756074,158.365165056976
283.122930029086,183.119155692142,1482.22028823221,158.489085019958
286.000711307876,187.315257581792,1482.29214746575,158.612286652134
288.884638574776,191.513799200655,1482.35246517304,158.734778333921
291.77372882541,195.714324594885,1482.38508233097,158.856567231641
294.667035960371,199.916362817262,1482.41745001145,158.977667941427
297.563631835442,204.119435587275,1482.42246470497,159.098085658038
300.46261532075,208.323053543638,1482.41579917531,159.217829414975
303.363052794736,212.526740698633,1482.40303912508,159.336904877353
306.2638098467,216.730103942891,1482.33374137092,159.455325728646
309.163608670081,220.932809497404,1482.26449331036,159.573083198763
312.061348899509,225.134450016724,1482.21577093002,159.690173882581
314.949919992801,229.337113885088,1482.18603040397,159.8065704198
317.822717025166,233.542679305381,1482.13690069008,159.922253211856
320.682731809765,237.749036761812,1482.12190720423,160.03723577677
323.53897299239,241.951583086615,1482.11554552425,160.151572314902
326.402459063186,246.144885557819,1482.13025685233,160.265321692345
329.280551001018,250.325014841425,1482.13539759954,160.37852273431
332.174387335615,254.490592737493,1482.12450251675,160.49118427194
335.081950538805,258.641534936041,1482.14085207106,160.603726275684
337.990302055094,262.78224562614,1482.16629871158,160.717447795575
340.886668916293,266.917060621507,1482.19215169709,160.83327027065
343.76413355445,271.047885243037,1482.22873629443,160.951221951212
346.614574160334,275.177126817009,1482.27151439914,161.071325268802
349.429219207893,279.30746423944,1482.33479985793,161.19360726667
352.198041386183,283.442101460428,1482.42004059837,161.318092345395
354.913929607584,287.583026667431,1482.50834930161,161.444817726016
357.581039151321,291.727564290443,1482.5993573787,161.573892951181
360.214375427326,295.868600568676,1482.69190816024,161.705489292838
362.828834492068,299.999065751228,1482.76702055815,161.83977737651
365.433510471237,304.114181358,1482.78391541117,161.976909903173
368.031169801874,308.211618278774,1482.80052306942,162.117039021949
370.621538113571,312.290200908604,1482.81681066177,162.260296163415
373.203649748905,316.349010637591,1482.83279533965,162.406821500603
375.778699379151,320.386341824731,1482.84835568376,162.556785943896
378.354545152184,324.398110506814,1482.86293217795,162.710431889212
380.944341339896,328.378381184099,1482.87563593492,162.868078107199
383.555898845115,332.323049119502,1482.87972457752,163.030042373628
386.191978447481,336.22970862791,1482.86637338787,163.196642319789
388.851361564072,340.097272382221,1482.85773334966,163.368197488817
391.529654703768,343.925692149047,1482.84658691368,163.545038377807
394.220709430742,347.71548888847,1482.83329928507,163.727520930813
396.918775199457,351.467055317783,1482.81821399627,163.916060979304
399.620714247076,355.179945489898,1482.78509870075,164.111185347113
402.322946249719,358.853855155693,1482.7038582517,164.313531091443
405.020903987819,362.486379462627,1482.60954164611,164.523714141696
407.707568587783,366.067213326238,1482.53113340509,164.742086204676
410.370318477104,369.587843441238,1482.46865026675,164.969020941469
413.010280305162,373.035357048944,1482.40512622939,165.205279921174
415.631526223226,376.395898873478,1482.3397583655,165.45190545236
418.222423410696,379.660638067865,1482.27305821928,165.709917517882
420.746585990569,382.82866712645,1482.20349773906,165.980062488839
423.221123750555,385.881947678373,1482.12473631654,166.263200233374
425.689433906117,388.794050929893,1482.11787279136,166.561194138782
428.150225979686,391.552742721802,1482.09661434707,166.873084749255
430.665918740627,394.125574439555,1482.0572811745,167.188999425264
433.30914690025,396.476846075496,1481.99658112249,167.508531246822
436.127996477454,398.578793293916,1481.94057045741,167.836575139206
439.131730513139,400.416704704002,1481.85949398874,168.157674001144
442.294539674074,401.988536048347,1481.74742971667,168.471623328593
445.582341278587,403.295568151186,1481.60693067353,168.789126210879
448.946213985632,404.345944099352,1481.44211451225,169.111719655382
452.30006711238,405.168274923699,1481.2612740759,169.440899956855
455.642027683331,405.734184499652,1481.06246044843,169.775895339674
459.000805498415,405.989308871316,1480.83961666045,170.123965535111
462.400654536557,405.884128087606,1480.58735368766,170.49283068986
465.881815835401,405.346550024532,1480.29749201915,170.862381946238
469.47280856504,404.326452163657,1479.96429995768,171.205682054753
473.167040963751,402.863337577184,1479.57350598616,171.526300840511
476.950569631129,401.022831287533,1479.12992139892,171.838752101122
480.799884361963,398.918027115333,1478.71796949823,172.150979564368
484.696052581991,396.63159703226,1478.36730036312,172.459753148905
488.6209628595,394.239638982504,1478.05385375527,172.751281532519
492.55280547088,391.849676994281,1477.70377533571,173.019874323898
496.483350323053,389.457155318635,1477.3057726731,173.269020007226
500.402908390271,387.069306081877,1476.95723525961,173.50174202721
504.301944074355,384.692141357716,1476.66622870535,173.720482773673
508.171848075682,382.324341840898,1476.3962925948,173.931059541577
512.003442691936,379.969125622958,1476.10135244176,174.143799716963
515.789656327041,377.612647194286,1475.79399768406,174.365660841434
519.523841985642,375.237520594196,1475.47847748918,174.596935435801
523.198970877149,372.829732001379,1475.13142326112,174.837097266938
526.808442586058,370.371063053903,1474.78367416145,175.08735799293
530.34312526118,367.873090706793,1474.43650326048,175.348480051684
533.795620485787,365.318467706692,1474.08897969715,175.62000110699
537.158838079211,362.676195930973,1473.73915282604,175.899559010046
540.425655907757,359.914022677877,1473.38497573207,176.186696975371
543.586806135473,356.973911150981,1473.02233063625,176.482099423844
546.630381080278,353.780123959623,1472.60184256073,176.783596766434
549.55681069064,350.313309969294,1472.19301459314,177.085595070817
552.37139289852,346.571306015089,1471.77341084471,177.387258960061
555.097134287239,342.603899289053,1471.34182545934,177.68937454842
557.75460082557,338.454634801379,1470.8809238829,177.994627957944
560.373172160419,334.187492779678,1470.4338357106,178.292922336728
562.984188308628,329.870753667175,1469.95019992662,178.571427107864
565.594272374383,325.519954190957,1469.48312526066,178.831466382171
568.208351537195,321.147041767794,1469.01405825263,179.076548776643
570.831620904103,316.764532188155,1468.5438128147,179.320251806469
573.462524984299,312.370465822803,1468.07229673325,179.577442804738
576.09344885675,307.949907405528,1467.58096510114,179.85296725619
578.730167405895,303.516371975984,1467.19896559686,180.149367587663
581.397686385449,299.123785825872,1466.84827874196,180.467727159956
584.127321905966,294.839185696717,1466.61214222411,180.805305567364
586.948389048902,290.725438530055,1466.39056820157,181.151708003093
589.89694865705,286.859833026207,1466.18686038405,181.499764351523
592.998004634124,283.294851228808,1466.00476600007,181.847669536318
596.268172872994,280.062661141496,1465.84336702546,182.186867458189
599.681284805052,277.10584710499,1465.68621499181,182.525290205487
603.229278173384,274.423630752177,1465.52474082912,182.868026638253
606.915895961392,272.059483350118,1465.39354951232,183.215929644454
610.741974410956,270.043298756573,1465.32190605983,183.570732104861
614.70384782967,268.376740721746,1465.27477764841,183.915874106608
618.792419566111,267.008957260575,1465.23012702178,184.240369853116
622.998173506102,265.880193741742,1465.19968065758,184.552318498374
627.311629815718,264.92538249193,1465.18148600119,184.858123543285
631.72467369996,264.05573501618,1465.16975882259,185.152216640347
636.224130931631,263.231420481436,1465.16971679765,185.427891930863
640.792565709832,262.44319174306,1465.18816169714,185.685358820119
645.411777097995,261.686474318528,1465.20939884579,185.927815299637
650.063827921872,260.95522021805,1465.23276854254,186.15742710743
654.731770859823,260.238097364265,1465.28714074603,186.3757877366
659.398734539416,259.523377546897,1465.57473711288,186.588281899776
664.046756882228,258.804935571074,1465.84073664402,186.804131236726
668.657008780718,258.081005311035,1466.09342293045,187.029255050504
673.210726226842,257.349502238757,1466.34180260876,187.264050322446
677.689412196911,256.607071987896,1466.60484092214,187.509095973102
682.074796572154,255.849309536628,1466.82618527219,187.764941680724
686.349217722566,255.069067688765,1467.04201176701,188.032738575217
690.495307296963,254.257913386846,1467.25003188029,188.312922379687
694.495722618245,253.407304060208,1467.4259444726,188.605938901295
698.331450189152,252.515635329834,1467.59851751268,188.912238494126
701.9914919187,251.548870203146,1467.75254033718,189.228732486831
705.472907556677,250.441209322812,1467.87270848936,189.545319492817
708.774120939776,249.12158111994,1467.9414854079,189.862488037472
711.887595697791,247.541968436865,1467.9725056517,190.185309942761
714.794928862292,245.69786096263,1467.97412577185,190.516425836619
717.478596681011,243.580952016375,1467.91460053535,190.858211816024
719.913653862826,241.219493208565,1467.82509531366,191.194744146069
722.073027165737,238.654925975123,1467.69325178745,191.526348960143
723.937189102581,235.859155805707,1467.45441071281,191.876448941705
725.487609500606,232.784343369326,1467.17504756086,192.25419006546
726.705273988916,229.324824355586,1466.84379621349,192.637589990111
727.571788141724,225.384692786824,1466.41300011644,193.001047603814
728.079150965629,220.966366305611,1465.94356352882,193.357381666857
728.240131664216,216.238511904943,1465.43308264753,193.727647740785
728.0833787677,211.506557788131,1464.92295473537,194.111234536257
727.636147354378,207.060795650119,1464.55670704318,194.484226046293
726.913565481968,203.012045143865,1464.19639361677,194.838739675475
725.922278830104,199.32122051697,1463.90563900003,195.179488077455
724.664817587002,195.885653633573,1463.67173071981,195.499072415687
723.145171880385,192.61910048721,1463.43779452631,195.79273742077
721.371338315015,189.469430980892,1463.20124354849,196.06784525279
719.356081603767,186.417787957829,1462.96149130609,196.3313020953
717.112334870562,183.44636094193,1462.71802184255,196.587777202439
714.655531425813,180.552102554791,1462.47121676555,196.840225548952
711.998949584627,177.719372024891,1462.22068230884,197.09157754616
709.152896964922,174.914884111688,1461.964949376,197.344772020454
706.138298072282,172.170283161075,1461.70651337035,197.598587139151
702.969645736952,169.476941098899,1461.44541519682,197.853968146278
699.661964347336,166.829647967049,1461.18189989856,198.111652476501
696.230223423586,164.222832569587,1460.91619496196,198.370189676456
692.689436281303,161.651216616091,1460.6485444538,198.624597903245
689.054717949812,159.11020502664,1460.37922625403,198.87152828313
685.341297070262,156.595959657876,1460.11804231174,199.109681890415
681.564475931925,154.105124222287,1459.86933265018,199.337422883045
677.739565641817,151.634398827797,1459.61983327234,199.554380093039
673.881847693914,149.18029827379,1459.36992838314,199.761839738072
670.006571515481,146.739140100568,1459.11985561742,199.960752995232
666.118877211858,144.308817155356,1458.84760471134,200.152198721879
662.220510641619,141.887776793403,1458.57548493885,200.337036608671
658.313194229246,139.474469833918,1458.30347232543,200.516011475025
654.39863136125,137.067348620514,1458.03154230264,200.689738104896
650.478493530971,134.664868634054,1457.94168166861,200.858472036599
646.554200612969,132.2655225711,1457.87278024071,201.022914129077
642.625948144305,129.867997301643,1457.8040038829,201.183485522908
638.693930235318,127.47097148064,1457.73528994119,201.340539498661
634.758340394385,125.073120024209,1457.66657559638,201.49438459766
630.819373291241,122.673125110249,1457.65680269292,201.645275818852
626.877225612007,120.269681580491,1457.64845688424,201.793469912832
622.93209654178,117.861500011402,1457.63997077849,201.939180471831
618.984190019956,115.447320912218,1457.63128131751,202.082598250748
615.033684269273,113.025723322079,1457.63253179655,202.223898075545
611.080653639086,110.594638097688,1457.64554417255,202.363252141689
607.125554808297,108.154353300436,1457.65827252676,202.500770488287
603.1692170622,105.7074070978,1457.6707885336,202.636509599087
599.212644282036,103.257361853244,1457.68319691534,202.770499030536
595.256852754692,100.807850298822,1457.69559953141,202.902761543187
591.302712668409,98.3617039726685,1457.70807217935,203.033330392884
587.35086541585,95.920536687157,1457.72066822436,203.162256951011
583.401644159065,93.4843583554959,1457.73337941785,203.289617275665
579.455083920937,91.0516493819747,1457.74614686182,203.415509726764
575.511387459879,88.6217443425257,1457.76484780072,203.540010643202
571.570800968387,86.1941982791653,1457.81800407827,203.66319289938
567.633576046405,83.7685936739171,1457.87111026272,203.785110383449
563.699977912046,81.3445822898831,1457.92414371462,203.905818709738
559.770282612465,78.9218712528897,1457.97708029474,204.025368692603
555.844764940765,76.5001612340918,1458.0262154536,204.143806787907
551.923714284797,74.0792286305195,1458.0588095547,204.261173413913
548.007495508962,71.6592449525195,1458.09128884687,204.377505706814
544.096470991094,69.2403685737105,1458.11070031364,204.492833060909
540.190842047388,66.8219004629161,1458.12065864948,204.607200198835
536.290663756968,64.4023596523489,1458.1265575039,204.720662117235
532.395942766224,61.9800055941871,1458.11603979236,204.833275445529
528.506769586969,59.5535488843132,1458.10314790411,204.94508646609
524.623463773924,57.1229434705657,1458.06959644942,205.056121271454
520.746499941984,54.6889996651694,1458.03569722582,205.166385557447
516.876494662962,52.253331272888,1458.0015213102,205.27587335921
513.014023305218,49.8173121243001,1457.96712188506,205.384581839188
509.159447928232,47.381040495107,1457.91850172668,205.492530756866
505.312966165323,44.9436133759674,1457.86119048036,205.59975088491
501.474705639551,42.5036980770203,1457.80350689087,205.706276889572
497.64483651682,40.0602226826121,1457.74893451044,205.812139333509
493.82363733576,37.6127746534238,1457.72945731623,205.917352604846
490.011358067362,35.1607696233109,1457.70936066962,206.021945348784
486.208237385973,32.7035563447553,1457.68859879108,206.125939656066
482.414511261636,30.2404678724059,1457.66712029195,206.229357052137
478.630414100149,27.7708283883381,1457.64487326962,206.332218449187
474.856179875005,25.2939596852601,1457.78289136124,206.434590477527
471.092041465499,22.8091776761287,1457.94675139272,206.536465493406
467.338223499326,20.3157552375294,1458.10973706977,206.637842983586
463.594971250985,17.8130696395885,1458.27181614696,206.738740515402
459.862546806545,15.3005805157785,1458.46921483024,206.839205967777
456.141219320853,12.7777810481388,1458.73655045137,206.939302577346
452.431235570217,10.244061561287,1459.00792989991,207.038971140226
448.73281866769,7.69870710740406,1459.27864444265,207.138222807996
445.04624813038,5.14124551178293,1459.55118536906,207.237073901539
441.371866178647,2.57146575743707,1459.84415251795,207.335558414512
437.710386971852,-0.00934473005156633,1460.1452163613,207.433642353094
434.06235942406,-2.60054166470127,1460.45549127616,207.531321060034
430.425537905666,-5.21197691017153,1460.76533388892,207.628754752839
426.796708546353,-7.85701031835299,1461.09727641706,207.726214010945
423.173213538297,-10.5470644295665,1461.43235020908,207.823871974193
419.555048113665,-13.2847140499009,1461.7701084668,207.921772358145
415.944558994762,-16.0650345662905,1462.12522589396,208.019846440911
412.344653823651,-18.8813828771001,1462.480520324,208.117941051721
408.758335231874,-21.7268339062003,1462.83557245818,208.215924762275
405.186150045367,-24.6016027589623,1463.19034653344,208.31380186535
401.621932477961,-27.5238316177313,1463.54876004744,208.411932911952
398.060290643502,-30.509433774934,1463.9213875167,208.510648940417
394.500176644497,-33.5618214062777,1464.28996775804,208.609994873676
390.945111275831,-36.6713871705371,1464.66029226657,208.709804219562
387.401129916412,-39.8215042120128,1464.99921902816,208.809710262015
383.873947613785,-42.9964139257771,1465.31153909566,208.909425371216
380.367841625297,-46.1841237943091,1465.6225780409,209.008761513319
376.884443515418,-49.3793347939511,1465.92816278149,209.107623086727
373.422672326859,-52.5833938604376,1466.20683238567,209.206027779363
369.982377884157,-55.7954312483631,1466.49862821694,209.304025693071
366.564533962295,-59.0119696860273,1466.79840823215,209.401555397293
363.169703838625,-62.2304609917458,1467.05253284724,209.49851452391
359.797951636706,-65.4494612824123,1467.29031640741,209.594927852469
356.449034167771,-68.668192702953,1467.52668350793,209.690812124538
353.122468018626,-71.8863884771665,1467.68502321421,209.786111443909
349.817487319378,-75.1043724974665,1467.71149508444,209.880863140554
346.533102851239,-78.3229279361752,1467.73666531271,209.975153908973
343.268205522616,-81.5430802778455,1467.75327128799,210.069020550134
340.021716209722,-84.7657955069459,1467.7628533629,210.16308444245
336.792612154337,-87.9919297913476,1467.77105011879,210.258268714621
333.579840544527,-91.2223967166772,1467.77787744274,210.354936503708
330.38260046546,-94.4576380087713,1467.80189312996,210.453156163909
327.200155732941,-97.6979764790527,1467.83585645318,210.552996227029
324.031695644026,-100.943869218383,1467.86857964304,210.654531161985
320.876406615952,-104.195778408709,1467.8498724375,210.757840478984
317.733538305902,-107.454056521521,1467.76750911909,210.863026306385
314.602424622087,-110.718912551753,1467.68441972003,210.970158525983
311.482486068615,-113.990410681846,1467.6006186264,211.079324725305
308.373223278586,-117.268483464789,1467.51611986929,211.190615001852
305.274208302553,-120.552948173186,1467.43095154533,211.30412266799
302.185060127544,-123.843547614967,1467.34223152272,211.419947269547
299.105348938455,-127.140100705324,1467.24001443839,211.538202707351
296.034613150326,-130.442475063205,1467.13724349367,211.659000373774
292.972403609777,-133.750519574092,1467.03394003562,211.782467834081
289.918273898693,-137.064079072073,1466.93012160927,211.908743549534
286.871817549788,-140.382940234328,1466.82580808489,212.037976383745
283.832690902373,-143.706799892198,1466.72102992902,212.170325844239
280.800008653934,-147.036116246742,1466.61577717898,212.305995216775
277.773098301213,-150.371053566451,1466.51005868564,212.44519718621
274.752286480323,-153.710420795022,1466.40393862538,212.588113121803
271.737478437735,-157.053587743025,1466.29745423039,212.734967535192
268.728392787994,-160.40016796152,1466.24062712732,212.885990456345
265.724649970572,-163.749900867748,1466.19510357473,213.041504496913
262.72577325728,-167.102648256678,1466.15434897937,213.201854264167
259.731065535345,-170.458544822796,1466.17620360301,213.367437800666
256.739316099016,-173.818351100656,1466.23800809167,213.538764327352
253.750046146311,-177.181949449882,1466.29970122307,213.716339299124
250.763393995444,-180.548493303824,1466.371583776,213.90073271807
247.778856443243,-183.917881837852,1466.46405981964,214.092660208072
244.795994864826,-187.289940330388,1466.55648417409,214.292939711264
241.814381198257,-190.664482160068,1466.67308822852,214.502599457601
238.833468123944,-194.04145298168,1466.78896312206,214.722846273681
235.852985245333,-197.420496025736,1466.89602004375,214.955178537164
232.87265440696,-200.801262866449,1467.00305416109,215.201521143556
229.891985072936,-204.183629980176,1467.13775143145,215.464426196173
226.910436269022,-207.567526437497,1467.2759290236,215.737723374185
