<?xml version="1.0" encoding="utf-8"?>
<kml xmlns="http://www.opengis.net/kml/2.2">
  <Document>
    <name>Kyalami_InnerLimits_RR</name>
    <Placemark>
      <Snippet maxLines="0"> </Snippet>
      <description> </description>
      <name>Kyalami_InnerLimits_RR</name>
      <Style>
        <LineStyle>
          <width>4</width>
          <color>ffff0000</color>
        </LineStyle>
      </Style>
      <LineString>
        <coordinates> 28.069868895,-25.998709624,0 28.0698386415877,-25.9987393431823,0 28.0698083440458,-25.9987690257838,0 28.0697779694211,-25.9987986448164,0 28.0697476758452,-25.9988283299622,0 28.06971753904,-25.9988581436101,0 28.0696874341615,-25.9988879838841,0 28.069657356373,-25.9989178467933,0 28.0696273036545,-25.9989477306478,0 28.0695972739859,-25.9989776337575,0 28.069567265347,-25.9990075544322,0 28.0695372757177,-25.999037490982,0 28.0695073030779,-25.9990674417166,0 28.0694773454074,-25.9990974049461,0 28.0694474006863,-25.9991273789804,0 28.0694174668942,-25.9991573621293,0 28.0693875420112,-25.9991873527028,0 28.0693576240171,-25.9992173490108,0 28.0693277108918,-25.9992473493633,0 28.0692978006151,-25.99927735207,0 28.069267891167,-25.999307355441,0 28.0692379805273,-25.9993373577862,0 28.0692080666759,-25.9993673574154,0 28.0691781475926,-25.9993973526387,0 28.0691482212575,-25.9994273417658,0 28.0691182856503,-25.9994573231068,0 28.0690883395311,-25.9994872956221,0 28.0690584119494,-25.999517283529,0 28.0690285123878,-25.9995472947385,0 28.0689986324827,-25.9995773222835,0 28.0689687638702,-25.9996073591965,0 28.0689388981868,-25.9996373985103,0 28.0689090270687,-25.9996674332575,0 28.0688791421522,-25.9996974564709,0 28.0688492350735,-25.9997274611831,0 28.0688192974691,-25.9997574404268,0 28.068789320975,-25.9997873872346,0 28.0687592972277,-25.9998172946394,0 28.0687292178634,-25.9998471556737,0 28.0686990683952,-25.9998769585596,0 28.0686688290201,-25.999906687817,0 28.0686385168582,-25.9999363575628,0 28.0686081521387,-25.9999659843835,0 28.0685777550906,-25.9999955848656,0 28.068547345943,-26.0000251755957,0 28.0685169449251,-26.0000547731601,0 28.0684865722658,-26.0000843941453,0 28.0684562488498,-26.0001140556973,0 28.0684259997449,-26.0001437790617,0 28.0683957429582,-26.0001734957026,0 28.0683653759203,-26.0002031209211,0 28.0683349050438,-26.0002326587542,0 28.0683048321528,-26.0002627859831,0 28.0682735781872,-26.0002913690312,0 28.0682371986543,-26.0003152833664,0 28.0681962804426,-26.0003319045466,0 28.0681521434669,-26.00033602251,0 28.0681073634285,-26.0003346257899,0 28.0680631728866,-26.0003288757627,0 28.0680210406423,-26.0003154047575,0 28.0679838945604,-26.0002933959356,0 28.0679530907666,-26.0002638432989,0 28.0679291221273,-26.0002297074262,0 28.0679135839718,-26.0001919609041,0 28.0679071607383,-26.0001520328648,0 28.0679033661442,-26.0001119386013,0 28.0678999082136,-26.0000716933562,0 28.067896646544,-26.000031354925,0 28.0678934407328,-25.9999909811034,0 28.0678901503773,-25.9999506296869,0 28.0678866544984,-25.9999103510797,0 28.0678830889312,-25.9998700965414,0 28.0678795121396,-25.9998298438389,0 28.0678759240788,-25.9997895926713,0 28.0678723247041,-25.9997493427376,0 28.0678687139709,-25.9997090937367,0 28.0678651007233,-25.9996688434781,0 28.0678615199862,-25.9996285843568,0 28.0678579569651,-25.999588319573,0 28.0678543902876,-25.9995480537377,0 28.0678507985814,-25.999507791462,0 28.0678471604741,-25.9994675373571,0 28.0678434545935,-25.9994272960339,0 28.0678396595672,-25.9993870721035,0 28.0678357540229,-25.999346870177,0 28.0678316257556,-25.9993066540192,0 28.0678268209149,-25.9992664444184,0 28.0678209002341,-25.9992264665751,0 28.0678120264175,-25.9991869581735,0 28.0678012720976,-25.999147691008,0 28.0677908051713,-25.9991084477548,0 28.0677865947693,-25.9990682358028,0 28.0677820547005,-25.9990280543926,0 28.0677774720963,-25.9989878803132,0 28.0677728538518,-25.9989477123918,0 28.0677682068618,-25.9989075494556,0 28.0677635380212,-25.9988673903317,0 28.0677588542251,-25.9988272338473,0 28.0677541623684,-25.9987870788297,0 28.0677494693459,-25.9987469241059,0 28.0677447820527,-25.9987067685031,0 28.0677401073836,-25.9986666108486,0 28.0677354522337,-25.9986264499694,0 28.0677308363149,-25.9985862824033,0 28.0677263682188,-25.9985460888104,0 28.0677220331731,-25.9985058718875,0 28.0677177839723,-25.9984656401251,0 28.0677135734113,-25.9984254020136,0 28.0677093542846,-25.9983851660433,0 28.0677050793871,-25.9983449407047,0 28.0677007015134,-25.9983047344881,0 28.0676961734582,-25.998264555884,0 28.0676914480163,-25.9982244133828,0 28.0676864779822,-25.9981843154748,0 28.0676812161507,-25.9981442706505,0 28.0676755785616,-25.9981042905914,0 28.0676675128729,-25.9980645527417,0 28.067657036185,-25.9980254577341,0 28.0676353437072,-25.9979902495117,0 28.0676043826529,-25.9979609292927,0 28.067572387876,-25.9979325813593,0 28.0675369203135,-25.9979086083403,0 28.0674986774595,-25.9978873987435,0 28.0674615813808,-25.9978647516811,0 28.0674255455625,-25.9978408675498,0 28.0673898965611,-25.9978165134958,0 28.0673544354219,-25.9977919368387,0 28.0673189643196,-25.9977673832403,0 28.0672834484395,-25.9977428752814,0 28.0672479879601,-25.9977182895193,0 28.0672126442419,-25.9976935698516,0 28.0671774786455,-25.9976686601758,0 28.0671425374273,-25.9976435101851,0 28.0671077819057,-25.9976181138483,0 28.0670732588995,-25.9975924515032,0 28.0670390343863,-25.9975664976416,0 28.067005078056,-25.997540277384,0 28.0669712460365,-25.9975138705426,0 28.0669376094839,-25.9974872393969,0 28.0669042478752,-25.99746034177,0 28.0668712406873,-25.9974331354847,0 28.0668386821386,-25.9974055481304,0 28.0668066993432,-25.9973773532075,0 28.0667751475096,-25.9973487188842,0 28.0667438318475,-25.9973198998747,0 28.066712374641,-25.9972911628634,0 28.0666809768399,-25.9972622965566,0 28.0666505861201,-25.9972327379654,0 28.0666219010239,-25.9972020100065,0 28.0665943270125,-25.997170277624,0 28.066567530285,-25.9971378640026,0 28.0665412539819,-25.9971050776081,0 28.0665152412437,-25.9970722269064,0 28.0664893925156,-25.9970392702848,0 28.0664643446647,-25.9970057966056,0 28.0664407743415,-25.9969715687276,0 28.0664183086517,-25.9969366303049,0 28.0663964881184,-25.996901358887,0 28.0663747494653,-25.9968660544761,0 28.0663531869449,-25.9968305958174,0 28.0663326228833,-25.9967947483717,0 28.0663137920303,-25.9967582753557,0 28.0662963756207,-25.9967211237097,0 28.0662797380514,-25.9966835826933,0 28.0662632989258,-25.9966459710303,0 28.0662468149896,-25.9966084270946,0 28.0662306107702,-25.996570765879,0 28.0662140924596,-25.9965332735895,0 28.0661972391769,-25.996495619665,0 28.0661796500901,-25.9964581769759,0 28.0661597439921,-25.9964226838258,0 28.0661349101093,-25.9963891763581,0 28.0661059928912,-25.9963576420956,0 28.0660752438454,-25.996328769613,0 28.066041153522,-25.9963020304435,0 28.0660046024911,-25.9962791455114,0 28.0659653089984,-25.9962591182596,0 28.065923917773,-25.9962445490618,0 28.0658805991792,-25.9962339378522,0 28.0658363492923,-25.9962280090338,0 28.0657915717406,-25.9962273270463,0 28.065747093758,-25.9962304892493,0 28.0657031194353,-25.9962392123918,0 28.0656609543622,-25.996251522693,0 28.0656206637995,-25.9962698319873,0 28.0655829344314,-25.9962912031436,0 28.065547688645,-25.9963165327319,0 28.0655159723554,-25.9963446712348,0 28.0654870527338,-25.9963758350347,0 28.0654618631803,-25.9964089379906,0 28.0654394913522,-25.9964440881901,0 28.0654190084006,-25.9964797685927,0 28.0653991214923,-25.9965158615122,0 28.0653797204824,-25.9965522768633,0 28.0653607096112,-25.9965889194941,0 28.0653419931188,-25.9966256942529,0 28.0653234752455,-25.9966625059879,0 28.065305019407,-25.9966992685546,0 28.0652863849935,-25.9967360362182,0 28.0652679966174,-25.9967729322824,0 28.0652503992724,-25.9968100738972,0 28.0652341379522,-25.9968475782127,0 28.0652193116763,-25.9968855527452,0 28.0652054006843,-25.9969239352841,0 28.0651921580254,-25.9969625755825,0 28.0651793383275,-25.9970013232534,0 28.0651666948276,-25.9970400389378,0 28.0651540681701,-25.9970787662293,0 28.065141535708,-25.9971175484861,0 28.0651292072399,-25.9971563951584,0 28.0651171925642,-25.9971953156962,0 28.0651056014796,-25.9972343195496,0 28.0650945437846,-25.9972734161687,0 28.0650839619448,-25.9973126330821,0 28.0650737845499,-25.9973519952018,0 28.0650642822408,-25.9973914875136,0 28.065055730331,-25.9974310944763,0 28.0650481475802,-25.9974708471604,0 28.0650412060022,-25.9975107624021,0 28.0650348359987,-25.9975507563932,0 28.065028923949,-25.9975907623729,0 28.0650232405148,-25.9976307970984,0 28.0650177312904,-25.997670859424,0 28.065012358789,-25.9977109438608,0 28.0650070855239,-25.9977510449201,0 28.0650018740082,-25.997791157113,0 28.0649966867552,-25.9978312749506,0 28.064991486278,-25.9978713929442,0 28.0649862350898,-25.9979115056049,0 28.0649808957038,-25.9979516074439,0 28.0649754306332,-25.9979916929724,0 28.0649698023912,-25.9980317567016,0 28.0649639829456,-25.998071796729,0 28.0649579991077,-25.9981118182233,0 28.0649518974123,-25.9981518241261,0 28.0649457244198,-25.9981918173247,0 28.064939542261,-25.9982318094629,0 28.0649334679179,-25.9982718793943,0 28.0649270691985,-25.9983118790787,0 28.0649197688262,-25.9983515992394,0 28.064910525354,-25.998391064567,0 28.064899500416,-25.9984303077772,0 28.0648874843409,-25.9984692543271,0 28.0648746958198,-25.9985078700452,0 28.0648602868308,-25.9985461759573,0 28.0648447452129,-25.9985840787286,0 28.0648283014295,-25.9986215475723,0 28.0648103649439,-25.9986586273994,0 28.064791143969,-25.9986951028742,0 28.064770439537,-25.9987307881267,0 28.0647480538657,-25.9987658155639,0 28.0647250557997,-25.998800454804,0 28.0647019526327,-25.9988351112662,0 28.0646780819093,-25.9988693721447,0 28.0646526921186,-25.9989024069693,0 28.0646249093043,-25.9989338816889,0 28.0645954061468,-25.998964374286,0 28.0645655600492,-25.998994505839,0 28.0645358592878,-25.999024736676,0 28.0645057833039,-25.9990547384179,0 28.0644749704785,-25.999083971524,0 28.0644430763325,-25.9991120160652,0 28.0644100515389,-25.9991392997795,0 28.0643760687484,-25.9991657593109,0 28.064341302912,-25.9991911801525,0 28.0643057663518,-25.9992153760262,0 28.0642689831712,-25.9992384109581,0 28.0642314007581,-25.9992604234816,0 28.0641934147586,-25.999281585359,0 28.0641547605641,-25.9993019690564,0 28.064115525787,-25.9993212631688,0 28.0640756378117,-25.9993394208885,0 28.0640352075614,-25.9993567229829,0 28.063994517169,-25.9993733484967,0 28.0639534938992,-25.9993893812728,0 28.0639122577433,-25.9994049756711,0 28.0638705822761,-25.9994196105768,0 28.0638294458377,-25.9994352743732,0 28.0637894349181,-25.9994532910467,0 28.0637491277934,-25.9994707155086,0 28.0637086653664,-25.9994878362417,0 28.0636681377945,-25.9995048395778,0 28.0636275562287,-25.9995217450667,0 28.06358693182,-25.9995385722583,0 28.0635462757191,-25.9995553407023,0 28.0635055990771,-25.9995720699486,0 28.063464913045,-25.9995887795471,0 28.0634242287736,-25.9996054890475,0 28.0633835574138,-25.9996222179998,0 28.0633428976422,-25.9996389651916,0 28.0633022302612,-25.9996556988782,0 28.0632615544601,-25.9996724172887,0 28.063220869969,-25.9996891195446,0 28.0631801765178,-25.9997058047675,0 28.0631394738366,-25.9997224720789,0 28.0630987616556,-25.9997391206002,0 28.0630580397047,-25.999755749453,0 28.063017307714,-25.9997723577589,0 28.0629765654135,-25.9997889446394,0 28.0629358125334,-25.999805509216,0 28.0628950469883,-25.999822047234,0 28.0628542595715,-25.9998385415553,0 28.0628134527338,-25.9998549972751,0 28.0627726308664,-25.9998714231366,0 28.0627317983606,-25.9998878278831,0 28.0626909596079,-25.9999042202579,0 28.0626501189995,-25.9999206090043,0 28.0626092809267,-25.9999370028655,0 28.0625684497809,-25.9999534105849,0 28.0625276299534,-25.9999698409056,0 28.0624868248006,-25.9999863005495,0 28.0624460171233,-26.0000027560079,0 28.0624052054584,-26.0000192043254,0 28.0623643978694,-26.0000356611296,0 28.0623236024198,-26.0000521420477,0 28.0622828271731,-26.0000686627071,0 28.0622420801929,-26.0000852387352,0 28.0622013695427,-26.0001018857592,0 28.0621607058157,-26.0001186258903,0 28.0621200879715,-26.0001354585771,0 28.0620795042885,-26.0001523602005,0 28.0620389430182,-26.0001693070818,0 28.0619983924122,-26.0001862755418,0 28.0619578407222,-26.0002032419017,0 28.0619172761997,-26.0002201824826,0 28.0618766870963,-26.0002370736054,0 28.0618360616638,-26.0002538915913,0 28.0617953906174,-26.0002706179445,0 28.0617546998831,-26.0002873077015,0 28.0617139971242,-26.0003039762962,0 28.0616732792122,-26.0003206163139,0 28.0616325430186,-26.0003372203402,0 28.0615917854152,-26.0003537809606,0 28.0615510032733,-26.0003702907604,0 28.0615101934646,-26.0003867423254,0 28.0614693528606,-26.0004031282408,0 28.0614284783329,-26.0004194410922,0 28.0613875687026,-26.0004356876484,0 28.0613465198976,-26.0004516570314,0 28.0613051079817,-26.0004668753294,0 28.0612630815419,-26.0004805255278,0 28.0612202374259,-26.0004922404536,0 28.0611766076466,-26.0005009078841,0 28.0611323201724,-26.0005059524618,0 28.0610876592219,-26.0005084054092,0 28.0610430029123,-26.000507237368,0 28.0609984565301,-26.0005038332354,0 28.0609543268028,-26.000497443174,0 28.0609114640886,-26.0004867099369,0 28.0608694347377,-26.0004734135836,0 28.0608278559782,-26.0004582436377,0 28.060786719528,-26.0004418262884,0 28.0607460171047,-26.0004247877246,0 28.0607057437066,-26.0004075232282,0 28.0606658780723,-26.0003894128665,0 28.0606263467225,-26.0003705485989,0 28.0605870720488,-26.0003511462353,0 28.060547976443,-26.0003314215857,0 28.0605089822966,-26.0003115904601,0 28.0604700120016,-26.0002918686684,0 28.0604308202482,-26.0002720012616,0 28.0603988022525,-26.0002443560697,0 28.0603725010702,-26.0002115154195,0 28.0603513957682,-26.0001757898818,0 28.0603354608443,-26.0001378200204,0 28.0603300695856,-26.0000978577769,0 28.0603329299566,-26.0000575113759,0 28.0603452990878,-26.0000188113769,0 28.06036510644,-25.9999826462868,0 28.0603904448576,-25.9999493724015,0 28.0604193282898,-25.9999184755928,0 28.0604541937269,-25.9998931428538,0 28.0604940093093,-25.9998750974471,0 28.0605354269265,-25.9998598189796,0 28.0605776816323,-25.9998470799706,0 28.0606201483806,-25.9998348146104,0 28.0606627857829,-25.9998229076996,0 28.0607055628193,-25.9998112918909,0 28.0607484484696,-25.999799899837,0 28.0607914117137,-25.9997886641904,0 28.0608344215314,-25.9997775176038,0 28.0608774469028,-25.9997663927298,0 28.0609204568076,-25.9997552222211,0 28.0609634202258,-25.9997439387302,0 28.0610063061372,-25.9997324749098,0 28.0610490886224,-25.9997207739128,0 28.0610918135423,-25.9997089303803,0 28.0611345099507,-25.9996970121459,0 28.0611771910234,-25.9996850552539,0 28.0612198699357,-25.9996730957486,0 28.0612625598634,-25.9996611696743,0 28.0613052739818,-25.9996493130754,0 28.0613480146253,-25.9996375268303,0 28.0613907581093,-25.9996257350232,0 28.0614335853268,-25.9996142130005,0 28.061476575477,-25.9996031576846,0 28.0615198793926,-25.9995932606439,0 28.0615636749513,-25.9995850488919,0 28.0616078375366,-25.9995791907346,0 28.0616522363956,-25.9995744479267,0 28.0616966141205,-25.9995697047061,0 28.0617410380299,-25.9995653521375,0 28.0617854909987,-25.9995612173578,0 28.061829969216,-25.9995573352255,0 28.0618744819113,-25.9995538070402,0 28.061919020634,-25.999550517891,0 28.0619635563329,-25.9995471942911,0 28.0620080605471,-25.9995435681808,0 28.0620525347725,-25.9995396501959,0 28.0620969922628,-25.9995355687095,0 28.0621414386785,-25.9995313839673,0 28.0621858796797,-25.9995271562151,0 28.0622303209269,-25.9995229456987,0 28.0622748064457,-25.9995189349284,0 28.0623190828466,-25.9995138174451,0 28.0623630038686,-25.9995062431547,0 28.0624069443099,-25.999498894283,0 28.0624508961841,-25.9994915788924,0 28.062495184439,-25.9994869150742,0 28.0625390158291,-25.9994790198808,0 28.0625815865006,-25.9994674333721,0 28.0626230461838,-25.9994523376371,0 28.0626646389594,-25.9994375967953,0 28.0627062963854,-25.9994229901237,0 28.0627480031068,-25.9994084858396,0 28.0627897437682,-25.9993940521602,0 28.0628315030147,-25.9993796573031,0 28.0628732654911,-25.9993652694854,0 28.0629150158423,-25.9993508569246,0 28.0629567387131,-25.9993363878381,0 28.0629984187484,-25.999321830443,0 28.063040040593,-25.9993071529569,0 28.0630816259138,-25.999292387045,0 28.063123258954,-25.999277675886,0 28.0631649326005,-25.9992630103117,0 28.0632066345184,-25.9992483723124,0 28.0632483523725,-25.9992337438779,0 28.0632900738278,-25.9992191069986,0 28.0633317865493,-25.9992044436643,0 28.063373478202,-25.9991897358653,0 28.0634151364508,-25.9991749655916,0 28.0634567489608,-25.9991601148333,0 28.0634983033969,-25.9991451655804,0 28.063539787424,-25.9991300998231,0 28.0635811887072,-25.9991148995515,0 28.0636224949114,-25.9990995467556,0 28.0636636937016,-25.9990840234255,0 28.0637047727428,-25.9990683115513,0 28.0637457196999,-25.9990523931232,0 28.0637865222379,-25.9990362501311,0 28.0638271123152,-25.9990196452901,0 28.0638671917531,-25.999001673364,0 28.0639067037918,-25.9989827209678,0 28.0639456772044,-25.9989630372056,0 28.0639840664689,-25.9989422395788,0 28.0640216121783,-25.9989204502319,0 28.06405836927,-25.9988974214311,0 28.0640942654642,-25.9988733199666,0 28.0641291370407,-25.9988481097292,0 28.0641628573663,-25.9988215859338,0 28.0641955152391,-25.9987939920724,0 28.064226899612,-25.9987652756327,0 28.0642568819453,-25.9987352235096,0 28.0642837296722,-25.9987031290932,0 28.0643086755495,-25.9986695160052,0 28.0643336188766,-25.9986359553322,0 28.0643586545695,-25.9986023779285,0 28.0643815346168,-25.9985678560242,0 28.0644012271655,-25.9985315904879,0 28.0644194238392,-25.9984946918077,0 28.0644371207556,-25.9984575630833,0 28.0644534875934,-25.9984200062305,0 28.0644685110985,-25.9983819132465,0 28.0644812627277,-25.9983432515789,0 28.0644918762121,-25.9983040181757,0 28.0645008836743,-25.9982643745092,0 28.0645075569609,-25.9982245091568,0 28.0645129941172,-25.9981843385171,0 28.0645150791112,-25.9981440541919,0 28.0645146558992,-25.9981036499474,0 28.0645126379618,-25.9980632964752,0 28.0645085366701,-25.9980230616547,0 28.0645033514758,-25.9979829485589,0 28.0644963501632,-25.997942979519,0 28.064486849475,-25.9979036847881,0 28.0644729802696,-25.9978650971089,0 28.0644561611132,-25.9978278819864,0 28.0644360317853,-25.9977916964112,0 28.0644153963752,-25.9977558258526,0 28.0643941891649,-25.9977202721335,0 28.0643723960078,-25.997685016924,0 28.0643497774941,-25.9976501709184,0 28.0643278588165,-25.9976149996246,0 28.0643067891318,-25.9975792919162,0 28.0642872569053,-25.9975429815269,0 28.0642703762722,-25.9975055435081,0 28.0642584002814,-25.9974668052995,0 28.0642491889763,-25.9974271734751,0 28.0642425199951,-25.9973872472819,0 28.0642372508212,-25.9973470954374,0 28.0642348677332,-25.9973067971073,0 28.0642348044991,-25.9972663886648,0 28.064237040047,-25.9972260414096,0 28.0642421531369,-25.9971859764398,0 28.0642512760393,-25.9971463959472,0 28.0642612340203,-25.9971069779481,0 28.0642761634077,-25.997068974249,0 28.0642944922633,-25.9970321884818,0 28.0643144979841,-25.9969959758087,0 28.0643357006683,-25.9969604947804,0 28.064359066327,-25.9969260122992,0 28.0643839415912,-25.9968925581793,0 28.0644093957854,-25.9968594484901,0 28.0644353088427,-25.996826591976,0 28.0644615894592,-25.9967939382459,0 28.0644881463308,-25.996761436909,0 28.0645148881534,-25.9967290375743,0 28.064541723623,-25.9966966898506,0 28.0645685614354,-25.9966643433471,0 28.0645953102867,-25.9966319476728,0 28.0646218788727,-25.9965994524366,0 28.0646482301879,-25.9965668369399,0 28.0646745448381,-25.9965341999127,0 28.0647008511761,-25.9965015573913,0 28.0647271540402,-25.996468912582,0 28.0647534582689,-25.9964362686909,0 28.0647797687005,-25.9964036289246,0 28.0648060901732,-25.9963709964892,0 28.0648324275254,-25.9963383745911,0 28.0648587855955,-25.9963057664366,0 28.0648851693248,-25.9962731752991,0 28.0649115968329,-25.9962406130249,0 28.0649380679984,-25.9962080794816,0 28.0649645672207,-25.9961755644225,0 28.0649910788988,-25.996143057601,0 28.0650175874318,-25.9961105487705,0 28.065044077219,-25.9960780276842,0 28.0650705326594,-25.9960454840955,0 28.0650969381523,-25.9960129077579,0 28.0651232913961,-25.9959802971328,0 28.0651496299377,-25.9959476767827,0 28.0651759564276,-25.99591504843,0 28.0652022697956,-25.995882411361,0 28.0652285689715,-25.9958497648619,0 28.065254852885,-25.9958171082191,0 28.065281120466,-25.9957844407189,0 28.0653073706441,-25.9957517616476,0 28.0653336023491,-25.9957190702916,0 28.0653598145109,-25.9956863659371,0 28.0653860060591,-25.9956536478704,0 28.0654121759235,-25.9956209153779,0 28.0654383230339,-25.9955881677458,0 28.06546444632,-25.9955554042606,0 28.0654905447117,-25.9955226242084,0 28.0655163909074,-25.9954896614425,0 28.0655421239313,-25.9954566271015,0 28.0655683965148,-25.9954240086326,0 28.0655951853784,-25.9953915021445,0 28.0656229982106,-25.9953598360983,0 28.0656530644251,-25.995330207403,0 28.0656863949674,-25.9953029880587,0 28.0657227966089,-25.9952799718762,0 28.0657616597714,-25.9952597986821,0 28.0658013765703,-25.9952411318386,0 28.0658424319075,-25.9952245770958,0 28.0658852014931,-25.9952144017801,0 28.0659299335123,-25.995211764816,0 28.0659746480856,-25.9952129725467,0 28.0660191858444,-25.9952161440402,0 28.0660632652793,-25.9952227759709,0 28.0661060208879,-25.9952348113111,0 28.0661468965801,-25.9952509282282,0 28.0661856447805,-25.9952712636559,0 28.0662205820087,-25.9952964251928,0 28.0662549985453,-25.9953222140868,0 28.0662868749771,-25.9953505164886,0 28.066314818068,-25.995381574627,0 28.0663417698021,-25.9954135587646,0 28.0663679816465,-25.9954462399923,0 28.066393692507,-25.9954793949678,0 28.066419141289,-25.9955128003486,0 28.0664445668983,-25.9955462327925,0 28.0664702082405,-25.995579468957,0 28.0664962808915,-25.9956123076646,0 28.0665225380732,-25.9956449844987,0 28.0665488293962,-25.9956776375961,0 28.0665751349385,-25.9957102803503,0 28.0666014347783,-25.995742926155,0 28.0666277089936,-25.9957755884037,0 28.0666539376626,-25.9958082804898,0 28.0666801035282,-25.9958410140324,0 28.0667062273633,-25.9958737752913,0 28.0667323212304,-25.9959065562593,0 28.0667583887317,-25.9959393545564,0 28.0667844334691,-25.9959721678021,0 28.0668104590447,-25.996004993616,0 28.0668364690607,-25.996037829618,0 28.066862467119,-25.9960706734276,0 28.0668884568218,-25.9961035226645,0 28.0669144417711,-25.9961363749485,0 28.0669404105434,-25.9961692385793,0 28.0669663241763,-25.9962021412893,0 28.0669921920777,-25.9962350762713,0 28.0670180272057,-25.9962680341898,0 28.0670438425187,-25.996301005709,0 28.0670696509747,-25.9963339814933,0 28.067095465532,-25.9963669522071,0 28.0671212991486,-25.9963999085146,0 28.0671471647828,-25.9964328410801,0 28.0671730753928,-25.9964657405681,0 28.0671990439367,-25.9964985976428,0 28.0672250833726,-25.9965314029686,0 28.0672512066589,-25.9965641472098,0 28.0672774267462,-25.9965968210386,0 28.0673035253918,-25.9966296807212,0 28.0673298481335,-25.9966624253834,0 28.0673572438161,-25.996694220622,0 28.067386573876,-25.996724480989,0 28.0674176380803,-25.9967536179372,0 28.0674493389838,-25.9967821810795,0 28.0674809652207,-25.9968108169961,0 28.0675134359727,-25.9968386490488,0 28.0675479913154,-25.9968638707366,0 28.067584651086,-25.9968871336205,0 28.0676220492886,-25.9969093435791,0 28.067659703864,-25.9969311713812,0 28.0676981138129,-25.9969518731011,0 28.0677375214845,-25.9969706679456,0 28.0677778139611,-25.9969882889198,0 28.0678186239491,-25.9970048643757,0 28.0678597505567,-25.9970205461093,0 28.067901402813,-25.9970353260362,0 28.0679434912264,-25.9970487856857,0 28.0679859819099,-25.997061557794,0 28.068028892154,-25.9970728865315,0 28.0680722693962,-25.9970822749145,0 28.0681161253577,-25.9970906364726,0 28.0681602557092,-25.9970968063542,0 28.0682046264239,-25.9971009792395,0 28.0682492346769,-25.9971042601753,0 28.0682938686388,-25.9971062885186,0 28.0683385713168,-25.9971076406836,0 28.0683832790595,-25.9971081464298,0 28.0684278819778,-25.9971072276288,0 28.0684723917608,-25.997103339251,0 28.068516732579,-25.9970981514069,0 28.0685609214725,-25.9970920022306,0 28.0686048304288,-25.9970844203271,0 28.0686482679133,-25.997075169851,0 28.0686913613156,-25.9970642812236,0 28.0687343789463,-25.9970532688267,0 28.0687772970337,-25.9970416875716,0 28.0688193033883,-25.9970284385619,0 28.0688603055316,-25.9970123565058,0 28.068900584469,-25.9969946028925,0 28.0689402878049,-25.9969761475349,0 28.0689793853063,-25.9969564746531,0 28.0690178187547,-25.9969359519432,0 28.0690556121831,-25.9969143061567,0 28.0690924347896,-25.9968915007113,0 28.0691282077902,-25.996867261561,0 28.0691631470371,-25.9968420826972,0 28.0691975088892,-25.9968161933443,0 28.0692305868825,-25.9967891139319,0 28.0692620322889,-25.9967604188382,0 28.0692925678125,-25.9967309022724,0 28.0693225793265,-25.9967009480574,0 28.069351235384,-25.9966700133998,0 28.0693784925006,-25.996637986466,0 28.069405489858,-25.9966058107102,0 28.0694323466809,-25.9965735346648,0 28.069459042805,-25.9965411448898,0 28.0694855842161,-25.9965086576201,0 28.0695120116156,-25.9964761017912,0 28.0695383756199,-25.9964435025101,0 28.0695646829895,-25.9964108643785,0 28.0695909403274,-25.996378191933,0 28.0696171542367,-25.9963454897097,0 28.0696433313204,-25.996312762245,0 28.0696694781815,-25.9962800140751,0 28.069695601423,-25.9962472497363,0 28.0697217076478,-25.996214473765,0 28.069747803459,-25.9961816906974,0 28.0697738954596,-25.9961489050697,0 28.0697999902526,-25.9961161214184,0 28.069826094441,-25.9960833442796,0 28.0698522146279,-25.9960505781898,0 28.0698783574161,-25.9960178276851,0 28.0699045069171,-25.9959850820525,0 28.0699305809053,-25.9959522855262,0 28.0699566251067,-25.9959194689844,0 28.0699827022383,-25.9958866748185,0 28.0700088750169,-25.9958539454202,0 28.0700352061595,-25.9958213231811,0 28.0700617610201,-25.9957888510518,0 28.0700885444335,-25.995756529277,0 28.070115483538,-25.9957243097092,0 28.0701425027127,-25.9956921426062,0 28.0701695263368,-25.9956599782261,0 28.0701964787893,-25.9956277668266,0 28.0702232844494,-25.9955954586658,0 28.0702498745015,-25.9955630084074,0 28.0702763088181,-25.9955304543777,0 28.0703026373134,-25.9954978292325,0 28.0703288800275,-25.9954651463863,0 28.0703550570009,-25.9954324192532,0 28.0703811882737,-25.9953996612478,0 28.0704072938864,-25.9953668857843,0 28.0704333938792,-25.995334106277,0 28.0704595082925,-25.9953013361404,0 28.0704856571665,-25.9952685887887,0 28.0705118605416,-25.9952358776364,0 28.0705381364397,-25.995203214752,0 28.0705644537897,-25.9951705794598,0 28.0705907932842,-25.9951379588959,0 28.0706171520876,-25.9951053511747,0 28.0706435273644,-25.9950727544102,0 28.0706699162791,-25.9950401667166,0 28.0706963159963,-25.995007586208,0 28.0707227236803,-25.9949750109987,0 28.0707491364957,-25.9949424392027,0 28.0707755516069,-25.9949098689342,0 28.0708019661785,-25.9948772983074,0 28.0708283773749,-25.9948447254364,0 28.0708547823606,-25.9948121484353,0 28.0708811783001,-25.9947795654184,0 28.0709075623579,-25.9947469744998,0 28.0709339316984,-25.9947143737937,0 28.0709602822279,-25.9946817605563,0 28.070986602834,-25.9946491272312,0 28.0710128961312,-25.9946164755671,0 28.0710391678382,-25.9945838094239,0 28.0710654236737,-25.9945511326616,0 28.0710916693563,-25.9945184491401,0 28.0711179106049,-25.9944857627191,0 28.0711441531379,-25.9944530772587,0 28.0711704026741,-25.9944203966187,0 28.0711966649322,-25.994387724659,0 28.0712229456308,-25.9943550652395,0 28.0712492504886,-25.9943224222201,0 28.0712755852242,-25.9942897994607,0 28.0713019555565,-25.9942572008212,0 28.0713283672039,-25.9942246301615,0 28.0713548258852,-25.9941920913415,0 28.0713813372777,-25.9941595881905,0 28.0714078925539,-25.9941271139368,0 28.0714344805309,-25.9940946604897,0 28.071461099376,-25.9940622267622,0 28.0714877472566,-25.994029811667,0 28.0715144223401,-25.9939974141169,0 28.0715411227937,-25.993965033025,0 28.0715678467849,-25.993932667304,0 28.0715945924809,-25.9939003158667,0 28.0716213580492,-25.9938679776261,0 28.0716481416571,-25.993835651495,0 28.0716749414718,-25.9938033363862,0 28.0717017556608,-25.9937710312126,0 28.0717285823914,-25.9937387348871,0 28.071755419831,-25.9937064463225,0 28.0717822661469,-25.9936741644317,0 28.0718091195064,-25.9936418881275,0 28.0718359780768,-25.9936096163227,0 28.0718628400257,-25.9935773479303,0 28.0718897035201,-25.9935450818631,0 28.0719165667277,-25.993512817034,0 28.0719433360285,-25.9934804602588,0 28.0719698790297,-25.9934478727609,0 28.0719964603471,-25.9934153070769,0 28.0720233663821,-25.9933830373889,0 28.0720508835364,-25.9933513378795,0 28.0720795971007,-25.9933203856029,0 28.0721124985992,-25.9932932031202,0 28.0721509108461,-25.9932726995412,0 28.0721939126755,-25.9932614864526,0 28.0722384691523,-25.9932593546651,0 28.0722832817079,-25.9932614461895,0 28.0723250274745,-25.9932740607445,0 28.0723654889829,-25.993291516848,0 28.0724043086368,-25.9933113316028,0 28.0724422341224,-25.9933328206665,0 28.0724801417455,-25.9933542251494,0 28.0725178863477,-25.9933758431664,0 28.0725555375909,-25.9933976002458,0 28.0725932338313,-25.9934192881885,0 28.0726311134252,-25.9934406987953,0 28.0726692647098,-25.9934617025105,0 28.0727075902209,-25.993482454643,0 28.0727460409303,-25.9935030265938,0 28.0727845750302,-25.9935234781665,0 28.0728231507128,-25.9935438691645,0 28.0728617261704,-25.9935642593914,0 28.0729002595953,-25.9935847086507,0 28.0729387091798,-25.9936052767459,0 28.072977295123,-25.9936257621596,0 28.0730129360754,-25.9936499805508,0 28.0730467861369,-25.9936764410814,0 28.0730781789851,-25.9937051015757,0 28.0731057129582,-25.9937368468139,0 28.0731299061926,-25.9937708788588,0 28.0731546054043,-25.9938045967725,0 28.0731758052548,-25.993839989478,0 28.0731948966431,-25.993876584132,0 28.0732142109705,-25.9939130069111,0 28.0732335052143,-25.9939494300849,0 28.0732527536731,-25.993985876465,0 28.0732720129182,-25.9940223165141,0 28.0732912346043,-25.9940587727711,0 28.0733104580832,-25.9940952279679,0 28.0733297852117,-25.9941316349005,0 28.0733492052221,-25.9941680181938,0 28.0733688893201,-25.9942042737753,0 28.0733892018757,-25.9942403140873,0 28.0734115133365,-25.9942751235183,0 28.0734367718012,-25.9943085355861,0 28.0734640700512,-25.9943407937616,0 28.0734927429108,-25.9943714902337,0 28.0735235996051,-25.9944010903845,0 28.0735566799266,-25.9944283129954,0 28.0735922050881,-25.994452336845,0 28.0736303606992,-25.9944739937247,0 28.0736696771169,-25.9944927805544,0 28.0737104674863,-25.9945096063722,0 28.0737520342729,-25.9945244155567,0 28.0737942920216,-25.9945379314032,0 28.073837314932,-25.9945482905977,0 28.0738811231477,-25.9945561740158,0 28.0739251368291,-25.9945636653794,0 28.0739689464682,-25.9945716408712,0 28.074012747477,-25.9945796408935,0 28.0740565434744,-25.9945876565536,0 28.0741003353369,-25.9945956852136,0 28.074144123941,-25.9946037242353,0 28.0741879101634,-25.9946117709808,0 28.0742316948805,-25.9946198228121,0 28.0742754789689,-25.994627877091,0 28.0743192633051,-25.9946359311797,0 28.0743630487658,-25.9946439824399,0 28.074406836951,-25.994652026217,0 28.0744506383127,-25.9946600343537,0 28.0744944188287,-25.9946681057846,0 28.0745382391001,-25.9946761955493,0 28.0745821205369,-25.9946843162405,0 28.0746255998137,-25.9946932971739,0 28.074668352117,-25.9947045722947,0 28.0747104631971,-25.9947184980364,0 28.0747519849868,-25.9947334833893,0 28.0747917918007,-25.9947516500491,0 28.074827805457,-25.9947755584151,0 28.0748579731642,-25.9948052510897,0 28.0748806885264,-25.9948401939013,0 28.074894750121,-25.9948781211309,0 28.0748974308345,-25.9949186206496,0 28.0748947216244,-25.9949588216284,0 28.0748782365464,-25.9949963196689,0 28.0748518228944,-25.9950291431629,0 28.0748204636561,-25.9950575327566,0 28.0747859658525,-25.9950829423122,0 28.0747500436673,-25.9951072858046,0 28.0747138774885,-25.9951314170835,0 28.0746784243488,-25.9951560517212,0 28.0746432194979,-25.9951809518923,0 28.0746080683083,-25.9952059414569,0 28.0745728944841,-25.9952309109846,0 28.0745376217293,-25.9952557510447,0 28.0745021737479,-25.9952803522068,0 28.0744664742441,-25.9953046050402,0 28.0744304469218,-25.9953284001145,0 28.0743939805883,-25.9953516104109,0 28.0743569827139,-25.995374197947,0 28.0743196037463,-25.9953963416428,0 28.0742820106048,-25.9954182325941,0 28.0742443702088,-25.9954400618964,0 28.0742068494776,-25.9954620206454,0 28.0741694580184,-25.9954841249085,0 28.0741320709918,-25.9955062371239,0 28.0740946856477,-25.9955283533057,0 28.0740572994526,-25.9955504697074,0 28.0740199098735,-25.9955725825828,0 28.0739825143771,-25.9955946881856,0 28.0739451104301,-25.9956167827694,0 28.0739076954993,-25.995638862588,0 28.0738702670515,-25.9956609238951,0 28.0738328225534,-25.9956829629443,0 28.0737953594719,-25.9957049759894,0 28.0737578752736,-25.995726959284,0 28.0737203674253,-25.995748909082,0 28.0736828333938,-25.9957708216368,0 28.0736452706459,-25.9957926932024,0 28.0736076766482,-25.9958145200323,0 28.0735700481601,-25.9958362973907,0 28.0735322529952,-25.9958578402468,0 28.0734943168111,-25.995879184395,0 28.0734564166733,-25.9959005773821,0 28.0734187292048,-25.9959222661404,0 28.0733812357595,-25.9959442260174,0 28.0733438230947,-25.9959662997869,0 28.0733064799224,-25.9959884715945,0 28.0732691949547,-25.9960107255856,0 28.0732319569035,-25.9960330459056,0 28.073194754481,-25.9960554166999,0 28.073157576399,-25.996077822114,0 28.0731204113697,-25.9961002462933,0 28.073083248105,-25.9961226733832,0 28.0730460753171,-25.9961450875292,0 28.0730088817178,-25.9961674728768,0 28.0729716560192,-25.9961898135713,0 28.0729343869334,-25.9962120937582,0 28.0728970303796,-25.9962342539035,0 28.0728595985561,-25.9962563110489,0 28.0728223138183,-25.9962785638359,0 28.0727853371111,-25.9963012341037,0 28.0727485506491,-25.9963241653558,0 28.0727117683278,-25.9963471010438,0 28.0726748040434,-25.9963697846188,0 28.0726375813884,-25.9963921122148,0 28.0726002677614,-25.9964143177637,0 28.0725628809496,-25.9964364255654,0 28.072525430581,-25.9964584485364,0 28.0724879262834,-25.9964803995934,0 28.0724503776845,-25.9965022916527,0 28.0724127944123,-25.9965241376311,0 28.0723751860945,-25.9965459504449,0 28.0723375623591,-25.9965677430108,0 28.0722999328338,-25.9965895282453,0 28.0722623071464,-25.9966113190649,0 28.0722246949249,-25.9966331283861,0 28.072187105797,-25.9966549691256,0 28.0721495493905,-25.9966768541998,0 28.0721120353334,-25.9966987965253,0 28.0720745612916,-25.9967207941024,0 28.072037090873,-25.9967428012368,0 28.0719996426568,-25.9967648391564,0 28.0719622418524,-25.9967869372714,0 28.0719249136692,-25.9968091249916,0 28.0718875708349,-25.9968313207806,0 28.0718500666159,-25.9968533825073,0 28.0718125774832,-25.996875485089,0 28.0717752913791,-25.9968978147244,0 28.0717383962456,-25.9969205576124,0 28.0717020800248,-25.9969438999518,0 28.071666561674,-25.9969682961684,0 28.0716319399519,-25.9969939502268,0 28.0715981484511,-25.9970203235065,0 28.0715648042957,-25.9970471590692,0 28.0715318050778,-25.9970744569755,0 28.0714992267121,-25.9971021960161,0 28.0714671451133,-25.9971303549818,0 28.0714356358435,-25.997158912668,0 28.0714046113727,-25.9971878445839,0 28.0713739255958,-25.997217107392,0 28.0713435277809,-25.9972466520844,0 28.0713133671958,-25.9972764296531,0 28.0712833931087,-25.9973063910903,0 28.0712535547875,-25.9973364873882,0 28.0712238015002,-25.9973666695388,0 28.0711940825149,-25.9973968885343,0 28.0711643470994,-25.9974270953669,0 28.0711345445219,-25.9974572410286,0 28.0711046240503,-25.9974872765116,0 28.0710745349527,-25.9975171528081,0 28.071044279429,-25.9975468736524,0 28.0710139545976,-25.9975765352158,0 28.0709835794192,-25.9976061539612,0 28.0709531696764,-25.9976357431553,0 28.0709227411515,-25.9976653160651,0 28.0708923096268,-25.9976948859574,0 28.0708618908848,-25.9977244660989,0 28.0708315007077,-25.9977540697565,0 28.070801154878,-25.997783710197,0 28.070770869178,-25.9978134006872,0 28.0707406556192,-25.9978431513411,0 28.0707104930966,-25.9978729445654,0 28.0706803708009,-25.9979027713392,0 28.070650283065,-25.9979326269386,0 28.0706202242221,-25.9979625066393,0 28.0705901886054,-25.9979924057172,0 28.0705601705479,-25.9980223194482,0 28.0705301643828,-25.9980522431079,0 28.0705001644431,-25.9980821719724,0 28.070470165062,-25.9981121013175,0 28.0704401605726,-25.9981420264189,0 28.0704101453079,-25.9981719425526,0 28.0703801136011,-25.9982018449943,0 28.0703500634873,-25.9982317321018,0 28.0703200144189,-25.9982616200669,0 28.0702899690162,-25.9982915110759,0 28.0702599259416,-25.9983214040212,0 28.0702298838577,-25.9983512977949,0 28.0701998414269,-25.9983811912892,0 28.0701697973117,-25.9984110833963,0 28.0701397501744,-25.9984409730084,0 28.0701096986777,-25.9984708590177,0 28.0700796414839,-25.9985007403164,0 28.0700495772556,-25.9985306157967,0 28.0700195046551,-25.9985604843508,0 28.069989422345,-25.9985903448708,0 28.0699593289877,-25.9986201962491,0 28.0699292186072,-25.9986500336449,0 28.0698990743335,-25.998679843316,0 28.069868895,-25.998709624,0</coordinates>
      </LineString>
    </Placemark>
  </Document>
</kml>