<?xml version="1.0" encoding="utf-8"?>
<kml xmlns="http://www.opengis.net/kml/2.2">
  <Document>
    <name>Kyalami_OuterLimits</name>
    <Placemark>
      <Snippet maxLines="0"> </Snippet>
      <description> </description>
      <name>Kyalami_OuterLimits</name>
      <Style>
        <LineStyle>
          <width>2</width>
          <color>ff000000</color>
        </LineStyle>
      </Style>
      <LineString>
        <altitudeMode>clampToGround</altitudeMode>
        <coordinates> 28.069968999,-25.998797725,1467.1380106526 28.0699385878199,-25.9988283849945,1467.23328169267 28.0699081901064,-25.9988590561277,1467.39046923821 28.0698779035822,-25.9988898192425,1467.47354091008 28.0698475075853,-25.9989204909931,1467.60426318483 28.0698166866973,-25.9989508115201,1467.73182072731 28.0697855037561,-25.9989808361143,1467.82488943768 28.069754538258,-25.9990110378225,1467.94971631542 28.0697241433349,-25.9990417075672,1468.04218980821 28.069693988035,-25.9990725762649,1468.14906266006 28.0696636603765,-25.9991033047707,1468.22747530432 28.0696331236286,-25.9991338626007,1468.31285743821 28.0696025033048,-25.9991643524135,1468.45532420901 28.0695718622776,-25.9991948252615,1468.37802760353 28.0695412402849,-25.9992253134352,1468.38799625165 28.0695106062389,-25.9992557917669,1468.32326208547 28.0694799630241,-25.9992862626247,1468.30486581633 28.0694493168592,-25.9993167310803,1468.26871985332 28.0694186739628,-25.9993472022055,1468.22179665547 28.0693880538719,-25.9993776921857,1468.2139949004 28.0693574474848,-25.9994081935313,1468.13646198647 28.0693268171821,-25.9994386750691,1468.15748915538 28.0692961253435,-25.9994691056256,1468.08214627765 28.0692653228123,-25.9994994448447,1468.06334758162 28.0692344266781,-25.9995297070654,1468.03039888967 28.0692035178451,-25.9995599587155,1467.97212140332 28.0691726775581,-25.9995902664992,1467.97592549988 28.069141971187,-25.9996206842353,1467.82582446305 28.0691113571468,-25.9996511784446,1467.66919490164 28.0690808036963,-25.9996817229414,1467.5123070452 28.0690502868233,-25.9997122977707,1467.45526338958 28.0690197825158,-25.9997428829776,1467.29816129425 28.0689892667617,-25.9997734586073,1467.17114809783 28.068958727814,-25.9998040149,1467.08416508291 28.0689281914479,-25.9998345732904,1466.92906079253 28.0688976589968,-25.9998651349017,1466.87023010072 28.0688671292785,-25.9998956987658,1466.78693983893 28.0688366011107,-25.9999262639148,1466.66587090326 28.0688060733113,-25.9999568293808,1466.59924813385 28.0687755679259,-25.9999874138175,1466.52367576113 28.0687451206517,-26.0000180473775,1466.27201729968 28.0687147037952,-26.000048706635,1465.98199750812 28.0686842874905,-26.0000793663289,1465.6993902273 28.068653841872,-26.000110001198,1465.36340481747 28.0686233370739,-26.0001405859811,1465.06621151005 28.0685927432304,-26.000171095417,1464.79376095098 28.0685620304759,-26.0002015042446,1464.46078920857 28.0685311318136,-26.0002317571372,1464.17422428307 28.0684998997573,-26.0002617356707,1463.90268888185 28.0684685745992,-26.0002916387397,1463.65907607296 28.0684374430993,-26.0003217030492,1463.34814384549 28.0684065282266,-26.0003519488899,1463.10927284476 28.0683758241615,-26.0003823856578,1462.78407505984 28.0683448109866,-26.0004125492255,1462.51698366108 28.068311524785,-26.0004406486377,1462.08137158877 28.0682736498187,-26.0004636755594,1461.64896821362 28.0682323042701,-26.0004808425309,1461.27940657142 28.0681894997639,-26.00049488314,1460.99323211673 28.068144804669,-26.0005028810134,1460.67994911678 28.0680993970339,-26.0005063281945,1460.40973278873 28.0680539870999,-26.0005036760107,1460.20215714905 28.0680096416994,-26.0004942941135,1460.06922292204 28.0679662161136,-26.0004816410262,1459.9746488828 28.0679264184424,-26.0004617687074,1459.96731038902 28.0678886928933,-26.0004387144261,1459.91474336763 28.0678567862347,-26.0004094158721,1459.97614358947 28.067833407919,-26.0003738797281,1460.13522229346 28.0678199704064,-26.0003347096074,1460.32779289951 28.0678061469789,-26.0002952034005,1460.50092393426 28.0677977700875,-26.000255069883,1460.76374738296 28.0677942212132,-26.0002138960663,1460.97474664724 28.067790803451,-26.0001728536866,1461.26985435899 28.0677874775438,-26.0001317988991,1461.46581228399 28.0677842195075,-26.000090734326,1461.75092419982 28.0677810053579,-26.0000496625897,1462.03695315569 28.0677778111109,-26.0000085863123,1462.25314962864 28.0677746127823,-25.9999675081161,1462.36494556516 28.0677713863878,-25.9999264306235,1462.43991923556 28.0677681079435,-25.9998853564567,1462.51448916772 28.067764753465,-25.9998442882379,1462.58846932242 28.0677612989683,-25.9998032285894,1462.66167366053 28.0677577205268,-25.9997621801261,1462.73391659047 28.0677540295966,-25.9997211411421,1462.80528697357 28.0677502561849,-25.9996801082706,1462.87601756792 28.0677464113567,-25.9996390807223,1462.94619420312 28.0677425061772,-25.9995980577082,1463.01590270872 28.0677385517116,-25.9995570384389,1463.08522929632 28.0677345590251,-25.9995160221251,1463.15425983241 28.0677305391828,-25.9994750079778,1463.19715658481 28.0677265032498,-25.9994339952075,1463.27650846671 28.0677224622913,-25.9993929830252,1463.35581834832 28.0677184273725,-25.9993519706415,1463.3782210539 28.0677144095585,-25.9993109572672,1463.44733328259 28.0677104118429,-25.9992699416548,1463.51666004077 28.0677064250997,-25.9992289235346,1463.58611315653 28.0677024435436,-25.9991879037599,1463.6539102272 28.0676984613984,-25.9991468831854,1463.73372245575 28.0676944728879,-25.9991058626656,1463.91348405984 28.0676904722359,-25.9990648430549,1464.09314473575 28.0676864536663,-25.9990238252079,1464.27265737377 28.0676824114029,-25.998982809979,1464.44977430708 28.0676783396695,-25.9989417982229,1464.57044414001 28.0676742326899,-25.9989007907941,1464.70982027238 28.0676700846879,-25.998859788547,1464.88824883455 28.0676658898873,-25.9988187923363,1465.06628339673 28.067661642512,-25.9987778030163,1465.24387447389 28.0676573367857,-25.9987368214417,1465.40607129312 28.0676529681656,-25.9986958477527,1465.57134563046 28.0676485468112,-25.9986548737651,1465.67370975136 28.0676440711457,-25.9986138984997,1465.84945729007 28.0676395345114,-25.9985729239682,1466.02472814044 28.0676349302508,-25.9985319521821,1466.19946546468 28.0676302517061,-25.998490985153,1466.37359701607 28.0676254922198,-25.9984500248927,1466.4498227564 28.0676206451342,-25.9984090734127,1466.61981107142 28.0676157037917,-25.9983681327247,1466.79176986014 28.0676106615346,-25.9983272048402,1466.96288527274 28.0676055117054,-25.998286291771,1467.05329036961 28.0676002476464,-25.9982453955286,1467.13979887865 28.0675948626999,-25.9982045181246,1467.27050530002 28.0675893502084,-25.9981636615708,1467.33760229627 28.067583221235,-25.9981228798425,1467.39953733196 28.0675765689753,-25.9980824368923,1467.52879469912 28.0675504960431,-25.998048136034,1467.42961471973 28.0675153800995,-25.9980221279461,1467.25417390231 28.0674789961551,-25.9979974288281,1467.11147943439 28.0674423295978,-25.9979730279858,1467.04720360581 28.0674054469564,-25.9979488537988,1466.88065350261 28.0673684147595,-25.9979248346468,1466.81253009898 28.0673312995357,-25.9979008989093,1466.74354591954 28.0672941678138,-25.9978769749659,1466.67441666478 28.0672570861224,-25.9978529911962,1466.65562645239 28.0672201209902,-25.9978288759798,1466.63857005472 28.0671833389459,-25.9978045576962,1466.57327382238 28.0671468065181,-25.9977799647252,1466.59117042783 28.0671105902355,-25.9977550254462,1466.58004921706 28.0670747749146,-25.9977296213389,1466.61793119668 28.0670393749384,-25.9977036979918,1466.64688348501 28.0670042862431,-25.9976774033542,1466.70388995108 28.0669694020332,-25.9976508906754,1466.74987521566 28.0669346167524,-25.9976243095662,1466.79646774641 28.0668999240613,-25.9975976124321,1466.86101616283 28.0668654319859,-25.9975706840186,1466.98606076014 28.0668312452628,-25.9975434649889,1467.04444937655 28.0667974125711,-25.997515916131,1467.19847456786 28.0667638292701,-25.9974880393862,1467.33476345827 28.066730770691,-25.9974596799763,1467.44061858263 28.0666985524007,-25.9974306479624,1467.58083491601 28.0666671922705,-25.9974007764491,1467.75318380527 28.0666364181947,-25.997370364449,1467.88435744536 28.0666059801665,-25.9973397395814,1468.05009443958 28.0665759494258,-25.9973087575644,1468.20079837484 28.0665464193744,-25.99727740638,1468.43643018739 28.0665171668135,-25.9972458118029,1468.5853601413 28.0664883716555,-25.9972138628807,1468.78821264238 28.0664605874221,-25.9971812988068,1468.95547379537 28.0664337202055,-25.9971480520075,1469.14762956347 28.0664075757565,-25.9971142676436,1469.35333751875 28.0663821717683,-25.997080082962,1469.53882518507 28.0663577840326,-25.9970453477588,1469.67882052787 28.066334177919,-25.9970100996366,1469.89883331749 28.0663107283554,-25.9969747955761,1470.11615689267 28.0662868138411,-25.9969397537762,1470.23769877585 28.0662623478229,-25.9969050162514,1470.452865224 28.0662374496468,-25.9968705348449,1470.65168295802 28.0662126082321,-25.9968360188686,1470.77865885085 28.0661886713113,-25.9968009798002,1470.99674288713 28.0661644068969,-25.9967661374318,1471.1129730684 28.0661390195656,-25.9967319476591,1471.3229450366 28.0661133989645,-25.99669789277,1471.47006287539 28.0660884318479,-25.9966634606167,1471.65922259978 28.0660638663807,-25.9966287888667,1471.85849616929 28.0660395424301,-25.9965939709494,1472.14666507738 28.0660153895,-25.9965590500507,1472.44296086476 28.0659917528069,-25.9965237691537,1472.64427879284 28.0659684971817,-25.9964882744054,1472.94877781513 28.0659427095727,-25.9964544330028,1473.2297470345 28.0659093522106,-25.9964265369235,1473.43007024903 28.0658716335875,-25.9964035658096,1473.56852363274 28.0658292168815,-25.9963883807231,1473.73960540046 28.0657843274245,-25.9963816540445,1474.04083519233 28.0657388427066,-25.9963825605966,1474.2667287562 28.0656953451944,-25.996394369273,1474.37034361074 28.0656551143394,-25.9964126775552,1474.39030714253 28.0656224344753,-25.9964420409168,1474.31025083474 28.0655934187268,-25.9964738376737,1474.18105547459 28.0655686806112,-25.9965081830989,1473.95615617852 28.0655469176525,-25.996544276612,1473.69791671928 28.0655261511024,-25.9965811390334,1473.32661821306 28.0655050608645,-25.9966177174058,1473.05991243227 28.0654834798118,-25.9966540055694,1472.79872982813 28.0654622950715,-25.9966904632519,1472.6571539171 28.0654422354143,-25.9967273881189,1472.57122542061 28.065422827303,-25.9967646434007,1472.48023081526 28.065403914018,-25.9968021386929,1472.38543778467 28.0653854917087,-25.9968398296582,1472.28710536572 28.0653675565246,-25.9968776719594,1472.28547668901 28.0653500639341,-25.996915657344,1472.18082441824 28.0653330100345,-25.9969538748037,1472.07271290814 28.0653166487293,-25.9969923306933,1472.00055282891 28.0653012287174,-25.9970310267804,1471.9407727296 28.0652865613347,-25.9970699946869,1471.81646462175 28.0652724650137,-25.9971091806998,1471.76917276203 28.0652588672139,-25.9971485032263,1471.6564236865 28.0652456869187,-25.9971878957568,1471.57256739604 28.0652328588933,-25.9972274125466,1471.48560436696 28.0652204893184,-25.9972670584619,1471.36140864618 28.0652087012744,-25.9973068192447,1471.30266280475 28.0651973571231,-25.997346707538,1471.23172744918 28.0651866291186,-25.9973867405991,1471.10930995298 28.0651768404615,-25.9974269271211,1471.05049237774 28.0651676818191,-25.9974672726297,1470.94263323014 28.0651591538729,-25.9975077397552,1470.80092649704 28.0651513970438,-25.9975482931551,1470.68234575758 28.0651444101655,-25.9975889897506,1470.59795248658 28.0651380124766,-25.9976297512441,1470.43821161064 28.06513184305,-25.9976705374071,1470.37657345046 28.0651258080019,-25.9977113467557,1470.21377386003 28.0651198782309,-25.9977521735557,1470.10243840178 28.0651140246357,-25.9977930120729,1469.98570599242 28.0651082181147,-25.9978338565734,1469.82671042282 28.0651024295665,-25.9978747013228,1469.75605815416 28.0650966422309,-25.9979155427693,1469.62685837178 28.0650909430936,-25.9979563961516,1469.52553728917 28.0650853282263,-25.9979972614745,1469.4241258347 28.065079764237,-25.998038133617,1469.29240889193 28.0650742177336,-25.998079007458,1469.21915358847 28.0650686553241,-25.9981198778763,1469.06675476635 28.0650630436162,-25.9981607397507,1468.99234877245 28.0650573492181,-25.9982015879601,1468.86398482393 28.0650515387374,-25.9982424173833,1468.81436213434 28.0650455747825,-25.9982832254117,1468.66643657757 28.0650391770361,-25.9983240144423,1468.62309489909 28.0650316785313,-25.9983645948242,1468.3922042739 28.0650221923139,-25.9984048944491,1468.15392230944 28.0650109090383,-25.9984447645344,1467.96104261013 28.0649982519086,-25.9984843403928,1467.72285585166 28.0649853504461,-25.9985238668583,1467.48934135461 28.0649715039485,-25.9985631268441,1467.29342442621 28.0649557192447,-25.9986016143916,1467.0603160503 28.0649377425235,-25.9986394595905,1466.90536998517 28.0649187879267,-25.9986769934485,1466.7326040127 28.0649000493133,-25.9987145400881,1466.59224439465 28.0648812569302,-25.9987521272361,1466.45188403888 28.064861464581,-25.9987891896117,1466.22795362028 28.0648394712453,-25.9988251360279,1466.12598737507 28.0648154709282,-25.9988602151562,1466.0517929854 28.0647914588891,-25.9988952339068,1465.95103250042 28.0647666868227,-25.9989297832099,1465.84096876077 28.0647403820819,-25.9989633948908,1465.77427731408 28.0647126376035,-25.9989960948271,1465.75356271906 28.0646831923072,-25.9990274376931,1465.75998495676 28.064652509409,-25.9990579411425,1465.78462428001 28.0646217723162,-25.9990883348544,1465.81081127092 28.064590705731,-25.9991184549415,1465.83689258904 28.0645594446088,-25.999148444115,1465.84997055445 28.0645259960365,-25.9991763246824,1465.94157607564 28.0644923227836,-25.9992040961572,1466.06012643712 28.0644590448257,-25.9992321168547,1466.25854500885 28.0644230922528,-25.9992574814376,1466.42290991355 28.0643865102009,-25.9992820311459,1466.68056951392 28.0643490777301,-25.9993054892788,1466.95042878885 28.0643104632702,-25.9993273475931,1467.23767128955 28.0642720497928,-25.9993495250595,1467.52171664724 28.064233556613,-25.999371511596,1467.86891834409 28.0641936593829,-25.9993914162361,1468.18498034024 28.0641538294265,-25.99941142021,1468.59347233252 28.064113918021,-25.9994310165277,1468.90627187721 28.0640715535351,-25.9994462588878,1469.36612658424 28.0640302431224,-25.9994636243349,1469.76452513877 28.0639880544761,-25.9994790280899,1470.15509857842 28.0639478647914,-25.9994984865602,1470.49578990631 28.0639068190855,-25.9995163480891,1470.87645681128 28.0638653688538,-25.9995334336077,1471.25075589836 28.0638238676051,-25.9995504224402,1471.60598866956 28.0637823317571,-25.9995673467587,1471.97771826561 28.06374077948,-25.9995842409919,1472.31091673565 28.063699228944,-25.9996011395689,1472.66691571154 28.0636576983192,-25.9996180769186,1473.03761685496 28.0636162022158,-25.999635080785,1473.40890106223 28.0635747267528,-25.9996521251548,1473.67631285955 28.0635332646704,-25.9996691960249,1473.98810230009 28.0634918122125,-25.9996862859385,1474.32902842207 28.063450365623,-25.9997033874385,1474.66984158598 28.0634089211459,-25.9997204930683,1474.91124454817 28.063367475025,-25.9997375953709,1475.25139446128 28.0633260235043,-25.9997546868894,1475.59230872444 28.0632845628278,-25.999771760167,1475.93340300297 28.0632430892393,-25.9997888077467,1476.30288848465 28.0632015989829,-25.9998058221718,1476.6518739802 28.0631600881017,-25.9998227955635,1477.05860660433 28.0631185540295,-25.9998397226552,1477.45133171371 28.0630770004641,-25.9998566107968,1477.84422260274 28.0630354319062,-25.9998734689757,1478.252574384 28.0629938528565,-25.9998903061795,1478.63107882882 28.0629522678157,-25.9999071313957,1479.05478664693 28.0629106812843,-25.999923953612,1479.41842790473 28.0628690977631,-25.9999407818157,1479.85714508824 28.0628275217526,-25.9999576249945,1480.30551679953 28.0627859577535,-25.9999744921359,1480.65880422154 28.0627444102665,-25.9999913922274,1481.10910979688 28.0627028837921,-26.0000083342566,1481.46878938654 28.062661382774,-26.000025327112,1481.90816284602 28.0626199073738,-26.000042371174,1482.25679986007 28.0625784526561,-26.0000594565799,1482.60495988592 28.0625370134468,-26.0000765729835,1482.9527523732 28.062495584572,-26.0000937100384,1483.23566445325 28.0624541608576,-26.0001108573982,1483.41189203282 28.0624127371297,-26.0001280047165,1483.56515616261 28.0623713082142,-26.0001451416469,1483.71045322565 28.062329868937,-26.0001622578431,1483.85604541742 28.0622884141242,-26.0001793429588,1484.00561263629 28.0622469386118,-26.0001963866678,1484.148709621 28.0622054434015,-26.0002133911791,1484.31444060233 28.0621639340076,-26.0002303676482,1484.44921966758 28.0621224132349,-26.0002473216255,1484.66568662453 28.0620808838885,-26.0002642586613,1484.81932764697 28.0620393487734,-26.0002811843059,1484.95456556223 28.0619978106946,-26.0002981041096,1485.08985498415 28.0619562724573,-26.0003150236227,1485.28457207359 28.0619147368663,-26.0003319483956,1485.43287823236 28.0618732067268,-26.0003488839785,1485.58103186747 28.0618316895041,-26.0003658457989,1485.730442184 28.0617901973315,-26.0003828595416,1485.87587836838 28.0617487227496,-26.000399909771,1486.03056348628 28.0617072570132,-26.0004169783395,1486.16964356316 28.0616657913769,-26.0004340470994,1486.38582380989 28.0616243170954,-26.0004510979031,1486.78860600605 28.0615828254232,-26.0004681126029,1487.25020798531 28.0615413076151,-26.0004850730511,1487.71271270062 28.0614997549257,-26.0005019611,1488.17640184704 28.0614581586096,-26.0005187586021,1488.67176331614 28.0614165099215,-26.0005354474096,1489.13214858111 28.0613747823734,-26.0005520076005,1489.69441134775 28.0613324538804,-26.0005672393211,1490.17283211789 28.0612892676355,-26.0005803801566,1490.77529320523 28.061245130726,-26.0005904215413,1491.40843160023 28.0612002144278,-26.0005975130113,1492.05873981764 28.0611550130755,-26.0006025189601,1492.64430362404 28.0611095567414,-26.0006056324523,1493.33349136789 28.0610640646305,-26.0006073091162,1494.03060286891 28.0610185987429,-26.0006043463331,1494.75114983678 28.0609733046421,-26.000599899583,1495.47664487019 28.0609284028936,-26.0005928633704,1496.10936609811 28.0608840550596,-26.0005834185734,1496.84585026606 28.0608401133941,-26.0005723320577,1497.50224252061 28.0607975109549,-26.0005581802036,1497.95379717993 28.0607557790499,-26.0005413887787,1498.33665692902 28.0607145455951,-26.0005238303725,1498.69732706218 28.0606735376123,-26.00050595329,1499.09414403291 28.0606327091635,-26.0004876468462,1499.50486052884 28.0605920544711,-26.0004689721377,1499.8474443758 28.0605515677572,-26.0004499902614,1500.24864382222 28.0605112432442,-26.0004307623139,1500.63921162952 28.0604710751542,-26.0004113493921,1501.0504899676 28.0604310720279,-26.0003916663647,1501.46187545329 28.0603921034347,-26.0003703625387,1501.87356927139 28.060355815845,-26.0003455495457,1502.28248460145 28.0603231706905,-26.00031675534,1502.68360101751 28.0602946127053,-26.000284641619,1503.07006436541 28.0602678722446,-26.0002513199176,1503.44863439604 28.0602457522101,-26.000215386638,1503.7826358282 28.0602325335725,-26.000175896764,1504.02217969456 28.0602239003334,-26.0001354466583,1504.28487950173 28.0602208772614,-26.00009437549,1504.46870140233 28.06022293051,-26.0000532310668,1504.6474660252 28.0602299699748,-26.0000125993802,1504.78158165416 28.0602435161535,-25.9999733032813,1504.99481935701 28.0602635383321,-25.9999362845435,1505.30995765285 28.060287189479,-25.9999011243918,1505.53901305195 28.0603162465574,-25.9998694500612,1505.62656888526 28.0603482344288,-25.999840172378,1505.64844450253 28.0603840865083,-25.9998147039105,1505.6483617859 28.0604223293739,-25.9997922946553,1505.57397717635 28.0604643106832,-25.9997767253205,1505.3240758202 28.0605080238455,-25.9997649249972,1505.05407697346 28.0605516171202,-25.9997529494783,1504.7410453384 28.0605952069176,-25.9997409666074,1504.51333197547 28.0606387967069,-25.9997289848796,1504.18560741953 28.0606823899577,-25.9997170127901,1503.88879784915 28.0607259928054,-25.9997050667044,1503.62952156246 28.060769617645,-25.999693182803,1503.30042719192 28.060813254542,-25.9996813333754,1503.07085772552 28.060856890504,-25.9996694818225,1502.63904578993 28.0609005125387,-25.9996575915452,1502.29726420242 28.0609441076537,-25.9996456259445,1501.85660080902 28.0609876628567,-25.9996335484215,1501.51759738206 28.0610311559704,-25.9996212910228,1501.08124694419 28.0610745647984,-25.9996087765978,1500.64862721235 28.0611179229009,-25.999596107679,1500.31825641292 28.0611612676159,-25.9995833992763,1499.8884527511 28.0612046362814,-25.9995707664,1499.45757375011 28.0612480662357,-25.9995583240601,1499.0239447277 28.0612915948167,-25.9995461872668,1498.58589337398 28.0613352489932,-25.9995344101627,1498.14253483387 28.0613790158803,-25.9995229451281,1497.69450756029 28.0614228737747,-25.9995117738088,1497.2422912066 28.0614667945457,-25.9995007739125,1496.7874907906 28.0615110439048,-25.9994910933366,1496.3148970368 28.0615559035109,-25.9994836938628,1495.81098254427 28.0616010211473,-25.9994781572026,1495.22668442685 28.0616462963234,-25.9994734009869,1494.66581566686 28.0616915379048,-25.9994685126268,1494.17376898122 28.0617368065774,-25.9994638544752,1493.75344536108 28.0617821077835,-25.9994594589283,1493.33008194731 28.061827423952,-25.9994551633253,1492.91716288687 28.0618727548045,-25.9994509891373,1492.48216257522 28.0619181000622,-25.9994469578357,1492.03389792618 28.0619634594466,-25.9994430908919,1491.5846503378 28.0620088471139,-25.9994395280229,1491.13354005853 28.0620542676901,-25.9994362598222,1490.6805822572 28.0620996434612,-25.999432538792,1490.23040538802 28.0621449868491,-25.9994285054984,1489.78217766922 28.0621902908866,-25.999424137097,1489.33607300109 28.0622355806682,-25.9994196324631,1488.89081547198 28.0622809022509,-25.9994153588715,1488.44404752545 28.0623262282157,-25.9994111646191,1487.98854366369 28.0623715339366,-25.9994064808425,1487.52917104398 28.0624160507605,-25.9993982432313,1487.09192162146 28.0624605708809,-25.9993894809597,1486.65667586472 28.0625050349386,-25.9993806721775,1486.22220177232 28.0625491230305,-25.9993701917285,1485.79818553025 28.0625926178103,-25.9993580822056,1485.38675271519 28.0626355508615,-25.9993441977947,1484.98813692351 28.0626782099715,-25.9993298012937,1484.6167559127 28.062720751393,-25.9993151049483,1484.25044955018 28.06276319383,-25.999300156244,1483.87564878386 28.062805555986,-25.9992850026663,1483.52816903993 28.0628478565648,-25.9992696917007,1483.20005104022 28.0628901142702,-25.9992542708326,1482.87088893617 28.0629323478059,-25.9992387875476,1482.5136278292 28.0629745758757,-25.9992232893312,1482.15650375952 28.0630168171832,-25.9992078236688,1481.79907883771 28.0630590904323,-25.999192438046,1481.53704336148 28.0631014143267,-25.9991771799482,1481.18155695116 28.0631437934473,-25.9991620566281,1480.82094679519 28.063186200436,-25.9991469901502,1480.54344689906 28.0632286280361,-25.9991319651535,1480.19813582916 28.063271070145,-25.9991169696725,1479.8362124055 28.0633135206604,-25.9991019917419,1479.47411867184 28.0633559734798,-25.9990870193964,1479.11196583045 28.0633984225008,-25.9990720406705,1478.67639071552 28.0634408616211,-25.9990570435989,1478.28801031699 28.0634832847382,-25.9990420162162,1477.83353209261 28.0635256857497,-25.999026946557,1477.46279174706 28.0635680585533,-25.9990118226559,1477.00478237399 28.0636103970465,-25.9989966325476,1476.62337109586 28.0636526951268,-25.9989813642667,1476.25497884212 28.063694946692,-25.9989660058479,1475.82781891895 28.0637372153831,-25.9989506001929,1475.43744939651 28.0637793819867,-25.9989348968157,1475.0558870618 28.0638209306435,-25.9989181583989,1474.70473283532 28.0638611583063,-25.9988988174917,1474.35393966951 28.0639004866901,-25.9988779816819,1474.05422034723 28.0639392696813,-25.9988563736392,1473.76411109611 28.0639774624133,-25.9988338610217,1473.4847452699 28.0640142641412,-25.9988096898282,1473.22828862357 28.0640500077174,-25.9987840496204,1473.01343437173 28.0640851518561,-25.9987578086884,1472.81953862749 28.0641198067773,-25.9987307802292,1472.64206369416 28.0641517212677,-25.9987018167552,1472.52744446789 28.06418072937,-25.9986700439268,1472.42883578149 28.064207953627,-25.9986368134669,1472.47965721045 28.0642343258475,-25.9986032546973,1472.54746750661 28.0642596157757,-25.9985688612873,1472.62796225904 28.0642825466517,-25.9985334530061,1472.70168273895 28.0643030973176,-25.9984966297775,1472.77368799365 28.0643221706769,-25.9984592426819,1472.90579135414 28.0643404269298,-25.9984214588233,1473.05825775778 28.0643570702711,-25.9983831609076,1473.22587517486 28.0643725435431,-25.9983443007487,1473.40546038347 28.0643850006344,-25.9983048022726,1473.53604877711 28.0643948446471,-25.9982646145909,1473.64177551615 28.0644030242638,-25.9982239790076,1473.78704770442 28.0644088555065,-25.9981831923375,1473.95131167691 28.0644130370056,-25.99814213239,1474.02978108613 28.064413125543,-25.9981009936908,1474.24039793066 28.0644108397739,-25.9980598412313,1474.46950235048 28.0644062059953,-25.998018875769,1474.71585920353 28.0643995858955,-25.9979781131798,1474.87658141805 28.0643901795306,-25.9979378541195,1475.15633481542 28.0643772935539,-25.9978983710479,1475.45908778394 28.0643607478754,-25.9978600148105,1475.78443732427 28.0643417672085,-25.9978225175049,1476.02426183454 28.0643208724687,-25.9977859348308,1476.37423505563 28.0642991097867,-25.9977497284136,1476.72901305448 28.0642768725762,-25.9977137854481,1477.08611771729 28.0642550991667,-25.9976776089984,1477.44082333589 28.0642333494706,-25.9976412905748,1477.79607077877 28.0642125139582,-25.9976046236343,1478.14601910225 28.0641941035966,-25.9975671601874,1478.48125357057 28.064178479063,-25.9975284209548,1478.80142881419 28.0641647309731,-25.9974891474401,1479.08072784264 28.0641528299178,-25.9974493737702,1479.38234560237 28.0641451285549,-25.9974088238564,1479.67027297502 28.0641393409345,-25.9973679499532,1479.94007243092 28.0641351934736,-25.9973269407154,1480.19360951755 28.0641353540655,-25.9972857771275,1480.40338011021 28.0641368736247,-25.9972445988031,1480.59917186902 28.0641400774199,-25.9972035709726,1480.77677215783 28.0641473592443,-25.997162881323,1480.85048421124 28.0641562622359,-25.9971224802924,1480.92590468488 28.0641674717379,-25.9970826067728,1481.01478047569 28.0641811804203,-25.997043324354,1481.07477347088 28.0641976339302,-25.9970049501297,1481.10171033557 28.064218179193,-25.9969681667479,1481.07816008516 28.0642388757147,-25.9969314706834,1481.05260176124 28.0642614636402,-25.9968957151798,1481.00757361074 28.0642862016988,-25.996861174598,1480.92445238583 28.0643127107059,-25.9968276560913,1480.85964262375 28.0643391075745,-25.9967940979684,1480.72726100725 28.0643655781009,-25.9967605856799,1480.69407777518 28.0643921020161,-25.9967271069585,1480.5602995685 28.0644186590512,-25.9966936495372,1480.45455644245 28.0644452289374,-25.9966602011487,1480.42390657181 28.0644717853346,-25.996626744492,1480.51289244229 28.0644983242173,-25.9965932749353,1480.67538257812 28.0645248949972,-25.9965598259494,1480.75106717617 28.0645515494354,-25.9965264327593,1480.91844343544 28.0645783392931,-25.9964931305898,1480.99788436254 28.0646053335051,-25.996459964034,1481.14501145217 28.0646325108589,-25.9964269171466,1481.29798450155 28.0646597673404,-25.9963939217408,1481.39499820079 28.0646869986543,-25.9963609094575,1481.51799642918 28.0647141005052,-25.9963278119379,1481.67770236795 28.0647410729682,-25.9962946291549,1481.79436543173 28.0647680021247,-25.9962614174813,1481.91689962795 28.0647948936422,-25.9962281806921,1482.10081460008 28.0648217530731,-25.9961949224871,1482.22948349285 28.0648485859693,-25.9961616465657,1482.40958584486 28.0648753978831,-25.9961283566275,1482.55850477265 28.0649021943666,-25.996095056372,1482.71986660089 28.064928980972,-25.996061749499,1482.88857966199 28.0649557632514,-25.9960284397079,1483.0537713324 28.0649825467569,-25.9959951306982,1483.2189494485 28.0650093370408,-25.9959618261697,1483.42259988437 28.0650361396551,-25.9959285298218,1483.65482205863 28.0650629601521,-25.9958952453541,1483.79063238662 28.0650898040838,-25.9958619764662,1484.02417882486 28.0651166753156,-25.9958287257457,1484.17343462615 28.0651435679969,-25.9957954893118,1484.3757974051 28.0651704728062,-25.9957622609512,1484.47860295957 28.0651973804175,-25.9957290344479,1484.65543932422 28.0652242815047,-25.9956958035855,1484.78815180558 28.0652511667421,-25.995662562148,1484.92109091152 28.0652780268037,-25.9956293039191,1485.15439993593 28.0653048416537,-25.9955960150624,1485.28837687976 28.0653315580444,-25.9955626578333,1485.49552334137 28.0653582139817,-25.9955292589811,1485.66016253633 28.0653848616688,-25.9954958553241,1485.80613203096 28.0654115533087,-25.995462483681,1486.03239887774 28.0654383411044,-25.9954291808703,1486.21451510715 28.0654652772591,-25.9953959837106,1486.41625315166 28.0654923796901,-25.9953628798359,1486.6161808044 28.0655199882587,-25.9953301195105,1486.80995436302 28.0655489887149,-25.9952983305464,1487.01369818025 28.065579877256,-25.9952681063362,1487.21969736721 28.0656131188642,-25.9952398650352,1487.35552873565 28.0656497255061,-25.9952154345131,1487.41720305657 28.0656879082726,-25.9951928947579,1487.45130607367 28.0657276090234,-25.9951725664821,1487.45484219912 28.0657694271506,-25.9951567098871,1487.45605423889 28.0658133177967,-25.9951451957102,1487.39280708769 28.0658576165175,-25.9951353111415,1487.32896254062 28.0659025510143,-25.9951290386755,1487.39009694104 28.065948095059,-25.9951264903129,1487.35379836722 28.0659935978479,-25.9951286039696,1487.29786358164 28.0660388369148,-25.995133290437,1487.22458107213 28.066083648866,-25.9951413552196,1487.05061332662 28.0661273129277,-25.9951526854775,1486.85048048224 28.0661696205296,-25.995168142923,1486.65314807694 28.0662113181401,-25.9951853967285,1486.41444626286 28.0662505588333,-25.9952056459406,1486.15861047364 28.0662868114022,-25.9952308086747,1485.84793081632 28.0663204952779,-25.9952585984604,1485.4936803066 28.0663523878746,-25.9952880656918,1485.14864988151 28.0663825103966,-25.9953191672879,1484.75126695712 28.0664106914148,-25.9953512175381,1484.41100171484 28.0664379119859,-25.9953840602684,1483.97361548751 28.0664644682827,-25.9954175068547,1483.63001844308 28.0664905814174,-25.9954513514633,1483.21394144838 28.0665164725021,-25.995485388261,1482.83269031785 28.0665423626491,-25.9955194114144,1482.4808971625 28.0665684729705,-25.99555321509,1482.0538842772 28.0665947232937,-25.9955868637371,1481.69025336901 28.0666208663219,-25.9956205847063,1481.33858475473 28.0666469572528,-25.9956543414405,1480.89706774396 28.0666730520036,-25.995688096745,1480.63067642959 28.0666992064915,-25.9957218134253,1480.41955979096 28.0667254766338,-25.9957554542867,1480.20982318117 28.0667519182586,-25.9957889822594,1480.04621781599 28.066778557824,-25.9958223820074,1479.90974220068 28.0668053503864,-25.9958556836436,1479.82885733012 28.0668322403742,-25.9958889229035,1479.74895141212 28.0668591722157,-25.9959221355225,1479.71029628243 28.0668860903392,-25.995955357236,1479.6344066044 28.0669129391731,-25.9959886237793,1479.54432001181 28.0669396614105,-25.9960219720806,1479.46926582414 28.0669662133085,-25.9960554316813,1479.37124616809 28.0669927274722,-25.9960889158282,1479.26621269491 28.0670192427809,-25.9961223990793,1479.16495516416 28.067045747711,-25.9961558890888,1479.05619336328 28.0670722486352,-25.9961893816649,1478.91767820757 28.067098741774,-25.9962228792704,1478.83824125443 28.0671252326856,-25.9962563783218,1478.7248686743 28.0671517288369,-25.9962898739938,1478.58983493071 28.0671782477879,-25.9963233547859,1478.41721347151 28.0672047897689,-25.9963568205002,1478.31067905356 28.0672313098328,-25.9963903006817,1478.18552223502 28.0672577561101,-25.9964238297905,1477.99619471153 28.0672839599405,-25.9964575272302,1477.8124770565 28.067310160725,-25.9964912214232,1477.67488383827 28.0673367641709,-25.9965246221298,1477.52557664933 28.0673637179381,-25.9965578674191,1477.36719799237 28.0673910368812,-25.9965909084575,1477.16903280584 28.0674190736725,-25.9966233295128,1476.98095883473 28.0674481686686,-25.9966549033308,1476.90353130667 28.0674785186112,-25.9966858166004,1476.72369045933 28.0675102299545,-25.9967153764381,1476.6020202001 28.0675436737681,-25.9967430389942,1476.40432166763 28.0675788869994,-25.9967693180179,1476.2254057339 28.0676147215435,-25.9967948800875,1476.13036561219 28.0676506217968,-25.9968203198271,1475.98694320367 28.0676874744085,-25.9968445152389,1475.93367384741 28.0677261432306,-25.996866174062,1475.87415132332 28.0677660837163,-25.9968860782493,1475.87621770831 28.0678066794608,-25.9969047720969,1475.84705214099 28.0678478310293,-25.9969224524943,1475.86263911011 28.0678894235411,-25.9969393171899,1475.96710892736 28.0679315851965,-25.9969549334659,1476.01235311403 28.0679743863089,-25.9969690616915,1476.0552863604 28.0680179536418,-25.9969812075695,1476.20070402094 28.0680621026263,-25.99699145615,1476.29384328769 28.0681068000601,-25.9969990742531,1476.43865052821 28.0681518551148,-25.9970055163101,1476.58574160843 28.0681969335783,-25.9970115612688,1476.78779878164 28.0682421987937,-25.9970163494004,1476.89999713818 28.0682876625391,-25.9970184571034,1477.12154776084 28.0683332422361,-25.9970187287757,1477.32317264161 28.0683788044771,-25.9970180400772,1477.44451325773 28.0684243557801,-25.9970161454029,1477.57201990768 28.0684697431988,-25.9970132329011,1477.70432949115 28.068514927436,-25.9970075447054,1477.85280225037 28.0685598355714,-25.9970007324538,1478.02001485754 28.0686045643622,-25.9969924034701,1478.23418921375 28.0686487236473,-25.9969825782692,1478.42454501584 28.0686921638858,-25.9969703373188,1478.56068074714 28.0687351077748,-25.9969562398275,1478.77171387328 28.0687777654022,-25.996941783386,1478.94973574128 28.068820116525,-25.9969264010557,1479.09150771786 28.0688615806335,-25.9969095556306,1479.24997179094 28.0689020619256,-25.9968906014287,1479.45199271048 28.0689418253123,-25.9968704231478,1479.65844720855 28.0689811476739,-25.9968495193712,1479.86748554868 28.069019247678,-25.9968270441768,1480.00636987869 28.0690558779018,-25.9968026274775,1480.20155827251 28.0690915115962,-25.9967767647613,1480.42653196539 28.0691261619237,-25.9967501095255,1480.58280050601 28.0691600487673,-25.9967224721254,1480.78260902499 28.069192607158,-25.996693608824,1480.80584955084 28.0692231858238,-25.9966632668105,1480.88263487974 28.0692522437875,-25.9966314323124,1480.89120979535 28.0692805474774,-25.9965991890362,1480.96345089334 28.0693084203859,-25.996566659182,1480.95847417126 28.0693359607426,-25.9965338544123,1481.05576440812 28.0693632786546,-25.9965008716387,1481.05454526097 28.0693904842292,-25.9964678077732,1481.13378434423 28.0694176875737,-25.9964347597274,1481.15344446851 28.0694449429088,-25.9964017696743,1481.18595594882 28.0694721588358,-25.9963687482595,1481.2226107615 28.069499307297,-25.9963356783882,1481.25133735066 28.0695263645731,-25.996302547423,1481.25155279551 28.0695533069445,-25.9962693427265,1481.25244269178 28.0695801030066,-25.9962360463327,1481.28703360345 28.0696065996101,-25.9962025527697,1481.35001752967 28.0696329516662,-25.9961689621122,1481.36211213314 28.0696594338244,-25.9961354562525,1481.36574272631 28.0696860920051,-25.9961020657959,1481.36832333618 28.0697128220875,-25.9960687221837,1481.37047743267 28.0697396002931,-25.9960354100279,1481.37234375354 28.0697664028436,-25.9960021139404,1481.37406557355 28.0697932061409,-25.9959688186403,1481.37578649968 28.0698200074646,-25.9959355218764,1481.37751663013 28.0698468269543,-25.9959022368186,1481.37913761385 28.0698736826551,-25.9958689757263,1481.36890836895 28.0699005926123,-25.9958357508592,1481.3816207845 28.069927603235,-25.9958025927696,1481.51915158835 28.0699547012021,-25.995769492294,1481.68913160969 28.0699817959485,-25.9957363897328,1481.85912994701 28.0700087966901,-25.9957032252433,1481.9651212994 28.0700356484527,-25.9956699623482,1482.11535578087 28.0700624031228,-25.9956366350392,1482.17900821931 28.0700891240681,-25.9956032852567,1482.24304277329 28.0701158745706,-25.9955699548863,1482.33873312197 28.0701427040497,-25.9955366766552,1482.37248678078 28.0701695840555,-25.9955034318112,1482.50550102002 28.0701964883735,-25.9954702030365,1482.5381654932 28.0702233941623,-25.9954369752399,1482.57081001347 28.0702502785807,-25.9954037333303,1482.61801012561 28.0702771191305,-25.9953704624461,1482.73736417477 28.0703039105987,-25.9953371591699,1482.77166760327 28.0703306719386,-25.9953038360381,1482.80754209945 28.0703574238483,-25.9952705067356,1482.87122614303 28.0703841870258,-25.9952371849471,1482.89931078601 28.0704109821693,-25.9952038843576,1482.99323850319 28.0704378299771,-25.9951706186516,1482.98644626599 28.0704647508008,-25.9951374012019,1483.02241798414 28.0704917403396,-25.9951042290196,1483.08345259765 28.0705187737421,-25.9950710857411,1483.13836961262 28.0705458258143,-25.9950379547831,1483.15094688933 28.0705728713622,-25.9950048195624,1483.16475794931 28.0705998851919,-25.994971663496,1483.02731211163 28.0706268421094,-25.9949384700006,1482.98692639805 28.0706537681419,-25.9949052557494,1482.87005050121 28.070680704294,-25.9948720473944,1482.81031274641 28.070707634014,-25.9948388343624,1482.77202012725 28.0707345406446,-25.9948056060115,1482.67601433952 28.0707614075284,-25.9947723517003,1482.59640499415 28.070788218008,-25.9947390607868,1482.55943732049 28.0708149554261,-25.9947057226296,1482.52328284838 28.0708416031253,-25.9946723265868,1482.50626603844 28.0708680776573,-25.9946388183394,1482.5414761674 28.0708941854525,-25.9946050715424,1482.525708453 28.0709204755792,-25.994571445473,1482.51657682106 28.0709473486081,-25.9945382003522,1482.54837479428 28.0709745498991,-25.9945051678828,1482.57738305708 28.0710018261118,-25.994472183871,1482.60575332604 28.0710289252792,-25.9944390850435,1482.63315454271 28.0710558370203,-25.9944058560467,1482.66714256841 28.0710827546472,-25.9943726173922,1482.69867911538 28.0711095092898,-25.9943392758865,1482.73158131926 28.0711359262684,-25.9943057348395,1482.76725752989 28.0711618333216,-25.9942718977845,1482.80709098792 28.0711872027444,-25.9942377233725,1482.8514367348 28.0712121850342,-25.9942032953039,1482.99908715285 28.0712369348534,-25.994168714409,1483.04872659831 28.0712616068643,-25.994134081518,1483.09903420777 28.0712863557293,-25.9940994974613,1483.1167617498 28.0713112908481,-25.9940650332708,1483.096772451 28.0713361512511,-25.9940305168082,1483.14550453581 28.0713609450028,-25.9939959542667,1483.1781549612 28.0713857693463,-25.9939614106636,1483.14978748994 28.0714107215241,-25.9939269510164,1483.19185654102 28.0714358987792,-25.9938926403426,1483.19056376445 28.0714613983544,-25.9938585436597,1483.18116540387 28.0714872888494,-25.9938247040032,1483.22109784668 28.0715134597266,-25.99379103295,1483.15871511364 28.0715398599367,-25.9937574967206,1483.1529697922 28.07156645765,-25.9937240768818,1483.12857161219 28.071593221037,-25.9936907550003,1483.11555676274 28.0716201182679,-25.993657512643,1483.09298784384 28.0716471175133,-25.9936243313766,1483.02380160112 28.0716741869435,-25.9935911927679,1482.98753308065 28.0717012947289,-25.9935580783837,1482.94304463854 28.07172840904,-25.9935249697906,1482.80278833905 28.0717554980471,-25.9934918485556,1482.76278866654 28.0717825299206,-25.9934586962453,1482.64715784101 28.0718094885499,-25.993425503031,1482.58478088278 28.0718368449645,-25.9933925776073,1482.54170637441 28.071864038354,-25.9933595462154,1482.50044035194 28.0718906350294,-25.9933260942228,1482.46596379987 28.0719173410886,-25.9932926991593,1482.55871837842 28.0719467147761,-25.993261311791,1482.5637192908 28.0719779215953,-25.9932312291812,1482.6207738105 28.0720103640446,-25.9932023269866,1482.60606804528 28.0720477096726,-25.993178686185,1482.55580727248 28.0720880953736,-25.9931594041966,1482.40404763163 28.0721309150432,-25.993145625612,1482.22915966892 28.0721755495949,-25.9931375539466,1481.95015899034 28.0722210312103,-25.9931342860581,1481.68840971624 28.0722665960001,-25.9931343607304,1481.37674852193 28.0723117612179,-25.9931396759693,1480.97182027651 28.0723559645982,-25.9931494973959,1480.56365100927 28.072397963756,-25.99316550529,1480.13784048188 28.0724383241193,-25.9931846387297,1479.67475977178 28.0724776701562,-25.9932053873079,1479.23255466682 28.0725168988244,-25.993226308255,1478.87049789378 28.0725560558397,-25.9932473565123,1478.55990143523 28.0725951442843,-25.9932685220591,1478.20210534368 28.0726341672404,-25.9932897948749,1477.83800319435 28.0726731277903,-25.9933111649392,1477.52676960532 28.072712029016,-25.9933326222314,1477.21539512313 28.0727508739998,-25.9933541567309,1476.95855701023 28.072789665824,-25.9933757584172,1476.64954689399 28.0728284075706,-25.9933974172697,1476.32688161241 28.0728671023218,-25.9934191232678,1476.00384483957 28.072905826853,-25.9934408539672,1475.68048693452 28.0729442058313,-25.9934630798843,1475.3529363791 28.0729814135724,-25.9934867458849,1475.03074468486 28.0730173994805,-25.9935120644459,1474.66048471794 28.0730523447117,-25.9935385038175,1474.29810702802 28.0730859098891,-25.993566340645,1473.90489543686 28.0731171647496,-25.9935962801229,1473.53570782885 28.0731473884336,-25.9936271441195,1473.06235519705 28.0731758043509,-25.9936592503591,1472.68559648989 28.0732012589958,-25.9936934444849,1472.20270131287 28.0732259201414,-25.9937280887416,1471.81928295991 28.0732488497762,-25.9937636472692,1471.33542864876 28.0732697516282,-25.9938002214627,1470.85161926856 28.0732889475486,-25.9938375791117,1470.39259011174 28.0733096040181,-25.9938742764241,1469.9847864348 28.0733308480673,-25.9939107020926,1469.5549286896 28.0733516912711,-25.9939473166511,1469.13298422039 28.0733721954832,-25.993984084667,1468.77763795258 28.0733917985578,-25.9940212506142,1468.47346947198 28.0734104651306,-25.9940588131845,1468.09379945289 28.0734310973676,-25.9940955172306,1467.810547736 28.0734517343264,-25.9941322323253,1467.50012641983 28.073472156212,-25.99416903459,1467.15532292357 28.0734928321176,-25.9942058690504,1466.93846285995 28.0735166090226,-25.9942407127721,1466.65949061523 28.0735442918212,-25.9942737000165,1466.49005590169 28.0735742051247,-25.994304607846,1466.33130183348 28.0736070571833,-25.9943332827208,1466.13637152461 28.0736418206789,-25.9943599936406,1465.95185954592 28.0736789525045,-25.9943836414893,1465.82535574879 28.0737184578575,-25.9944043324522,1465.71907513771 28.0737590784046,-25.9944231673926,1465.68372504503 28.0738016736098,-25.9944375659843,1465.64837441945 28.0738457438745,-25.9944478401918,1465.59560228158 28.0738904603659,-25.9944560478909,1465.60797585684 28.0739352452359,-25.994463350851,1465.61593378685 28.0739800757246,-25.9944704972698,1465.5792271312 28.0740249490711,-25.9944775172432,1465.59198334707 28.0740698586121,-25.9944844277577,1465.60767498227 28.0741147976847,-25.9944912457996,1465.57265499221 28.0741597596257,-25.9944979883552,1465.63539480725 28.0742047377719,-25.9945046724111,1465.84468252486 28.0742497254603,-25.9945113149536,1466.12908782528 28.0742947160277,-25.994517932969,1466.37449978486 28.074339702811,-25.9945245434438,1466.62687060299 28.0743846791471,-25.9945311633644,1466.87197814909 28.0744296498377,-25.9945377713733,1467.15291309484 28.0744746534681,-25.9945442392994,1467.42400737829 28.0745196740503,-25.9945506298267,1467.61910639635 28.0745646887642,-25.994557028943,1467.90253215048 28.0746096747898,-25.9945635226357,1468.12411938269 28.0746546093069,-25.9945701968926,1468.36473851773 28.0746996111924,-25.9945771077217,1468.57444819981 28.0747444675441,-25.9945846118888,1468.80449750618 28.0747887444333,-25.9945936973481,1468.96375994942 28.0748320147039,-25.9946070058794,1469.12715412373 28.0748726423013,-25.9946253306298,1469.14899740221 28.0749111044302,-25.994647562531,1469.11950680112 28.0749473085114,-25.9946727363589,1469.02217255792 28.0749797854076,-25.9947018184899,1468.82595270833 28.0750043087563,-25.9947361756955,1468.49117341741 28.0750294205648,-25.9947709498017,1468.29161950235 28.0750455599727,-25.9948088439044,1467.94561752298 28.0750564003277,-25.9948490117171,1467.51706892276 28.0750653641827,-25.9948893996814,1467.0381318464 28.0750666535791,-25.9949305425936,1466.51749147259 28.0750640709041,-25.9949716504063,1465.95734570585 28.0750563270188,-25.9950121149912,1465.45919243279 28.0750407119543,-25.9950508818227,1465.09857802406 28.0750217198133,-25.9950883316927,1464.6837990414 28.0749964181438,-25.9951224281553,1464.2518245575 28.0749662905955,-25.9951533831833,1463.95434549017 28.0749345029598,-25.995182970268,1463.6403756362 28.0748995890296,-25.9952082626386,1463.40000116917 28.0748642859602,-25.9952332173696,1463.09949789609 28.074828626586,-25.9952578740637,1462.861701387 28.0747926279561,-25.9952822467645,1462.54343913069 28.0747563071196,-25.9953063495156,1462.26549796706 28.0747196811255,-25.9953301963603,1462.00854445601 28.074682767023,-25.9953538013423,1461.74148495202 28.074645581861,-25.9953771785052,1461.47563933175 28.0746081426888,-25.9954003418923,1461.15985904011 28.0745704665553,-25.9954233055473,1460.90376648686 28.0745325705096,-25.9954460835137,1460.62951729641 28.0744944716008,-25.995468689835,1460.37768056677 28.074456186878,-25.9954911385548,1460.10060587307 28.0744177333902,-25.9955134437165,1459.78661454007 28.0743791281866,-25.9955356193638,1459.57289782712 28.0743403883161,-25.9955576795401,1459.25942511204 28.0743015308279,-25.995579638289,1459.01009404346 28.0742625727711,-25.995601509654,1458.73309631699 28.0742235311947,-25.9956233076787,1458.4824438873 28.0741844231478,-25.9956450464065,1458.20741668902 28.0741452656795,-25.9956667398811,1458.03485088557 28.0741060758389,-25.9956884021459,1457.96501618882 28.0740668706749,-25.9957100472444,1457.95520451641 28.0740276672368,-25.9957316892203,1457.84540556297 28.0739884825735,-25.995753342117,1457.83550227539 28.0739493337342,-25.995775019978,1457.82537680679 28.0739102377679,-25.995796736847,1457.8149114995 28.0738712117237,-25.9958185067673,1457.80399557891 28.0738322726507,-25.9958403437827,1457.79251144461 28.0737934375979,-25.9958622619365,1457.78034164003 28.0737547236145,-25.9958842752724,1457.7673686093 28.0737161477495,-25.9959063978338,1457.75347873086 28.0736777270519,-25.9959286436643,1457.74894368255 28.0736394698853,-25.9959510191238,1457.82254038985 28.0736012215961,-25.9959733868907,1457.80654195335 28.0735629221492,-25.995995694614,1457.79098335466 28.073524574881,-25.9960179461789,1457.84492480877 28.0734861831276,-25.9960401454709,1457.86107982731 28.0734477502255,-25.9960622963753,1457.84667345341 28.0734092795108,-25.9960844027775,1457.88605072493 28.0733707743199,-25.9961064685628,1457.91881374269 28.073332237989,-25.9961284976167,1457.90530065493 28.0732936738544,-25.9961504938245,1457.99202924789 28.0732550852523,-25.9961724610715,1458.07896704995 28.0732164755192,-25.9961944032432,1458.06608916361 28.0731778479911,-25.9962163242249,1458.09477036767 28.0731392060045,-25.996238227902,1458.1407725464 28.0731005528956,-25.9962601181599,1458.12827536447 28.0730618920006,-25.9962819988838,1458.15705827229 28.0730232266559,-25.9963038739593,1458.20345910505 28.0729845601978,-25.9963257472716,1458.1910834738 28.0729458959624,-25.9963476227062,1458.17869165221 28.0729072372862,-25.9963695041483,1458.16625307876 28.0728685875053,-25.9963913954835,1458.06646850327 28.072829949956,-25.996413300597,1458.041123359 28.0727913279747,-25.9964352233742,1458.02837865205 28.0727527248976,-25.9964571677005,1458.01547486149 28.0727141440609,-25.9964791374613,1457.90238139546 28.0726755888011,-25.9965011365418,1457.88907223732 28.0726370624542,-25.9965231688276,1457.77551828629 28.0725985683567,-25.996545238204,1457.66168889227 28.0725601098448,-25.9965673485563,1457.61794076459 28.0725216902547,-25.9965895037699,1457.53309154639 28.0724833129229,-25.9966117077302,1457.49256964648 28.0724449811854,-25.9966339643225,1457.57557836854 28.0724066983787,-25.9966562774323,1457.65791238784 28.0723684678389,-25.9966786509448,1457.76817230884 28.0723302929024,-25.9967010887455,1458.06557953081 28.0722921769055,-25.9967235947198,1458.28759081005 28.0722541231844,-25.9967461727529,1458.55945710826 28.0722161350754,-25.9967688267304,1458.85589846467 28.0721782159148,-25.9967915605374,1459.12064520728 28.0721403690389,-25.9968143780595,1459.37153243208 28.0721025977839,-25.996837283182,1459.66451288479 28.0720649054861,-25.9968602797902,1459.95687646547 28.0720272954818,-25.9968833717696,1460.26285879306 28.0719897711073,-25.9969065630054,1460.57303718116 28.0719523356988,-25.9969298573831,1460.92002431044 28.0719149925927,-25.9969532587881,1461.21969703386 28.0718778532367,-25.9969769546152,1461.60270352692 28.0718412166391,-25.9970014279277,1461.91258131214 28.0718050064546,-25.9970264994791,1462.22223117395 28.0717691184903,-25.9970519418765,1462.63128017068 28.0717334469663,-25.9970775294047,1462.93940097332 28.071697856042,-25.9971032762107,1463.34771068233 28.0716625945796,-25.9971294508564,1463.67744980542 28.071628065541,-25.9971562884298,1464.06133902735 28.071594603848,-25.9971840941902,1464.36988728182 28.0715621118462,-25.9972130232905,1464.73790445918 28.0715303982958,-25.9972426358212,1465.06242027721 28.0714992275752,-25.9972725843781,1465.35803060139 28.0714683969501,-25.9973028457339,1465.65260479029 28.071437838387,-25.997333361011,1465.94637464315 28.0714074855638,-25.9973640693759,1466.23749223675 28.0713772721586,-25.9973949099952,1466.49372671798 28.0713471318496,-25.9974258220355,1466.74958321703 28.0713169983146,-25.9974567446634,1467.00540741216 28.0712868052319,-25.9974876170455,1467.2615392513 28.0712564862794,-25.9975183783483,1467.34242271977 28.0712259765401,-25.9975489690399,1467.31004249281 28.0711953412306,-25.9975794498682,1467.25533126599 28.0711646510019,-25.9976098857745,1467.2472898442 28.0711339115796,-25.9976402813945,1467.24808004195 28.071103128689,-25.9976706413636,1467.25336075503 28.0710723080556,-25.9977009703175,1467.24231889179 28.0710414554049,-25.9977312728917,1467.22598483539 28.0710105764623,-25.9977615537218,1467.20996747019 28.0709796769534,-25.9977918174434,1467.26933326928 28.0709487626035,-25.997822068692,1467.27860271893 28.0709178391382,-25.9978523121033,1467.27837558817 28.0708869122828,-25.9978825523128,1467.34768641432 28.070855987763,-25.997912793956,1467.33222438045 28.070825071304,-25.9979430416685,1467.3674651136 28.0707941686315,-25.997973300086,1467.27938213072 28.0707632854708,-25.998003573844,1467.11629472593 28.0707324275475,-25.998033867578,1467.04047893708 28.0707016005869,-25.9980641859237,1466.96445740784 28.0706708103146,-25.9980945335166,1466.78819111457 28.070640062456,-25.9981249149923,1466.71163967335 28.0706093627366,-25.9981553349863,1466.63476348007 28.0705787168819,-25.9981857981343,1466.45752770526 28.0705481306172,-25.9982163090718,1466.3798944904 28.0705176096682,-25.9982468724344,1466.30182213255 28.0704871597602,-25.9982774928576,1466.14826218699 28.0704567866187,-25.998308174977,1466.04421050231 28.0704266524529,-25.9983390508213,1465.96353368789 28.0703969761834,-25.9983702986901,1465.979756383 28.0703668540122,-25.9984011837848,1465.99900068508 28.0703365845899,-25.9984319525872,1465.98760319081 28.0703062579352,-25.9984626782167,1466.03981695704 28.0702758744382,-25.9984933603736,1466.08914345719 28.0702454344893,-25.998523998758,1466.1465522698 28.0702149384786,-25.9985545930702,1466.20381364865 28.0701843867964,-25.9985851430105,1466.28111591788 28.070153779833,-25.9986156482792,1466.36025226752 28.0701231179786,-25.9986461085764,1466.47906001714 28.0700924016234,-25.9986765236025,1466.61894763451 28.0700616311577,-25.9987068930576,1466.6970103281 28.0700308069717,-25.9987372166421,1466.85640722031 28.0699999294558,-25.9987674940561,1467.01607696692 28.069968999,-25.998797725,1467.1380106526</coordinates>
      </LineString>
    </Placemark>
  </Document>
</kml>