<?xml version="1.0" encoding="utf-8"?>
<kml xmlns="http://www.opengis.net/kml/2.2">
  <Document>
    <name>HockenheimRing_OptimalPath_RR</name>
    <Placemark>
      <Snippet maxLines="0"> </Snippet>
      <description> </description>
      <name>HockenheimRing_OptimalPath_RR</name>
      <Style>
        <LineStyle>
          <width>4</width>
          <color>ffff0000</color>
        </LineStyle>
      </Style>
      <LineString>
        <coordinates> 8.5658049487038,49.3277563266748,0 8.56577667058768,49.3277934912205,0 8.5657483803565,49.3278306680945,0 8.56572007848239,49.327867853005,0 8.56569176313813,49.3279050445424,0 8.5656634321561,49.3279422420781,0 8.56563508341436,49.3279794444888,0 8.56560671518108,49.3280166505406,0 8.56557832547842,49.3280538590582,0 8.56554991259047,49.3280910690505,0 8.56552147434988,49.3281282792818,0 8.56549300858478,49.328165488859,0 8.56546451373149,49.3282026960812,0 8.56543598809568,49.328239899383,0 8.56540742921619,49.3282770985302,0 8.5653788339566,49.3283142944095,0 8.56535019901068,49.3283514888497,0 8.56532152076976,49.3283886837217,0 8.56529279584212,49.3284258806643,0 8.56526402125177,49.3284630800865,0 8.56523519523625,49.3285002801446,0 8.5652063161011,49.3285374786893,0 8.56517738212134,49.328574673816,0 8.56514839169218,49.3286118632506,0 8.56511934293215,49.3286490441827,0 8.56509023462805,49.3286862144409,0 8.56506106533137,49.3287233714978,0 8.56503183373884,49.328760512258,0 8.56500253828727,49.3287976342232,0 8.56497317733439,49.3288347352418,0 8.56494374992882,49.3288718113895,0 8.56491425542837,49.328908856564,0 8.56488469358884,49.3289458645996,0 8.56485506388245,49.3289828301568,0 8.56482536521553,49.3290197497946,0 8.5647955958093,49.3290566228341,0 8.56476575285844,49.3290934529763,0 8.56473583301842,49.3291302463622,0 8.56470584017779,49.3291670095752,0 8.5646758203075,49.3292037523764,0 8.56464591703108,49.3292404904991,0 8.56461627444397,49.3292772369421,0 8.56458703736175,49.3293140013253,0 8.5645583506616,49.3293507915393,0 8.56453035927157,49.3293876155708,0 8.56450320900795,49.3294244732449,0 8.56447704689082,49.3294613543989,0 8.56445202052273,49.3294982398895,0 8.56442827806189,49.3295351037972,0 8.56440596797853,49.3295719157566,0 8.56438523881644,49.329608640998,0 8.5643662392841,49.3296452431952,0 8.56434911803286,49.329681680502,0 8.56433402252919,49.3297177526375,0 8.56432109849535,49.3297531936998,0 8.56431053450659,49.329788649368,0 8.56430255977109,49.329825327674,0 8.56429736205264,49.3298639752855,0 8.56429504655139,49.32990437389,0 8.56429564071444,49.3299448905406,0 8.56429909277162,49.329984049487,0 8.56430529036401,49.3300216233329,0 8.5643140580942,49.3300581795244,0 8.56432516753256,49.3300948927731,0 8.56433846157665,49.3301319905434,0 8.56435381087298,49.3301692437278,0 8.56437107792956,49.3302065805669,0 8.56439012275623,49.3302439896607,0 8.56441080589374,49.3302814410944,0 8.56443298737313,49.3303189237822,0 8.56445652737883,49.3303564243741,0 8.56448128601565,49.3303939302204,0 8.56450712332783,49.3304314339529,0 8.56453389926601,49.3304689316935,0 8.56456147380578,49.3305064224714,0 8.56458970641201,49.3305439259857,0 8.56461857756991,49.3305814695239,0 8.56464806793482,49.3306190703131,0 8.5646781590097,49.3306567230032,0 8.56470883367007,49.330694391556,0 8.56474007579427,49.3307320135683,0 8.56477186959484,49.3307695163355,0 8.56480419967933,49.3308068203629,0 8.56483705058844,49.330843834728,0 8.56487040707037,49.3308804973067,0 8.56490425431499,49.3309167794984,0 8.56493857769196,49.3309526626228,0 8.56497336330947,49.3309881425113,0 8.56500859893124,49.3310232505927,0 8.56504427331498,49.3310580341659,0 8.56508037208916,49.3310924957911,0 8.56511687896947,49.3311266135675,0 8.56515377994843,49.3311603918182,0 8.56519106185174,49.3311938422741,0 8.5652287101764,49.3312269655413,0 8.56526670775614,49.3312597403314,0 8.56530504171697,49.331292176476,0 8.56534370087829,49.3313242959221,0 8.56538267161164,49.3313561039688,0 8.56542194296888,49.3313876253039,0 8.56546150735759,49.3314189123235,0 8.56550135683887,49.3314500144328,0 8.5655414824241,49.3314809632545,0 8.56558187473181,49.3315117767907,0 8.5656225244097,49.3315424756331,0 8.56566342289434,49.3315730661006,0 8.56570456271455,49.3316035456082,0 8.5657459370995,49.3316339061501,0 8.56578753878175,49.3316641422341,0 8.56582935832257,49.3316942578643,0 8.56587138089287,49.331724274916,0 8.56591358168304,49.3317542454182,0 8.56595593819547,49.3317842154528,0 8.56599843621761,49.331814211709,0 8.56604106573684,49.331844251591,0 8.56608382273465,49.3318743413335,0 8.56612670953806,49.3319044758394,0 8.56616973373723,49.331934641185,0 8.56621291504916,49.3319648040837,0 8.56625624058902,49.3319949814507,0 8.56629970858198,49.3320251724188,0 8.56634332965476,49.3320553556095,0 8.56638712544375,49.3320854940592,0 8.56643101245408,49.3321156329678,0 8.56647496114016,49.3321457699934,0 8.56651894697806,49.3321758877715,0 8.56656295678761,49.3322059847721,0 8.56660698383362,49.3322360631187,0 8.5666510245254,49.3322661260623,0 8.56669508946896,49.3322961808934,0 8.56673917989055,49.33232623256,0 8.5667832970145,49.3323562857734,0 8.56682743792791,49.3323863445185,0 8.56687158734794,49.332416409084,0 8.56691572398391,49.3324464782465,0 8.56695982074363,49.3324765489396,0 8.5670038608744,49.3325066179281,0 8.56704784162607,49.3325366859496,0 8.5670917698255,49.3325667563198,0 8.56713565747123,49.3325968336763,0 8.5671795135867,49.3326269217275,0 8.56722334007789,49.3326570224117,0 8.56726714059698,49.3326871379626,0 8.56731092126414,49.3327172714734,0 8.56735468594545,49.3327474253155,0 8.56739843578234,49.3327776012354,0 8.56744216984713,49.3328078005266,0 8.56748588554649,49.3328380239282,0 8.5675295795492,49.3328682720216,0 8.56757324902461,49.3328985455596,0 8.5676168935962,49.3329288458115,0 8.56766051576439,49.3329591749924,0 8.56770411686563,49.3329895346164,0 8.56774769828373,49.333019926657,0 8.56779126109506,49.3330503525663,0 8.56783480711788,49.3330808146163,0 8.56787833771792,49.3331113143408,0 8.5679218527976,49.3331418531594,0 8.56796535755321,49.3331724336242,0 8.56800886559697,49.3332030601381,0 8.56805237643328,49.3332337340951,0 8.56809587205153,49.3332644530839,0 8.56813932444945,49.3332952129158,0 8.56818270268195,49.3333260084582,0 8.56822598105144,49.3333568359869,0 8.56826914576475,49.3333876939622,0 8.5683122765352,49.3334184306237,0 8.56835547694452,49.3334488852911,0 8.56839884398698,49.3334788957156,0 8.56844247009526,49.3335082987162,0 8.56848644647215,49.3335369312315,0 8.56853086134167,49.333564629233,0 8.56857579927018,49.3335912284087,0 8.56862134174034,49.3336165633483,0 8.56866756297301,49.3336404676046,0 8.5687144884789,49.3336627661393,0 8.56876209333714,49.3336832745915,0 8.56881033191144,49.3337018049117,0 8.56885895734032,49.3337181338577,0 8.56890919872054,49.3337322864349,0 8.56896332056176,49.3337444558442,0 8.56902331746575,49.3337547909937,0 8.5690875507484,49.3337628127741,0 8.56915101144849,49.3337673849365,0 8.569207914292,49.3337672274355,0 8.56925737295713,49.3337622082558,0 8.5693003293301,49.3337526138916,0 8.56933876308693,49.3337389455082,0 8.56937458848199,49.3337216928737,0 8.56940923338421,49.3337012755941,0 8.56944332558528,49.3336780241556,0 8.56947638718152,49.3336521780669,0 8.56950772135462,49.3336239645343,0 8.56953720705004,49.3335936271075,0 8.56956417401464,49.3335614080345,0 8.56958824641834,49.3335275430418,0 8.56960939556529,49.3334922514746,0 8.56962805648512,49.3334557178059,0 8.56964471176397,49.333418121545,0 8.56965873099701,49.3333797945506,0 8.569670216752,49.3333409455152,0 8.56967942038774,49.3333017540704,0 8.56968650914605,49.3332624180081,0 8.56969163216062,49.3332231395482,0 8.56969532016157,49.3331840281335,0 8.56969838217304,49.3331451245119,0 8.56970146932703,49.3331065082,0 8.56970438740906,49.33306845846,0 8.56970821690913,49.3330309732322,0 8.56971394831314,49.3329940681061,0 8.56972261430911,49.3329577517597,0 8.56973495124976,49.3329220702432,0 8.56975184338686,49.3328870569237,0 8.5697734375542,49.332852778712,0 8.56979924088484,49.3328193065847,0 8.56982892550859,49.3327867167428,0 8.56986348972956,49.3327551760878,0 8.56990300259824,49.3327247524408,0 8.56994751992089,49.332695511315,0 8.56999649590081,49.3326674117163,0 8.57004900793777,49.3326403071438,0 8.57010323179161,49.3326137958451,0 8.57015782752747,49.3325875834981,0 8.57021252443156,49.3325616119849,0 8.57026732116654,49.3325358815438,0 8.57032205115717,49.3325103572679,0 8.57037679661524,49.3324850559407,0 8.5704316594729,49.3324599984163,0 8.5704866523019,49.3324351874711,0 8.57054169298422,49.33241060736,0 8.57059675928515,49.33238625389,0 8.57065184773227,49.3323621265109,0 8.57070697727014,49.3323382290921,0 8.57076217832491,49.3323145675111,0 8.57081748351009,49.3322911481351,0 8.57087291837476,49.332267976003,0 8.57092850668402,49.3322450557201,0 8.57098426644976,49.3322223909515,0 8.57104020679058,49.332199983592,0 8.57109632652645,49.3321778338415,0 8.57115261139143,49.332155939252,0 8.57120903725784,49.3321342955834,0 8.57126558308319,49.3321128992179,0 8.57132223149407,49.3320917471856,0 8.57137896943627,49.3320708371565,0 8.57143578754801,49.332050167457,0 8.57149267826126,49.3320297368625,0 8.57154963350472,49.3320095441513,0 8.57160664180524,49.3319895873722,0 8.5716636896206,49.3319698642812,0 8.57172076293129,49.3319503728223,0 8.57177784657438,49.3319311102714,0 8.57183492812156,49.331912074594,0 8.57189199518315,49.3318932636748,0 8.57194903839973,49.3318746758754,0 8.57200605618353,49.3318563105993,0 8.57206305617071,49.3318381685601,0 8.57212005443009,49.3318202515182,0 8.57217707328361,49.3318025620162,0 8.57223414016262,49.3317851032505,0 8.57229128449778,49.3317678786517,0 8.57234853295886,49.3317508912672,0 8.57240590806153,49.3317341437368,0 8.57246342011065,49.3317176373349,0 8.57252107048933,49.3317013725995,0 8.57257885386302,49.3316853492708,0 8.57263676062614,49.3316695665992,0 8.57269478218703,49.3316540241331,0 8.57275291834731,49.3316387220501,0 8.5728111771536,49.3316236612018,0 8.57286957049823,49.3316088427344,0 8.57292810772104,49.3315942673998,0 8.57298680305215,49.3315799365308,0 8.57304566314207,49.3315658509577,0 8.57310468613925,49.3315520109947,0 8.57316386502241,49.3315384167864,0 8.57322319302214,49.3315250683339,0 8.57328266349392,49.3315119657244,0 8.57334227185362,49.3314991092163,0 8.57340201695422,49.3314864990594,0 8.57346190243324,49.3314741356496,0 8.57352192931086,49.331462019326,0 8.57358209659189,49.3314501503994,0 8.57364240458086,49.3314385293562,0 8.57370285450657,49.3314271564923,0 8.57376344707253,49.3314160321042,0 8.57382418020059,49.3314051564752,0 8.57388505072941,49.3313945300124,0 8.57394605629681,49.3313841528272,0 8.57400719016666,49.3313740256375,0 8.57406844154005,49.3313641490454,0 8.57412979470149,49.3313545239014,0 8.57419123990315,49.3313451507257,0 8.57425277496489,49.3313360295164,0 8.57431440618078,49.3313271599574,0 8.5743761453075,49.331318541251,0 8.57443800745371,49.3313101722995,0 8.57449999699615,49.3313020529194,0 8.57456210113689,49.3312941845121,0 8.57462429878404,49.3312865693049,0 8.57468658378146,49.3312792079282,0 8.57474897048015,49.3312720986681,0 8.57481147811795,49.3312652391365,0 8.57487410790311,49.3312586293803,0 8.57493685078086,49.3312522708843,0 8.57499968790751,49.3312461665372,0 8.57506259473383,49.331240320081,0 8.57512555767681,49.3312347335381,0 8.57518857288917,49.3312294071864,0 8.57525163953739,49.3312243409564,0 8.57531476513268,49.3312195331154,0 8.57537795956801,49.3312149816194,0 8.57544124619426,49.3312106813117,0 8.57550465618613,49.3312066258181,0 8.57556820675488,49.3312028116829,0 8.57563186306734,49.3311992469632,0 8.5756955721473,49.3311959438357,0 8.57575929389643,49.3311929114661,0 8.57582302899587,49.3311901490677,0 8.57588680634921,49.3311876484441,0 8.57595066702046,49.3311853985654,0 8.57601464658235,49.331183389416,0 8.57607874843548,49.3311816203223,0 8.57614290104762,49.3311801114414,0 8.57620704876922,49.3311788786791,0 8.57627117358251,49.3311779265751,0 8.57633528206098,49.3311772521498,0 8.576399398174,49.3311768470593,0 8.57646355380254,49.3311767003864,0 8.57652777783142,49.3311768020911,0 8.5765920852631,49.3311771467471,0 8.57665647278474,49.3311777350426,0 8.57672092743558,49.3311785707864,0 8.57678541931383,49.3311796642313,0 8.57684990676174,49.3311810297592,0 8.57691434768792,49.3311826817749,0 8.57697870538825,49.3311846327238,0 8.57704298364724,49.3311868794477,0 8.5771072273643,49.3311894035205,0 8.57717147207648,49.3311921899776,0 8.57723570445817,49.3311952432438,0 8.57729987425292,49.3311985820628,0 8.57736391810843,49.3312022306856,0 8.57742778044435,49.3312062099559,0 8.57749143186874,49.3312105299245,0 8.57755494624728,49.331215157454,0 8.57761842562155,49.3312200461011,0 8.57768189943116,49.3312251814044,0 8.57774534243394,49.3312305727709,0 8.57780869887819,49.331236243184,0 8.57787190098938,49.3312422202287,0 8.57793489329826,49.3312485254622,0 8.57799768347294,49.3312551520357,0 8.57806031967478,49.3312620748428,0 8.57812282215292,49.3312692812754,0 8.5781851666708,49.3312767792688,0 8.57824731314853,49.331284583267,0 8.57830922525223,49.3312927059045,0 8.57837090413151,49.3313011431899,0 8.57843239133876,49.331309872957,0 8.5784937590959,49.3313188591653,0 8.57855503922997,49.331328083709,0 8.57861622953157,49.3313375444154,0 8.5786773065026,49.3313472479609,0 8.57873823503221,49.3313572073908,0 8.57879898808145,49.3313674317506,0 8.57885954828985,49.3313779253724,0 8.57891989588954,49.3313886947097,0 8.57898000398525,49.3313997480691,0 8.57903985405202,49.3314110905752,0 8.57909944412067,49.3314227196187,0 8.57915879271261,49.3314346235914,0 8.57921794687456,49.3314467778383,0 8.57927696819979,49.3314591504,0 8.57933588815956,49.3314717232047,0 8.57939471172634,49.3314844907207,0 8.57945342815105,49.3314974550258,0 8.57951202416873,49.3315106188169,0 8.57957049441156,49.3315239816518,0 8.57962884987089,49.3315375350206,0 8.57968713407166,49.3315512553773,0 8.57974541122344,49.3315651100643,0 8.5798037542711,49.3315790620386,0 8.57986222234327,49.3315930810451,0 8.5799208542949,49.331607145869,0 8.57997966939777,49.3316212446007,0 8.5800386624049,49.3316353766148,0 8.58009780660067,49.3316495513428,0 8.58015706317467,49.3316637841671,0 8.58021640197463,49.3316780863168,0 8.58027581264004,49.3316924596323,0 8.58033528772031,49.3317069045039,0 8.58039482335332,49.3317214193486,0 8.58045441829923,49.3317360019942,0 8.58051407294306,49.3317506488409,0 8.58057378732566,49.3317653565955,0 8.58063355979955,49.3317801233023,0 8.58069339066264,49.3317949454442,0 8.58075328120003,49.3318098193305,0 8.58081323173222,49.3318247413469,0 8.58087324161568,49.3318397090008,0 8.5809333083012,49.3318547206779,0 8.58099342870725,49.3318697739406,0 8.58105360129931,49.3318848668548,0 8.58111382341632,49.3318999971046,0 8.58117409274873,49.3319151625635,0 8.58123440747456,49.331930361354,0 8.58129476479071,49.3319455912981,0 8.58135516335103,49.3319608508177,0 8.58141560055419,49.3319761378748,0 8.58147607403516,49.3319914505697,0 8.58153658052448,49.3320067866983,0 8.58159711757423,49.3320221444279,0 8.58165768235365,49.3320375218411,0 8.58171827175241,49.3320529169858,0 8.58177888348302,49.3320683283107,0 8.58183951468196,49.3320837541168,0 8.58190016244853,49.3320991927279,0 8.58196082389663,49.3321146423197,0 8.58202149718349,49.3321301009121,0 8.58208217789738,49.3321455674545,0 8.58214286013021,49.3321610419766,0 8.58220353674326,49.3321765246239,0 8.58226420203012,49.3321920157273,0 8.58232485063723,49.3322075145911,0 8.58238547984273,49.3322230196943,0 8.5824460889669,49.3322385279887,0 8.58250667958641,49.3322540351196,0 8.58256725333687,49.3322695374747,0 8.58262780986044,49.3322850309734,0 8.58268834978496,49.3323005120707,0 8.58274887347494,49.3323159773016,0 8.58280938051201,49.332331422974,0 8.58286987124899,49.3323468456779,0 8.58293034646454,49.3323622420198,0 8.58299080664864,49.3323776083671,0 8.58305125185186,49.3323929409888,0 8.58311168294813,49.332408235889,0 8.58317213080315,49.3324234722997,0 8.58323258082391,49.3324386554147,0 8.58329296790355,49.3324538193634,0 8.58335320632631,49.3324690098903,0 8.58341321964648,49.3324842677169,0 8.5834729650811,49.3324996141171,0 8.58353245267548,49.3325150397563,0 8.58359166176235,49.3325304241221,0 8.5836503460507,49.3325453795088,0 8.58370824438075,49.3325595270424,0 8.58376508069039,49.3325724959868,0 8.58382056785198,49.3325839218448,0 8.58387424821829,49.3325935367572,0 8.58392564662713,49.3326010828041,0 8.58397476056632,49.3326060330275,0 8.58402170654427,49.3326077928246,0 8.58406675067492,49.3326056804568,0 8.58410897982666,49.3325997173023,0 8.58414694551502,49.3325902618154,0 8.58417986662324,49.3325772066361,0 8.58420729159559,49.3325601717247,0 8.584229944359,49.3325375549425,0 8.58424878083301,49.3325074344774,0 8.58426274950129,49.3324715882162,0 8.58426903557538,49.3324375260763,0 8.58426694629994,49.3324077562061,0 8.5842570636487,49.3323813808998,0 8.58424024265172,49.3323565496806,0 8.58421713247874,49.3323325507109,0 8.58418832835434,49.3323092560397,0 8.5841544110674,49.3322869351711,0 8.58411597493028,49.3322650664226,0 8.58407361371891,49.3322430776846,0 8.58402791176468,49.3322210187413,0 8.58397945897753,49.3321986305834,0 8.58392883501919,49.3321761761729,0 8.58387662287128,49.332153727288,0 8.58382340778583,49.3321312446852,0 8.58376977387758,49.3321087372512,0 8.58371612041387,49.3320862083392,0 8.58366244611543,49.3320636583939,0 8.58360874983985,49.3320410879048,0 8.5835550302488,49.3320184973231,0 8.58350128588536,49.3319958870853,0 8.58344751543823,49.3319732576935,0 8.58339371766694,49.3319506097026,0 8.58333989113674,49.3319279435835,0 8.58328603453952,49.3319052598308,0 8.58323214642489,49.3318825589177,0 8.58317822630609,49.3318598416366,0 8.58312427221018,49.3318371083434,0 8.58307028335482,49.3318143598016,0 8.58301625775063,49.331791596385,0 8.58296219403278,49.331768818725,0 8.58290809156776,49.3317460276923,0 8.58285394885406,49.3317232237621,0 8.58279976493284,49.3317004076269,0 8.58274553899832,49.3316775801184,0 8.58269126999387,49.3316547420912,0 8.58263695620655,49.3316318942042,0 8.58258259541862,49.3316090370026,0 8.58252818684552,49.3315861715876,0 8.58247372929477,49.3315632989213,0 8.58241922122206,49.3315404198107,0 8.58236466146122,49.331517535263,0 8.58231004870182,49.3314946462921,0 8.5822553813252,49.3314717537997,0 8.58220065879095,49.3314488591281,0 8.58214588000934,49.3314259635111,0 8.58209104336187,49.3314030680556,0 8.58203614731982,49.3313801739493,0 8.58198119015699,49.3313572823873,0 8.58192617136334,49.3313343949855,0 8.58187108995347,49.3313115132755,0 8.58181594471746,49.3312886387297,0 8.58176073422639,49.3312657728754,0 8.58170545731738,49.3312429173977,0 8.58165011287162,49.3312200741045,0 8.58159469970676,49.3311972448377,0 8.58153921688253,49.3311744316018,0 8.5814836627241,49.3311516362796,0 8.58142803616826,49.3311288611024,0 8.58137233539571,49.3311061080978,0 8.58131655850029,49.3310833793656,0 8.58126070540734,49.3310606776342,0 8.58120477502682,49.3310380053826,0 8.58114876634358,49.3310153651798,0 8.58109267780952,49.3309927594895,0 8.58103650871385,49.3309701912034,0 8.58098025791332,49.3309476631883,0 8.58092392449096,49.3309251784696,0 8.58086750721689,49.3309027401102,0 8.58081100498078,49.3308803513,0 8.58075441673147,49.3308580153958,0 8.58069774163476,49.330835735913,0 8.5806409778856,49.3308135161097,0 8.58058412546848,49.3307913599221,0 8.5805271829115,49.3307692709013,0 8.58047014962623,49.3307472529375,0 8.58041302520193,49.3307253100937,0 8.58035580850363,49.3307034462765,0 8.58029849874804,49.3306816656517,0 8.58024109517429,49.3306599724571,0 8.58018359734309,49.3306383711152,0 8.58012600428863,49.3306168659603,0 8.58006831532393,49.3305954615209,0 8.58001053015823,49.3305741626257,0 8.57995264817074,49.3305529745914,0 8.57989466793745,49.3305319005758,0 8.57983659308986,49.3305109544362,0 8.57977842637879,49.3304901491329,0 8.57972002925777,49.3304691840858,0 8.57966144402434,49.3304481434975,0 8.57960293431625,49.330427570853,0 8.57954486954742,49.3304082200402,0 8.57948757187846,49.3303907543858,0 8.57943127961596,49.3303756747355,0 8.57937603013167,49.3303631445847,0 8.57932184568829,49.3303533034396,0 8.57926838281321,49.3303457796619,0 8.57921541892689,49.3303403535313,0 8.5791627509445,49.3303368278481,0 8.57911008992208,49.330334917124,0 8.57905711584906,49.3303343061698,0 8.57900351389122,49.3303346845256,0 8.57894906069005,49.3303358178707,0 8.57889362267397,49.3303375441401,0 8.57883716651383,49.3303397806317,0 8.57877973117875,49.3303425014176,0 8.57872134849677,49.3303456748298,0 8.57866208398158,49.3303492954727,0 8.57860200446462,49.3303533588653,0 8.57854117784094,49.3303578613532,0 8.57847964296946,49.3303627772926,0 8.57841744660833,49.3303680870017,0 8.57835463563278,49.3303737709485,0 8.57829125658327,49.3303798092161,0 8.57822735527773,49.3303861813992,0 8.57816297672941,49.3303928665861,0 8.57809816552733,49.3303998434726,0 8.57803296536854,49.330407090217,0 8.57796741930332,49.3304145844918,0 8.57790156993103,49.3304223035803,0 8.57783545921454,49.3304302243215,0 8.57776912799648,49.3304383229081,0 8.57770261683313,49.3304465752018,0 8.57763596536883,49.3304549565182,0 8.57756921268687,49.3304634417444,0 8.5775023972091,49.3304720053271,0 8.5774355562812,49.3304806211036,0 8.5773687271047,49.3304892626551,0 8.57730194574992,49.330497902966,0 8.57723524784993,49.3305065146779,0 8.57716866897786,49.3305150702502,0 8.57710224309589,49.3305235413931,0 8.57703600398332,49.3305318995984,0 8.5769699850415,49.330540116095,0 8.57690421909511,49.3305481617517,0 8.57683873848895,49.3305560071397,0 8.57677357516038,49.3305636225793,0 8.57670876065758,49.3305709781515,0 8.57664432638032,49.3305780438047,0 8.57658030284783,49.3305847890853,0 8.57651672101836,49.3305911836599,0 8.57645361147522,49.3305971970206,0 8.57639100435105,49.3306027984474,0 8.57632893064653,49.3306079575831,0 8.57626742032625,49.3306126436573,0 8.57620670863265,49.3306166757734,0 8.57614702862745,49.3306198718606,0 8.57608861300206,49.3306220495159,0 8.57603169095439,49.3306230244145,0 8.57597648170571,49.330622606456,0 8.57592338087589,49.3306207067394,0 8.57587258049888,49.3306171198988,0 8.57582421722667,49.330611608994,0 8.5757784694614,49.3306039607433,0 8.57573463295463,49.3305934646727,0 8.57569169153042,49.3305792315423,0 8.57564846942318,49.3305602777763,0 8.57560441933419,49.330536001059,0 8.57556313065087,49.3305083086521,0 8.5755282167341,49.3304793963635,0 8.57549985723844,49.3304495789839,0 8.57547761151929,49.3304188383703,0 8.57545964291293,49.3303864068258,0 8.57544517066492,49.330352094938,0 8.57543423666763,49.330316172123,0 8.57542684549263,49.330278886842,0 8.57542260946594,49.3302402655445,0 8.57542141207915,49.3302004892729,0 8.57542330818377,49.3301598375841,0 8.57542809469651,49.3301184392929,0 8.5754354786054,49.3300763695998,0 8.57544518762583,49.3300337163227,0 8.57545711989898,49.3299906730553,0 8.57547122770707,49.3299474675278,0 8.57548744318862,49.3299043144949,0 8.57550587855626,49.329861545788,0 8.57552674931138,49.3298195617568,0 8.57555004075611,49.3297786055101,0 8.575575561754,49.3297387943365,0 8.57560307953887,49.3297002139027,0 8.57563227277113,49.3296628772707,0 8.57566283262022,49.3296268088468,0 8.57569445635635,49.3295920385936,0 8.57572666614464,49.3295584159726,0 8.57575892673188,49.3295257267331,0 8.57579067482905,49.3294937241087,0 8.57582133870703,49.3294621508893,0 8.57585042675129,49.3294308489372,0 8.5758774859005,49.329399706122,0 8.57590203781471,49.3293685816224,0 8.57592358846139,49.3293373177028,0 8.57594148303555,49.329305604039,0 8.57595515273833,49.3292732017354,0 8.57596415279224,49.3292399608593,0 8.57596794075091,49.3292056714486,0 8.57596676018988,49.3291705397751,0 8.57596033026043,49.3291345310033,0 8.57594858021534,49.3290976947512,0 8.57593178802615,49.3290602051113,0 8.57591022018833,49.3290222324784,0 8.57588467212146,49.3289841042256,0 8.57585605421071,49.3289461800697,0 8.57582532731806,49.3289086964957,0 8.57579351697471,49.328871907492,0 8.57575993261229,49.3288355973431,0 8.57572474945644,49.3287997894837,0 8.57568805609804,49.3287644830373,0 8.57564975662862,49.3287296245324,0 8.57560992370381,49.3286952092459,0 8.57556878975941,49.3286612792592,0 8.57552643420106,49.3286278312714,0 8.57548293962178,49.3285948629367,0 8.57543833860217,49.328562356791,0 8.57539275777066,49.3285303239805,0 8.57534645742684,49.3284988164662,0 8.57529962473263,49.3284678638937,0 8.57525241604226,49.3284374865773,0 8.57520479792362,49.3284076480167,0 8.57515664263277,49.3283782838838,0 8.57510799090294,49.3283493788407,0 8.57505892304629,49.3283209288887,0 8.57500947790032,49.3282929183309,0 8.57495967063137,49.3282653248979,0 8.57490952657938,49.3282381290996,0 8.57485907109185,49.3282113114523,0 8.5748083282107,49.3281848521167,0 8.5747573211924,49.3281587310543,0 8.57470607278012,49.3281329281033,0 8.57465460432889,49.3281074227364,0 8.57460293687644,49.328082194368,0 8.57455108994428,49.3280572220148,0 8.57449908261672,49.3280324846087,0 8.57444693289941,49.3280079608182,0 8.57439465804479,49.327983629145,0 8.57434227419523,49.3279594678298,0 8.57428979703359,49.3279354550334,0 8.57423724079007,49.3279115685665,0 8.57418461919242,49.3278877861576,0 8.57413194523715,49.327864085384,0 8.57407923071752,49.3278404435525,0 8.57402648668294,49.3278168378244,0 8.57397371580928,49.3277932618225,0 8.57392091662188,49.3277697179716,0 8.57386808752067,49.3277462087851,0 8.57381522726145,49.3277227369309,0 8.57376233395913,49.3276993049377,0 8.57370940635584,49.3276759155284,0 8.57365644245657,49.327652571247,0 8.57360344108859,49.3276292748689,0 8.5735504003602,49.3276060289903,0 8.57349731896644,49.3275828363667,0 8.57344419497105,49.3275596996031,0 8.57339102678158,49.3275366214015,0 8.5733378130126,49.3275136045308,0 8.57328455206178,49.3274906517079,0 8.57323124201403,49.3274677655866,0 8.57317788145434,49.3274449489533,0 8.57312446864112,49.3274222045001,0 8.57307100226192,49.3273995350409,0 8.57301748015987,49.327376943193,0 8.57296390095415,49.327354431788,0 8.57291026309625,49.3273320036309,0 8.57285656518446,49.3273096615967,0 8.57280280508341,49.3272874083959,0 8.57274898142871,49.3272652469643,0 8.57269509261714,49.3272431802063,0 8.57264113673474,49.3272212110314,0 8.57258711230174,49.3271993426619,0 8.57253301025452,49.3271776166567,0 8.57247881959247,49.3271560937609,0 8.57242453160239,49.3271348348889,0 8.57237014080374,49.3271139013075,0 8.57231564410845,49.3270933544025,0 8.57226104136614,49.327073255762,0 8.57220633536618,49.3270536671368,0 8.57215153256952,49.3270346505458,0 8.57209664296419,49.3270162681953,0 8.57204167710611,49.3269985822812,0 8.57198662929682,49.3269816543118,0 8.57193168809715,49.3269655532675,0 8.57187683289294,49.3269503411714,0 8.5718218876731,49.3269360757911,0 8.57176667284939,49.3269228148261,0 8.57171097970269,49.3269106154322,0 8.57165455075057,49.326899534216,0 8.57159726664691,49.3268896277212,0 8.57153907897129,49.3268809515588,0 8.57148019278749,49.3268735515761,0 8.57142087575737,49.3268674694195,0 8.57136134468362,49.3268627521319,0 8.57130157917712,49.3268594821139,0 8.5712413830736,49.3268577757905,0 8.57118065411176,49.3268577278719,0 8.57111954236469,49.326859366285,0 8.57105802433039,49.3268627685808,0 8.57099624543115,49.3268679618681,0 8.57093437238878,49.3268749667934,0 8.57087268743905,49.3268837688655,0 8.57081127835162,49.3268944109527,0 8.5707505174528,49.3269068558086,0 8.57069063246431,49.3269210282341,0 8.57063177818538,49.3269368235617,0 8.57057438656538,49.3269540681355,0 8.57051867717385,49.3269726395967,0 8.57046489531728,49.3269924094944,0 8.57041323710068,49.327013260442,0 8.57036351447233,49.3270351596633,0 8.57031539506469,49.3270581049308,0 8.57026849585504,49.3270821045759,0 8.5702225590765,49.3271071412585,0 8.57017724153995,49.3271332152829,0 8.57013245371873,49.3271602720322,0 8.57008820779812,49.3271882332028,0 8.57004449762,49.3272170251406,0 8.57000132661265,49.3272465714383,0 8.56995868944638,49.3272767983038,0 8.56991656944079,49.3273076354404,0 8.56987494120485,49.3273390150591,0 8.56983377215257,49.3273708716854,0 8.56979302371852,49.3274031417177,0 8.56975267399101,49.3274357874383,0 8.56971269949799,49.3274687714027,0 8.56967307616745,49.3275020566148,0 8.5696337793342,49.327535606322,0 8.56959478393293,49.3275693838458,0 8.56955606493387,49.3276033526036,0 8.56951759725568,49.3276374759506,0 8.56947935590457,49.3276717171412,0 8.56944131618357,49.3277060393595,0 8.56940345374866,49.327740405743,0 8.56936574416519,49.3277747792779,0 8.56932816278919,49.3278091229195,0 8.56929068505127,49.3278433999641,0 8.56925328543688,49.3278775740706,0 8.56921593701789,49.327911609667,0 8.56917861073793,49.3279454724879,0 8.56914127432851,49.3279791302011,0 8.56910389137588,49.3280125533834,0 8.56906641984374,49.3280457164221,0 8.56902881103714,49.3280785987353,0 8.56899100874237,49.3281111859464,0 8.56895294844276,49.3281434706742,0 8.56891455788984,49.3281754532135,0 8.56887575787136,49.3282071412082,0 8.56883646351163,49.3282385482328,0 8.56879658711447,49.3282696917831,0 8.56875604032892,49.3283005898452,0 8.56871471517573,49.3283312518617,0 8.56867250715253,49.3283616813359,0 8.56862931788578,49.3283918720449,0 8.56858505577175,49.3284218045084,0 8.56853963726808,49.3284514444461,0 8.56849298456938,49.328480745637,0 8.56844502304727,49.3285096559185,0 8.56839570745609,49.3285380633667,0 8.56834493815027,49.3285659647381,0 8.5682926076481,49.3285933716116,0 8.56823880018283,49.3286199371143,0 8.56818354226301,49.3286454208832,0 8.56812696871019,49.328669384578,0 8.5680693826699,49.3286910832963,0 8.56801121516425,49.3287095363328,0 8.56795308645537,49.3287242889653,0 8.56789533330016,49.3287353819461,0 8.56783868537043,49.3287422154145,0 8.56778373004158,49.328744402909,0 8.56773018276383,49.3287427210458,0 8.56767831787277,49.328737307244,0 8.56762824150718,49.3287284609058,0 8.56758002009581,49.328716513329,0 8.56753398532662,49.3287016177151,0 8.56749042147313,49.328683953353,0 8.56744977841682,49.3286636239059,0 8.56741232384783,49.3286408007043,0 8.56737801263158,49.3286157469926,0 8.56734748355464,49.3285885755696,0 8.56732037722829,49.3285595493308,0 8.56729711098168,49.3285288661048,0 8.56727822943314,49.3284967212168,0 8.5672643987195,49.3284633155778,0 8.56725562479996,49.3284287800841,0 8.56725178916831,49.3283932255911,0 8.56725258606718,49.3283567239395,0 8.56725785230323,49.3283193821858,0 8.5672669514401,49.3282811760404,0 8.56727957935533,49.3282421804586,0 8.56729506479886,49.3282023556862,0 8.56731292399423,49.3281617220705,0 8.56733229728978,49.3281201777278,0 8.56735253407395,49.3280776891174,0 8.5673733870365,49.3280343547815,0 8.56739483414059,49.3279903475909,0 8.56741699723932,49.3279458882786,0 8.56743992984894,49.327901174559,0 8.56746368528237,49.3278564041023,0 8.56748847731017,49.3278118301973,0 8.56751462601114,49.3277677439619,0 8.56754247646407,49.3277244458289,0 8.56757212261407,49.3276821378653,0 8.56760366660913,49.3276410256278,0 8.56763744891072,49.3276014258822,0 8.56767361185317,49.3275635517495,0 8.56771248708706,49.3275277287033,0 8.56775458492366,49.3274944033119,0 8.56780012102466,49.3274637927821,0 8.56784897486198,49.3274358114529,0 8.56790075292921,49.3274100867618,0 8.56795499011996,49.3273861580733,0 8.56801117753811,49.3273635009223,0 8.56806893653575,49.3273418132619,0 8.56812802507424,49.3273210648549,0 8.5681881898042,49.3273011995961,0 8.56824910089794,49.3272819700099,0 8.56831043611751,49.327263148295,0 8.56837179153473,49.327244287063,0 8.56843271825836,49.3272248228665,0 8.56849276141564,49.3272041778735,0 8.56855163757234,49.327182149036,0 8.5686090460034,49.327158499481,0 8.56866464728077,49.3271329248617,0 8.56871816316216,49.3271052147554,0 8.56876952376951,49.3270754429819,0 8.56881865427955,49.3270436772752,0 8.56886555338142,49.3270100656326,0 8.56891044957955,49.3269749853238,0 8.56895387993707,49.3269391009207,0 8.56899627589582,49.3269029832144,0 8.56903774774378,49.3268669258388,0 8.56907824891936,49.3268310891984,0 8.56911771955129,49.3267956225287,0 8.56915600349847,49.3267605941595,0 8.5691929033587,49.326726037839,0 8.56922837203061,49.3266921126511,0 8.56926207939748,49.3266587430311,0 8.56929344343341,49.3266256458408,0 8.56932173605008,49.3265924182956,0 8.56934649247597,49.3265588702476,0 8.56936722386795,49.326524792759,0 8.5693837160792,49.3264901842053,0 8.56939622118304,49.3264553735717,0 8.56940522489607,49.3264208412743,0 8.56941081155623,49.326386837327,0 8.56941258792881,49.3263533765645,0 8.56940993730794,49.3263203829964,0 8.56940247326947,49.3262878546551,0 8.56938935310523,49.3262556795754,0 8.56937072867005,49.3262239122527,0 8.56934680311891,49.3261926122451,0 8.56931753264323,49.3261618305872,0 8.56928285160091,49.3261316187805,0 8.56924257151951,49.3261020376218,0 8.56919748502899,49.3260730311264,0 8.569148903863,49.32604446531,0 8.56909822155874,49.3260161920984,0 8.56904679223811,49.3259880705253,0 8.56899504658452,49.3259601429042,0 8.56894312188564,49.3259325135643,0 8.56889103574805,49.3259053138501,0 8.56883883316262,49.3258786685899,0 8.56878663344415,49.3258526839831,0 8.56873449855346,49.3258274813793,0 8.56868243521221,49.3258031973602,0 8.56863047644503,49.3257799608364,0 8.56857866544622,49.3257578976942,0 8.56852720080172,49.3257370854723,0 8.5684761316116,49.3257176495939,0 8.56842512282028,49.3256998423345,0 8.56837402987751,49.3256838521858,0 8.56832266707919,49.3256698816495,0 8.56827056005725,49.3256582340221,0 8.56821735923313,49.3256491670359,0 8.56816304519112,49.3256428089351,0 8.56810776324618,49.3256392178604,0 8.56805110909246,49.3256387083987,0 8.56799305578946,49.3256414023902,0 8.56793388451339,49.3256472533895,0 8.56787418106251,49.3256560390409,0 8.56781379237841,49.3256679765559,0 8.56775337557849,49.3256827908504,0 8.5676938123275,49.3257000488627,0 8.5676357122981,49.3257192868381,0 8.5675791766517,49.3257403447505,0 8.56752467066591,49.3257628485415,0 8.56747231134604,49.3257866250112,0 8.56742210810422,49.3258115620983,0 8.56737380973127,49.3258376945598,0 8.56732743794052,49.325864903187,0 8.56728299776581,49.3258930789059,0 8.56724047633879,49.325922122308,0 8.56719983853442,49.3259519467103,0 8.56716098297598,49.3259825031819,0 8.56712379855114,49.3260137484002,0 8.56708803378266,49.3260457190992,0 8.56705350450982,49.3260784134323,0 8.56702001269956,49.3261118376182,0 8.56698745995741,49.3261459397246,0 8.56695574766939,49.3261806678642,0 8.56692477362979,49.3262159723685,0 8.56689447296917,49.326251780712,0 8.56686479343629,49.3262880128699,0 8.56683565116698,49.326324608324,0 8.56680696711646,49.3263615036282,0 8.56677866027524,49.3263986367193,0 8.56675064712673,49.3264359469321,0 8.5667228420556,49.3264733752926,0 8.56669515669692,49.3265108643882,0 8.56666753345103,49.326548378711,0 8.56663996998969,49.3265859177558,0 8.56661246381267,49.3266234808701,0 8.56658501271228,49.3266610674477,0 8.5665576144801,49.3266986768109,0 8.56653026700239,49.3267363082463,0 8.56650296798749,49.3267739608816,0 8.56647571554027,49.3268116339356,0 8.56644850770876,49.3268493265191,0 8.56642134260092,49.3268870376952,0 8.56639421833933,49.3269247664506,0 8.56636713311142,49.3269625117172,0 8.56634008513329,49.3270002723582,0 8.56631307294128,49.3270380473077,0 8.56628609494763,49.3270758353438,0 8.5662591496791,49.3271136352174,0 8.56623223567882,49.3271514455844,0 8.56620535156514,49.32718926505,0 8.56617849606572,49.3272270921859,0 8.56615166798194,49.3272649255014,0 8.56612486612068,49.3273027634058,0 8.56609808946711,49.3273406043032,0 8.56607133685003,49.3273784464059,0 8.56604460740633,49.3274162880073,0 8.5660179001088,49.3274541271612,0 8.56599121496358,49.3274919611836,0 8.56596455185561,49.3275297877891,0 8.56593790723105,49.3275676077546,0 8.56591127170216,49.3276054289536,0 8.56588465048947,49.327643241946,0 8.56585805301444,49.3276810324106,0 8.56583147477705,49.3277188029668,0 8.56580492380009,49.3277565405186,0</coordinates>
      </LineString>
    </Placemark>
  </Document>
</kml>