xpos,ypos,zpos,time
-616.546663452644,-219.703671521813,106.537997058256,0
-618.602506748802,-215.570438302663,106.490287977445,0.104294292328049
-620.659222848181,-211.435827669608,106.53330226953,0.207468981429457
-622.716783675175,-207.300324091378,106.549812904711,0.309570015822871
-624.775318159278,-203.164079752362,106.613308464428,0.410662056308965
-626.834989855595,-199.027171764856,106.609675139844,0.510776663033482
-628.895945115487,-194.889715469845,106.689824586593,0.609983787176276
-630.95831687564,-190.751856772085,106.718231327591,0.708297233144407
-633.022246062224,-186.613722907166,106.749294702057,0.805769810459878
-635.087872478181,-182.475443803355,106.486513632497,0.902590938260317
-637.155339907203,-178.337139595758,106.196372919561,0.998673320320378
-639.224802377831,-174.19890454702,105.954760432021,1.09395882976037
-641.296376058696,-170.060931103043,105.712143805389,1.18853546334512
-643.370184029809,-165.923393297225,105.469858384816,1.28242937041101
-645.446404027527,-161.786315529945,105.251490653232,1.3756461741845
-647.525259726386,-157.649592918581,105.145769973008,1.46816177111442
-649.607003098542,-153.513038685295,104.915458661098,1.56017531475949
-651.691894236066,-149.37644187527,104.604240091423,1.65171834849913
-653.780182426989,-145.239624649573,104.15332746881,1.74294779172743
-655.872077864223,-141.102532621092,103.688565603628,1.83368727963244
-657.96771026831,-136.965373425734,103.175260332007,1.9240257564023
-660.067200867602,-132.828383241028,102.653282004764,2.01389821032734
-662.170676988128,-128.691777067822,102.080476568257,2.10341519833599
-664.278255321275,-124.555808111654,101.454401142878,2.19260538484707
-666.390047660055,-120.420747801692,101.316732727895,2.28059547181341
-668.506164341913,-116.286873182693,101.192145510713,2.36815382675222
-670.626713488196,-112.154470180322,101.017934102227,2.45532832826129
-672.751789370059,-108.023882485965,100.802704661583,2.54213018880137
-674.881502582973,-103.895382782829,100.613021045681,2.62851664463855
-677.015971480303,-99.7692084866982,100.472075933662,2.71448678129974
-679.155270579682,-95.6458056856101,100.258293412728,2.80012991353534
-681.299432839157,-91.5258280375186,100.283627878644,2.8853076575305
-683.448482830437,-87.4099732299068,100.395079527977,2.97013331077309
-685.602462657842,-83.2988420004681,100.50678628143,3.05458581442269
-687.761451795079,-79.1928170437734,100.618751049864,3.13867079691119
-689.925579531845,-75.0919738599561,100.730980217991,3.22239884654365
-692.095049802552,-70.9959008305193,100.843483152011,3.30578848499142
-694.270105744667,-66.9039149836938,100.956273341376,3.3893933527186
-696.450463482966,-62.8152815171285,101.099606240707,3.47444667265459
-698.632786219246,-58.7289245316711,101.157789833269,3.56164059907296
-700.80663043651,-54.6430862088273,101.219519832284,3.65107417773172
-702.961518573361,-50.556312902234,101.370416739371,3.74285456275453
-705.086931758514,-46.4675505511086,101.422568979676,3.83696664290476
-707.172335242637,-42.3759129730754,101.470439692919,3.93352900084511
-709.20719448312,-38.280511567651,101.512901200404,4.03263322241314
-711.180906468316,-34.1813565313886,101.648843713173,4.13421883130421
-713.082792371397,-30.0795956674079,101.677204568807,4.23802227977275
-714.902118181569,-25.9773462989618,101.725406294034,4.34404341811464
-716.628113976746,-21.877489433341,101.807103727239,4.45222982374821
-718.249991186671,-17.7834103016385,101.830095761325,4.56248221773176
-719.756948578661,-13.698966345595,101.894649003108,4.67474713338127
-721.138181704568,-9.62820944731504,101.870129172405,4.78891816085874
-722.382882495796,-5.57578631486672,101.832166912041,4.90495803604804
-723.480331157735,-1.5639714703583,101.780571162942,5.02238694370791
-724.419934403024,2.37766240192343,101.715453359508,5.14010731405178
-725.187984884687,6.32093604044849,101.732425508162,5.25923759196309
-725.767835515699,10.4001849580395,101.624209031443,5.38365337997222
-726.145838429955,14.6984615224997,101.485947119561,5.51386142425717
-726.314342529164,19.1914954978171,101.417849778729,5.64649561310195
-726.271352554556,23.697655155741,101.227216705547,5.77692258166387
-726.020620760502,28.0528221338261,101.033596783513,5.90329538821128
-725.570311361807,32.2317120517151,100.901729453866,6.02483597665781
-724.933177240367,36.2974335088102,100.81964503966,6.14148506824475
-724.12583294467,40.3806227105982,100.667165657642,6.25737541209583
-723.159695614587,44.5065878210964,100.548394014569,6.37320171011002
-722.044169186355,48.6498416288179,100.403910647135,6.48843371375351
-720.789245011118,52.802410259632,100.305577199991,6.60290866503783
-719.405102759309,56.9630149687914,100.151781925958,6.71674151439876
-717.901874678005,61.1283419416427,100.073145431419,6.82980641038866
-716.289732445806,65.2971649921269,100.136064614553,6.94214988466592
-714.578843708815,69.4679863597185,100.218496077567,7.05376467192637
-712.779377167884,73.6393991467656,100.323178626836,7.16462229741198
-710.90150714418,77.8105804576805,100.421394197123,7.27467893059358
-708.955411555285,81.9811043305692,100.566498812653,7.38393010894769
-706.95127141944,86.150854614721,100.685707445101,7.49229320110108
-704.899296755575,90.3220364385458,100.913877050335,7.59989506866386
-702.800914023305,94.4976635034277,101.056364463989,7.70667494811472
-700.657526956015,98.6796588058568,101.178712249489,7.81278209459515
-698.470477298277,102.867435062726,101.350735500998,7.91829149400927
-696.241013475551,107.05697385698,101.479531793637,8.02309693165634
-693.970304591614,111.241341619276,101.626153471427,8.12714556889446
-691.659492528723,115.412466702259,101.917599297068,8.23045660982
-689.309705219228,119.561482289353,102.126740028573,8.33267005050055
-686.922059597519,123.678293142064,102.403354119588,8.43381281557484
-684.497670380297,127.755972741685,102.596850505375,8.53364860679845
-682.037614760912,131.791338083838,102.690456847395,8.63219466427519
-679.542949300887,135.782329658982,102.841442263277,8.72955705837722
-677.01469001667,139.728467219638,102.906585226451,8.825701655625
-674.453723771834,143.633253514374,102.949572751978,8.92076741903738
-671.860869010826,147.501946476574,102.94900039671,9.01488288923777
-669.237168456426,151.334835922048,102.948427298461,9.10808790482055
-666.583803386384,155.129491934669,102.996990422965,9.20037483557647
-663.901789307717,158.886402185075,103.15123108736,9.29182004198258
-661.192091445133,162.606851712865,103.246707166543,9.38239243617363
-658.455760661882,166.290916484027,103.355215603883,9.47215286669935
-655.694043730285,169.936230979788,103.49424971359,9.56109343508176
-652.907881756236,173.543875132699,103.552950162191,9.649202259611
-650.098087601891,177.116289804093,103.532296506897,9.73656435250975
-647.265649399272,180.654070769528,103.485447270403,9.82321483913429
-644.411361969182,184.159966561363,103.435528011851,9.90920787301737
-641.535778987426,187.639800873417,103.352915449287,9.99465400081407
-638.63947374418,191.099078651683,103.319610827015,10.0796252735304
-635.723100941697,194.541314001281,103.311841170372,10.1641915984663
-632.787341562634,197.968511612252,103.349417680585,10.2483939872039
-629.832879340568,201.38295222518,103.357576766923,10.3322652003521
-626.860334791615,204.785343524253,103.375104465013,10.4158242298737
-623.870256241089,208.175385159096,103.301421616179,10.4990828945982
-620.863132191383,211.552195589611,103.206731497581,10.5820321853308
-617.839488077443,214.915170717282,103.143483690158,10.6646524149027
-614.800016506928,218.264740207685,102.990352829624,10.7470018878378
-611.745791075881,221.603347670137,102.830983118841,10.8290759761068
-608.678611959619,224.936787897572,102.729355403461,10.9109059263841
-605.600114641741,228.270186105467,102.686096389964,10.9925616017263
-602.51133560966,231.606502896272,102.642059501484,11.0740938103948
-599.412998531528,234.947683847421,102.672693800145,11.1555239667998
-596.305399328279,238.294413477419,102.709987771304,11.2368666496782
-593.188371233854,241.646119381822,102.712214297839,11.3181189783415
-590.061363152303,245.001251547413,102.668563209964,11.3992798979895
-586.922939014948,248.356114322135,102.626481981057,11.4803211425344
-583.774034654027,251.712590886315,102.600467099166,11.5612599813636
-580.614780048119,255.070582577646,102.573966946361,11.642101556094
-577.444405978499,258.42770424413,102.491342380862,11.7228419817716
-574.261335613018,261.779853955865,102.418866653248,11.8034395078922
-571.071635461927,265.132064378585,102.400675130689,11.8838846572193
-567.877451015251,268.484079357574,102.468544796392,11.9641714394672
-564.680565345127,271.83396585679,102.609407986895,12.0442803846048
-561.481936585976,275.181553212717,102.819200154734,12.1242200886938
-558.282054429471,278.527077154606,103.094253745171,12.204006799272
-555.081179380096,281.870900241362,103.441055251869,12.2836708921326
-551.878548452632,285.213816053081,103.734981128257,12.3630911988662
-548.674075826952,288.55636789132,103.92649015477,12.4422516616863
-545.467661161021,291.89910464045,104.193602412563,12.521320493561
-542.259528257948,295.242443320442,104.350385995061,12.6001551540354
-539.050781262729,298.586430549991,104.500928796916,12.6788301726208
-535.842971085983,301.93092283713,104.593985652781,12.7573079433483
-532.638054804658,305.275604915751,104.811525670433,12.8356621263069
-529.437247649675,308.620121782546,105.186386052232,12.9139771540341
-526.240757736563,311.964537747311,105.593960396548,12.9921323345349
-523.048096186162,315.309206109411,105.926695846788,13.0699951249831
-519.858393643529,318.65463713006,106.146755398402,13.1475736646811
-516.670988302351,322.001255987849,106.342647263027,13.2249793856885
-513.485743602051,325.349274209398,106.486850289357,13.3022065357567
-510.302385205913,328.698958860506,106.706908578345,13.3793465676328
-507.120473561437,332.050642960657,106.927011049764,13.4563619677016
-503.939723755031,335.404598418024,107.202253775372,13.5333114201552
-500.760053573909,338.76101786259,107.521292544396,13.6101986705982
-497.581535900284,342.120033920393,107.808058662655,13.686945840506
-494.404355540199,345.481736406366,108.11395772715,13.7636100669879
-491.228752489249,348.846194273094,108.467758031031,13.8402282272795
-488.054933647029,352.213488833488,108.852969815392,13.9167865446064
-484.882922532017,355.583769055324,109.320906958673,13.9933728301328
-481.712550984261,358.957253763837,109.688802469832,14.0697211703589
-478.543706961936,362.334141577713,110.156672209975,14.1461333583038
-475.376304924506,365.714621686916,110.524538400143,14.2223200399045
-472.210251535691,369.098886021998,110.992419669772,14.2993772055397
-469.045443238406,372.487130063493,111.186474939778,14.377785321226
-465.881766816397,375.879552605731,111.292624207684,14.4580143059016
-462.719229356903,379.276311691704,111.312861367412,14.5401910897265
-459.557451577416,382.677694526142,111.269603791875,14.6244549955841
-456.395445055567,386.084189183275,111.152466749605,14.710965895047
-453.233245918949,389.495950632788,110.961796275519,14.7998828996124
-450.072153818706,392.91272912144,110.816866356153,14.8912553859801
-446.914213542587,396.33403991371,110.598284925438,14.9853004857169
-443.761660365665,399.759339146269,110.479094990462,15.0820258660289
-440.616372380509,403.188192137599,110.330213007482,15.1816850578598
-437.479351781039,406.620428197832,110.156035578723,15.2844829394256
-434.344803278026,410.039169080884,109.954959227598,15.3904774843323
-431.205209884183,413.426519009893,109.565190414521,15.5000063700983
-428.053512482801,416.764448307016,109.079735083997,15.6131104844984
-424.88297885239,420.034832326803,108.644585820739,15.7293638209852
-421.686990029366,423.219513711456,108.11876483016,15.8489749503361
-418.459115711189,426.300280908496,107.692707082453,15.9713563541373
-415.193218637334,429.258838651084,107.233056850549,16.0968158489674
-411.883349519846,432.076838297423,107.030606010216,16.2246323085049
-408.524107226562,434.735776637044,107.132800480458,16.355202487009
-405.113652363761,437.216153973769,107.338440105252,16.4886752170889
-401.653798006632,439.497458026367,107.598646088053,16.6249003839174
-398.14786360544,441.558764715413,107.856315909607,16.763655421556
-394.613789317055,443.37524277729,108.106128558218,16.9040136612733
-390.962231140589,444.949700210897,108.455151329736,17.0494058680654
-387.028615805873,446.303612120977,108.723076657636,17.2076389815377
-382.667953983343,447.453587625107,109.103895708767,17.3900308167721
-377.999349392181,448.346319266589,109.53583291681,17.5981677928369
-373.386861042633,448.85538386583,109.936893391533,17.8203122953396
-369.250957246601,448.838382021137,110.369717573763,18.0362508346876
-365.656059754244,448.28061589002,110.790642038956,18.2397118096337
-362.533719370035,447.213942472292,111.123373486004,18.4367037670045
-359.740048210488,445.694124035088,111.420479701348,18.6264061595617
-357.135924847191,443.775634910725,111.612187598374,18.8054060516964
-354.617556435242,441.505181891337,111.867275775497,18.9812131222307
-352.13932193544,438.919517008763,112.131777604557,19.1552760742673
-349.735973028794,436.045250776403,112.263392555596,19.3263119709199
-347.45814844518,432.907665594067,112.375834149184,19.4938085991215
-345.314637263932,429.53386858701,112.598983952151,19.6582087926435
-343.354173855779,425.950770603565,112.774052102975,19.8186137799254
-341.604076964641,422.184587105672,112.910920235563,19.9750682878884
-340.066431844811,418.259718701171,113.045795119955,20.1279160431418
-338.709620896756,414.196686932813,113.187327384553,20.277752747231
-337.498572800836,410.015456826639,113.313734321678,20.4248494771324
-336.479112502347,405.752931096311,113.42025043845,20.5682321320101
-335.643787998292,401.432321012401,113.507646073756,20.7079801856649
-334.974332138608,397.073607227701,113.577815832561,20.8441915856241
-334.45858805699,392.698795586873,113.671809736011,20.9767779532754
-334.08572772364,388.330364000012,113.701490481449,21.1055363104211
-333.817171910704,383.9804977188,113.723042741396,21.2306178802461
-333.59411626649,379.653738786208,113.758406107061,21.3552921144338
-333.369238721286,375.358930548047,113.770710766238,21.4837329547682
-333.156656898265,371.127133929331,113.782365333678,21.616460765872
-332.877835836714,366.95812980692,113.799881225084,21.7537705943947
-332.460782232989,362.853661535746,113.831728761692,21.8955918212989
-331.830435549402,358.814703374234,113.881392206926,22.0419386618843
-330.933274446211,354.846383581351,113.9518207563,22.1925932700151
-329.705027152077,350.952421385753,114.048018848244,22.3488920883683
-328.135023665479,347.140256381139,114.146389718696,22.5066934816542
-326.259088201284,343.417778190687,114.244251944056,22.6615780706698
-324.101060677101,339.793446729513,114.25673328846,22.8194252110065
-321.588361394266,336.285863514552,114.387596053744,22.9807807315156
-318.715994317212,332.902539094905,114.411027638779,23.1406469297163
-315.479891101008,329.650779327148,114.452153828861,23.3003077302298
-311.919727328245,326.526012767628,114.45589640286,23.4597090009178
-308.102548542486,323.511954450886,114.530920465197,23.6180064381189
-304.160965122574,320.563875845677,114.464417746367,23.7729931745989
-300.192351744051,317.649051823433,114.394883517037,23.9232016851498
-296.216386167589,314.76101384703,114.305392637467,24.0687644289004
-292.233168077445,311.899785153932,114.17304623825,24.2101625025137
-288.254793523376,309.061497194476,114.103287536497,24.3475154141107
-284.275291634787,306.248011122422,114.053507409656,24.4813078854733
-280.287265223158,303.461631882761,113.916229350236,24.6120143986448
-276.289790984714,300.70268147408,113.78282849338,24.7398533335117
-272.288845691402,297.969397209307,113.577001632979,24.8650129444967
-268.286040473476,295.261319354244,113.34611827128,24.9876273546945
-264.281624744286,292.578390676213,113.118376574362,25.1078378185118
-260.274232300941,289.921027999303,112.796251551418,25.2259607931981
-256.261642357506,287.289897588967,112.466664100137,25.3420517612799
-252.241483215438,284.685709607799,112.141703353995,25.4562561464212
-248.211897769314,282.109024936614,111.823008722493,25.5687155119349
-244.171147308549,279.560370204934,111.61273637626,25.6794325680247
-240.117927712763,277.040146722208,111.464905506676,25.7886091318387
-236.051569354315,274.548573549217,111.439487766738,25.8963449721073
-231.972178374118,272.085647960239,111.356071884045,26.0027817447441
-227.880786443594,269.651104067579,111.261566870736,26.1079643444603
-223.779145245003,267.244472539455,111.17376359059,26.2119244262894
-219.668789211128,264.865344977872,111.049775668662,26.3147203973358
-215.550983982604,262.513387697727,110.865792295516,26.416414538673
-211.426664371436,260.188357970812,110.742790593975,26.5169628045415
-207.296496383982,257.890086021935,110.802741896785,26.616422789177
-203.161032367178,255.61843246143,111.023844327343,26.7149593226244
-199.020872761139,253.373245262049,111.288093266833,26.8125525838745
-194.876845696134,251.154313714947,111.643441357737,26.90930808935
-190.729935652283,248.961387675542,112.087268458069,27.0052787702389
-186.581196105495,246.794200005598,112.33363112343,27.100039487961
-182.431701549185,244.652478523147,112.612882885431,27.1939423966641
-178.282362096139,242.535989402607,112.869509358271,27.2869440773542
-174.134074066038,240.444501942167,113.138462527519,27.3791026477196
-169.987518876763,238.377832602081,113.410745460503,27.4704280488031
-165.842808412476,236.33591881433,113.715041138497,27.5609826894062
-161.69939349257,234.318833824735,114.004509541085,27.6507450590357
-157.556106008073,232.326773858223,114.281144556677,27.7397629602655
-153.411323006511,230.360022569494,114.549595064736,27.8280923829462
-149.263054494344,228.418931890514,114.780280470496,27.9157577918586
-145.109165194071,226.503879910564,114.943933548091,28.0027991217865
-140.947711501013,224.615211331862,115.082088988077,28.0893066048929
-136.777058033748,222.753218966727,115.186625331004,28.1753243504669
-132.596447677737,220.918052978002,115.321142105655,28.2609138689803
-128.405794558883,219.109758631922,115.373002844398,28.3460473892636
-124.205482907499,217.328310742915,115.370694933588,28.4307613732451
-119.996195254271,215.573641407791,115.434475441136,28.5150743960944
-115.778567503483,213.845689079382,115.477319995783,28.5989787595161
-111.552615406553,212.144472353671,115.489931948559,28.682490182905
-107.317757808239,210.470082622927,115.445386672339,28.7656393488219
-103.073135114301,208.822643166435,115.309192574044,28.8484831683721
-98.8180447235598,207.202260478406,115.259244781285,28.9309809986175
-94.5514628974445,205.609072883693,115.216620843475,29.0131928306376
-90.2729103224789,204.043169063151,115.151680876913,29.0951446001115
-85.98251863439,202.504586788433,115.086729551424,29.1768410092348
-81.6808064956754,200.993334501777,114.961716397503,29.2583071481897
-77.3682541190828,199.509423284728,114.863563750492,29.3395120108247
-73.0453429702064,198.05286414132,114.803094936666,29.4204585791187
-68.7124174190603,196.623675660112,114.700149903777,29.5011767793724
-64.369556865615,195.221889355273,114.584125247845,29.5816675315956
-60.0164948438335,193.847551248143,114.470359214276,29.6619386302508
-55.653155337862,192.500700783136,114.372436920121,29.7419955625476
-51.2796096168581,191.181373511454,114.29808460392,29.821845245169
-46.8958553026711,189.889606286599,114.109175461947,29.9015620680418
-42.5017980786228,188.625436732444,113.842626611321,29.9811658174469
-38.0973816729251,187.388902524558,113.535603111439,30.0606425434971
-33.6827474765,186.180043596524,113.255802089872,30.1399242239602
-29.2581291634817,184.998901888587,112.976614391626,30.2190448669667
-24.8236671554876,183.84551632712,112.912186433449,30.2978726977031
-20.379879710081,182.719942155215,112.865257895226,30.3765423080366
-15.9275485626084,181.622248935383,112.857740651573,30.4550480458871
-11.467817279067,180.552529993643,112.881104147291,30.533383330007
-7.00139209600957,179.510844996174,112.950819433206,30.6115510585903
-2.52841854053815,178.497204270292,113.15302453661,30.6896150437031
1.95154568635098,177.511560129837,113.385329785185,30.7675474125716
6.43935066248741,176.55382037077,113.618038432845,30.8453459134553
10.9360945498889,175.623863115029,113.851203940597,30.9230361886907
15.4420954233135,174.721668043069,114.084840577393,31.0006303785192
19.9564229476259,173.847390882207,114.318902686162,31.0781192619113
24.4775439072368,173.00127906998,114.553312068448,31.1554833567021
29.0050107508961,172.183402667858,114.788039845201,31.2327216761272
33.5398665824315,171.393571256407,115.023147677616,31.3098585027465
38.083518704909,170.631526547628,115.316167342009,31.3869789721167
42.636053101341,169.897272278003,115.654991304333,31.4640871502279
47.1968069369428,169.190969875491,116.009951295503,31.5411454328769
51.7644084277938,168.512938844595,116.36835029416,31.6181206837797
56.3370737465228,167.863595600943,116.73465685208,31.6949945263172
60.9138104809463,167.243161084788,117.077489379404,31.7717162309665
65.4943448148704,166.651670670963,117.433959210548,31.8483341088912
70.078602123521,166.089106119711,117.717224963741,31.9247523785293
74.6671286317685,165.555275204991,117.93007172996,32.0010076529634
79.2606283682278,165.049939681982,117.981011879429,32.0771039424068
83.8608306917486,164.572550364288,118.068194301677,32.1531610459692
88.4699924140814,164.122391899738,118.134823721071,32.2292076183629
93.0893622040048,163.699078520044,118.1667857448,32.3052690490172
97.7164081679186,163.303506104704,118.166069372958,32.3813117131223
102.347284666932,162.937032158501,118.165345321381,32.4572778831118
106.979076812908,162.600675494774,118.164614037299,32.5331241603335
111.61182518246,162.294342270142,118.110955110411,32.6088618925151
116.247645431396,162.01713186465,118.092007362174,32.6845222876478
120.889502168459,161.76780359242,117.986896513722,32.7601827632511
125.540006686243,161.545262267732,117.946703140623,32.8358559250092
130.199387601878,161.349419858231,117.862093674254,32.9115759066801
134.862466614833,161.182532474499,117.860068334861,32.9872395563705
139.525184497284,161.046358557542,117.859284198824,33.0627975553221
144.186231202394,160.941402573984,117.85849330198,33.1382337894919
148.846084524109,160.867333232483,117.857695126443,33.2135614118403
153.50647954958,160.82321786264,117.815130077381,33.2888168931591
158.169730818744,160.807840795607,117.714420120136,33.3640537207316
162.83794427213,160.820090170541,117.591807138547,33.4393041977123
167.512215050849,160.859365913219,117.473685849643,33.514579607732
172.192311859925,160.925751023508,117.414122058392,33.5898641127028
176.877319407475,161.019687056414,117.563823164618,33.6651972306563
181.565042737121,161.142299319927,117.801630132778,33.7405741029557
186.252437636987,161.295175944586,118.038166392409,33.8158914852416
190.936440436095,161.479915875949,118.252521411235,33.8910899745191
195.61437591293,161.697898090289,118.406552569553,33.9661120601935
200.286544060297,161.948788011848,118.638237835028,34.041056793907
204.95619457974,162.230527462245,118.868515406999,34.1159269694802
209.625910853685,162.541452700024,119.097588887615,34.1907667382424
214.294704429735,162.88204272644,119.21838639551,34.2655015235875
218.958935928586,163.254390748422,119.308746903926,34.3401340692641
223.613995964886,163.661190477825,119.348234079696,34.4145994816321
228.255858155147,164.104768443391,119.413592682259,34.4888590045162
232.882385590536,164.586241872044,119.503602029545,34.5628890030801
237.498895333399,165.101892347362,119.336733084588,34.6368008983386
242.112858105701,165.646590269056,119.195587706671,34.7106610826823
246.726412917764,166.218726965226,119.073832978765,34.7845089137337
251.337716561752,166.819343049396,118.928324106284,34.8583405883791
255.942690445693,167.450977512722,118.625064576059,34.9322110341123
260.536441710323,168.116719102086,118.344914085174,35.0059115154205
265.114922593971,168.81895475421,118.007950166419,35.0794726940196
269.678697540902,169.556927298131,117.651127838875,35.1528714984485
274.231291060898,170.327859881116,117.395169806657,35.2260323074967
278.774193971673,171.130362255225,117.335612658713,35.2989791080372
283.305602178948,171.965289896936,117.253680098067,35.3718025234887
287.82260730755,172.834251935465,117.176939649662,35.4444603793615
292.322584631775,173.738663289442,117.19033663089,35.5169135850339
296.805614744887,174.678078080917,117.277692988331,35.5891906271517
301.274708550535,175.650025479949,117.388136264321,35.6613305652431
305.735103680374,176.650490367017,117.456887890091,35.7333843718276
310.189136547882,177.677473577195,117.598157359717,35.8054237752384
314.636630251733,178.730723295545,117.729463158372,35.8774175261398
319.075930239219,179.811014703276,118.119065125682,35.9495823580114
323.504444826198,180.919773792999,118.569130615866,36.0217435014008
327.920197843083,182.057999601196,119.026930666352,36.0938037747841
332.321944702421,183.226184321855,119.57873587705,36.1659012609402
336.708177865769,184.425002208214,119.876434533638,36.2374867663807
341.076988866961,185.655405305925,120.152161837366,36.3088892912613
345.427025089324,186.91795962335,120.377247357417,36.380073859189
349.758153477012,188.212381040966,120.601345972006,36.4510855346759
354.071698077179,189.537365164886,120.715275598749,36.5218794854779
358.371050538997,190.890153435436,120.581463887122,36.5925713817495
362.660710170531,192.267205574806,120.306269016288,36.6633071541085
366.942990398445,193.666527670334,120.013657742844,36.7340311025509
371.218256275719,195.087506682021,119.720696000232,36.8047312480795
375.48570315661,196.530359502563,119.316205195017,36.8755334462514
379.744389963981,197.995399841183,118.912009127963,36.9462925919147
383.993905413709,199.482565736857,118.407847085273,37.0171621357546
388.235069507296,200.990923469018,117.903678285258,37.0879947392099
392.471067629508,202.517867727341,117.499279368544,37.1586689530427
396.706552131611,204.059758092215,117.119967832402,37.2293578424967
400.946840775426,205.61248479726,116.834488544074,37.3000445863733
405.19621217206,207.172672005068,116.54822372392,37.3708828177213
409.457500910234,208.737966804124,116.306956489695,37.4418601502582
413.732101266931,210.307040941985,116.078538755388,37.5130206569415
418.019640123476,211.879829708486,115.901195325208,37.5843337800219
422.318185923937,213.457387854883,115.823364234732,37.6557694240006
426.624906952765,215.041419355814,115.79671070472,37.727329857307
430.937605739312,216.633169281704,115.795568207453,37.7989978844302
435.2555236254,218.232838844741,115.79442027964,37.8707651036901
439.578119023017,219.840471344066,115.793267118429,37.9426242519413
443.905133201913,221.455903631912,115.892108558959,38.0145875532688
448.236441996391,223.078873958229,115.935346347755,38.0866223862549
452.572093481703,224.708993795334,116.014005108903,38.1587483045168
456.912099025136,226.345901763497,116.16530656951,38.2309846224734
461.25630404802,227.989359800847,116.231808308889,38.3032691592815
465.604746337211,229.638986219091,116.286237008266,38.3756292642228
469.957509620443,231.294364866623,116.285047293078,38.4480617040774
474.314640622875,232.955107482317,116.332735756283,38.5205740825623
478.676062656231,234.620919276372,116.295746067552,38.5931586670681
483.041566241862,236.291606525615,116.067595672057,38.665897370824
487.410992959539,237.966936452781,115.93923342793,38.7386435517682
491.78419164206,239.64667070491,115.735131327988,38.8114948245161
496.161007134777,241.330574009897,115.623668852989,38.8843577625486
500.541279817053,243.018414563846,115.639894142253,38.957257390485
504.924844895114,244.709964600751,115.641299735808,39.0302100402316
509.311531628553,246.40500102002,115.771338756281,39.1032406014394
513.70116551277,248.103303689317,115.696292842195,39.1762990707006
518.093570643256,249.80465358582,115.474725436657,39.2494720914491
522.488567181635,251.508834820287,115.073538638483,39.3228681312446
526.885972231994,253.215633951184,114.729370526738,39.3962301460445
531.285598090275,254.9248414052,114.399625208373,39.4696083151747
535.687252239966,256.636251499613,114.140522258816,39.5429467608262
540.090736538422,258.349663121974,114.0702176345,39.6162080243032
544.495845606655,260.064881065883,114.020748168354,39.689486220876
548.902368529713,261.781714664093,113.979971131626,39.7627802846627
553.310091454169,263.499975669605,113.934883186337,39.8360882015071
557.718812694176,265.219465769619,113.919371028425,39.9094026409852
562.128373917632,266.939950633336,113.830548465303,39.9827356814631
566.538467238414,268.661320689224,113.722431110937,40.0560761881099
570.948655460749,270.383574665172,113.562790102595,40.1294344104281
575.35845601106,272.10674944028,113.503207612301,40.2027454160865
579.767413890014,273.83085862374,113.375923815605,40.2762685198412
584.175164827465,275.555838978279,113.284287897071,40.3507615999461
588.581486066355,277.281506980295,113.124976030291,40.4269009630081
592.986333587955,279.007526655865,112.920341736322,40.5047611808397
597.389830859033,280.733418709654,112.706579194569,40.5844030689126
601.792045268804,282.458751981011,112.272588610984,40.6661705416933
606.193022858341,284.183113686108,111.913671139664,40.749798614126
610.592796628556,285.906102295832,111.57731382571,40.8354696539158
614.991385803252,287.627328200002,111.233362319313,40.9233389882924
619.388804630427,289.346406102147,111.062068583392,41.0133436636637
623.785067757176,291.062950359162,111.017149517919,41.105739911989
628.18020072611,292.776565849281,110.972137035514,41.2007395440015
632.574239272536,294.486848570196,110.927014251138,41.2985189344783
636.967214188256,296.193398832877,110.98976975229,41.3992809272657
641.359200264898,297.895778502575,111.203933265232,41.5033466065053
645.752422700376,299.591667688584,111.49281696931,41.611003475373
650.145808725827,301.281636958867,111.808485905983,41.7224898099381
654.534618423196,302.96947702629,112.124859337064,41.8380407355468
658.912632334443,304.660280580448,112.490348949435,41.9580432757506
663.274280246305,306.358567915111,112.855612021323,42.0827744067991
667.616441079921,308.066698061516,113.178622820844,42.2126246297174
671.939845344047,309.78363309458,113.459986739008,42.3482426767788
676.242990303143,311.495966810827,113.682349174832,42.4901877244873
680.508001798384,313.160582069824,113.902740576482,42.6383465388843
684.715897368862,314.735328178016,114.071031795296,42.7923274773411
688.846636040149,316.178973058945,114.233657070702,42.9518034343163
692.879373888888,317.45097899462,114.442075406706,43.1164562575244
696.780842871117,318.521537289383,114.643728475532,43.2854555842025
700.51649913295,319.361942862257,114.776978237751,43.4574215347009
704.086198974428,319.913599534726,114.921393036049,43.6317997239392
707.498416252687,320.110370414203,115.018654759519,43.8078832731989
710.772528492638,319.876445705956,115.11260917589,43.9879101044974
713.842169187777,319.214184846609,115.219010608644,44.172690936031
716.602043064894,318.163421327297,115.333499981615,44.3595821344439
718.995357617005,316.712185155444,115.374885204093,44.5483601373573
720.98931991964,314.818206841992,115.400899947331,44.7488333810817
722.636607129032,312.303317371156,115.426979416404,44.9678767590635
724.006738444789,308.953782434026,115.34976770282,45.2052554231664
725.023168822207,304.96728202829,114.96018699829,45.4481733508661
725.481104251638,301.179023053819,114.468511088195,45.6726004145674
725.330156008342,297.86796904608,114.067576019478,45.8861134922196
724.612624311304,294.934275410809,113.642856467113,46.0802366600653
723.390764596489,292.172178918837,113.365692328951,46.2584121365706
721.711755825202,289.502509129709,113.123850349849,46.4331958265054
719.618853120036,286.911042431921,112.869386087368,46.6068356932084
717.154261922164,284.42776614637,112.603612510347,46.7786280091666
714.361153325864,281.994650004649,112.158763515932,46.9509208805378
711.282747868941,279.548101504948,111.697513563754,47.1234770008342
707.96151652297,277.0936713535,111.222744387477,47.2949106133855
704.440345119212,274.602566277302,110.73310064876,47.4649034745313
700.7613588841,272.10404638244,110.234379733538,47.6319227580405
696.966947203666,269.606117244207,109.795273165687,47.7948964110781
693.099643037037,267.104423390996,109.387485842368,47.9534348609351
689.201920131278,264.599975369447,109.079363006836,48.1068089399253
685.302773289314,262.093141161296,108.770934796615,48.2551189412886
681.402109509837,259.583970201778,108.462214718269,48.398931217139
677.499835792003,257.072511660069,108.114406165108,48.5387992160095
673.595859106621,254.55881795804,107.743934072123,48.6750860306267
669.690086401722,252.042944396088,107.40107898774,48.8080197133537
665.782424612988,249.524947992495,107.094974906423,48.9378856036973
661.872780656189,247.004888908869,106.814477816647,49.0649682812069
657.961061457399,244.482825410715,106.604144629852,49.1894375833993
654.047173953021,241.958813532784,106.472562196963,49.3115156170884
650.131025067796,239.432912363993,106.469396772834,49.4314056725105
646.212521730218,236.905179681549,106.366199964905,49.5493391450356
642.291570852708,234.37568151526,106.362982200429,49.6653958897938
638.368079347816,231.844483726697,106.315791077093,49.7797344984425
634.44195412837,229.311654928699,106.430833368326,49.8924890076991
630.513102112953,226.777268501628,106.734018047908,50.0039302904005
626.58143021722,224.241396597223,107.037437713241,50.1139471171699
622.646845317501,221.7041004304,107.405843435236,50.22273109768
618.709254307353,219.165444747848,107.745080929056,50.3302003241929
614.768564140916,216.625504014358,107.915157278369,50.4362712703653
610.824681865545,214.084364864567,107.849240670606,50.5411623200705
606.877514557852,211.542117126463,107.674470775763,50.6450545722863
602.926969364841,208.998857179901,107.669560927671,50.7478703100701
598.972953525111,206.454688785439,107.689499988926,50.8497341393519
595.015374278247,203.909715773452,107.709626269454,50.9506931030723
591.054138800547,201.364038021142,107.81010590072,51.050813637926
587.089154412103,198.817763417386,107.959024088592,51.1501420702373
583.120328558032,196.271006106403,108.168074780888,51.248737360363
579.147568665798,193.723879434791,108.542001480151,51.3467973791371
575.170782364601,191.176505024852,108.861292915986,51.4440613129914
571.18987752149,188.629013394999,109.071775907223,51.5405208694973
567.204762178257,186.081541045755,109.280235280513,51.6363299840364
563.215344555577,183.534230102116,109.56796999072,51.7316017961355
559.221533165014,180.98723111476,110.078719183725,51.8266508601684
555.223236552433,178.440695552311,110.585141785586,51.9211156461664
551.220363618854,175.894783684867,111.005085278865,52.0148644684985
547.212823348494,173.349657696517,111.32504782867,52.1079355954521
543.200525414198,170.805494508062,111.602001621298,52.2004513445997
539.183379875517,168.262478753675,111.812756944765,52.2924191898099
535.161297455157,165.720807418955,111.923036311951,52.3838590677352
531.134189241576,163.18068386126,111.919554523537,52.4748300107683
527.101966892955,160.642320735964,111.715731186529,52.5654558295821
523.064543016137,158.10594522398,111.458171771703,52.6557176927717
519.021831358279,155.571800909755,111.107977137215,52.7456913622313
514.9737461014,153.04013726243,110.86576795904,52.8351544899341
510.920202345922,150.511215457018,110.965806465015,52.9241519633319
506.861115306762,147.985298044726,111.065576027352,53.0127918039374
502.796401151335,145.462658385012,111.145293974798,53.1010791081905
498.725976757211,142.943577453275,111.164243135817,53.1890206851206
494.649759848921,140.428344818205,111.255121856968,53.2766538740008
490.567669948509,137.917267320027,111.291981281642,53.3639604439272
486.47962813791,135.410666006747,111.29319989055,53.450960483708
482.385556625116,132.908871657585,111.209507086414,53.5376786710261
478.285379685058,130.41223201433,111.101299162615,53.6241189010812
474.179022911512,127.921105105738,110.996838728199,53.7102787131155
470.066414270028,125.435866558157,110.916106244551,53.7961588178719
465.947483185055,122.956902302768,110.81519541416,53.8817811487896
461.822160286967,120.484606386134,110.97223673453,53.9671720973444
457.690377699664,118.019382437925,111.089091986466,54.0522908132202
453.552069576569,115.561646513154,111.351828208579,54.1372645732153
449.407170975711,113.111819955035,111.661680442135,54.2220461109305
445.255619452492,110.67033805669,111.871358203417,54.3074866444214
441.097354524272,108.237646590045,112.080844944313,54.3949399771133
436.932319142989,105.814208878917,112.290117131243,54.4847321179478
432.760457895439,103.400496246255,112.499167880721,54.5770043226249
428.581717432874,100.996989692516,112.609952021917,54.6718488635787
424.396046845615,98.6041811791389,112.711124978421,54.769498034583
420.203398180256,96.2225754115962,112.812294584231,54.8701526491426
416.003728652305,93.8526984829971,112.813460786873,54.9740116528279
411.797014671366,91.4951527633812,112.814623530692,55.0813483787854
407.583169060614,89.1502977834809,112.892414142899,55.1924700456903
403.362421721131,86.8196576535336,112.88957365484,55.3076654615816
399.134980339557,84.5046779694267,112.843289593677,55.4273267534088
394.890799727463,82.1719350511308,112.834122984231,55.5525611504668
390.632902656663,79.83076941513,112.628804077129,55.6839356184604
386.380476165487,77.5416508456577,112.40888435886,55.8205460397996
382.160355229534,75.3884336085667,112.19061695131,55.9605580031226
377.995939637726,73.4448973779961,111.975210414944,56.1019439707941
373.904544961359,71.7667526545495,111.794165122856,56.2429096500394
369.888892867956,70.372188128941,111.690777089214,56.382502058611
365.950561914167,69.2767009439855,111.489349419857,56.5167125423827
362.064631710445,68.4389700119818,111.35956125768,56.64374606856
358.214908194252,67.8345433894766,111.197098148298,56.7654999278794
354.386647002758,67.4414912745248,111.058562778952,56.8831878914061
350.558875249505,67.2280683843719,111.050613952893,56.9980003126932
346.708315023421,67.1592012749115,111.048609541184,57.1110592283673
342.812089869928,67.2003556719156,111.051134863277,57.2232057202499
338.853970496055,67.3254670076406,111.057121908984,57.3349775647707
334.824252138387,67.5165085030247,111.065831635349,57.4466833015336
330.720514404568,67.7642817354496,111.076886320179,57.5584201379324
326.545603037625,68.0659103689675,111.151637283727,57.6701601441863
322.301815414249,68.4178641200157,111.205527484794,57.7818497267993
317.993927518448,68.8195513725877,111.306664439599,57.8934437524386
313.626794259367,69.270473427552,111.43961117676,58.0048678125202
309.205350408142,69.7702248366974,111.601673717002,58.1160525898978
304.732415516228,70.3159512594866,111.7638102637,58.2269498346165
300.211389905176,70.9054651491143,111.930809312604,58.3375274498768
295.645694070139,71.5366019274004,112.166934971358,58.4478161656352
291.038698177567,72.2071401935573,112.404597206811,58.5577080712034
286.393727399132,72.9148081716464,112.613766442285,58.6671356467378
281.714063590052,73.65728599575,112.842011436618,58.776117687589
277.002940292473,74.4322006116992,113.047340578651,58.8845770734533
272.263546420443,75.2371302445853,113.291877334646,58.9925465210385
267.499018183027,76.0695960610554,113.609055729972,59.1000451904137
262.712443256662,76.9270671231033,113.950484078298,59.2069824231389
257.906862606911,77.8069627590728,114.264676139634,59.3132517983471
253.085264184897,78.7066463170877,114.648960673118,59.4189702548652
248.250584143785,79.6234268972976,115.038381936925,59.5240080194767
243.405709457605,80.5545625131089,115.457757031896,59.6283788427321
238.553473948406,81.4972564091873,115.866358875595,59.7319831930328
233.696663544499,82.4486628736495,116.223785749646,59.8347306240491
228.838012268136,83.4058835559346,116.630430184636,59.9367536087177
223.980201732526,84.3659673718779,116.96204148582,60.037832844636
219.125868772653,85.3259185293361,117.295254330218,60.1380582110236
214.277602266844,86.2826937190428,117.619973157917,60.2373893238812
209.437945665817,87.2332049577718,117.701554112709,60.3356125636496
204.609405464741,88.1743281877539,117.74115979209,60.4328921422448
199.794445260397,89.1028977787922,117.780243030304,60.5292121083086
194.995493532368,90.0157143107881,117.81867197592,60.6252265073876
190.214936838086,90.9095383068413,117.856313088157,60.7226054794717
185.455126847831,91.7810971822744,117.893030782812,60.8224381063559
180.718385610724,92.627090429002,117.928689791931,60.9248348383458
176.007006439808,93.444190625443,117.960677275328,61.029921448839
171.323256698341,94.2290461992372,117.900743558951,61.1378497143893
166.669387127501,94.978290202857,117.927935260365,61.2487741550479
162.047627181304,95.6885361149463,117.921376213376,61.3628946954128
157.460197490272,96.3563893471418,117.863627219761,61.4804508738441
152.909308107824,96.9784456939055,117.864352891929,61.6016950363314
148.39717099059,97.5513026710337,117.682347090649,61.7270612625486
143.926004258361,98.0715633404162,117.544103285103,61.8567015822637
139.512892780581,98.5191004052391,117.344245265256,61.9905164587833
135.174805388029,98.8736831129239,117.223776306898,62.128168307149
130.928630642498,99.1150094501577,117.013748177817,62.2696635395087
126.791047589538,99.2225921382375,116.803841615583,62.4146930087044
122.777994732755,99.175291475766,116.59401588999,62.5631521729178
118.918235075748,98.9632285611118,116.412462169669,62.714371658448
115.225731938105,98.5635659015189,116.263690861774,62.8681521869971
111.710402456909,97.9499395500596,116.025481421011,63.0248760158178
108.385219100367,97.0986312452742,115.700548399666,63.1844762781655
105.199014669893,95.9306183650231,115.335923398179,63.3509987897406
102.077951359713,94.3469913801655,114.973125528227,63.522428425709
98.9365872857668,92.2383431985596,114.620094106984,63.6980190714841
95.7351455475284,89.5376732354418,114.234618985165,63.8826990935528
92.7345126358366,86.4571695691485,113.961513461636,64.066133501906
90.1972824924401,83.2410917036219,113.764410800488,64.2437427524927
88.1365012367107,79.924447620613,113.604380888785,64.4214496486282
86.5201400187509,76.505212541941,113.478936948881,64.5934435698569
85.2147037690343,72.8979730675468,113.334220755031,64.7593417169308
84.1634497883508,69.0816549033541,113.196256069891,64.9227029893503
83.3694159242855,65.0862211980332,113.053279115845,65.083515952429
82.8329440860273,60.9393145331521,112.99347360341,65.2417879361872
82.5258309800877,56.6438557206845,112.869964418892,65.3985332484636
82.4396342483419,52.2199972728805,112.865037506164,65.5535680196528
82.5783189849953,47.6988210592225,112.877045167601,65.7065367780118
82.9271195548286,43.0946497316651,112.89554327831,65.8575565090781
83.4647335077384,38.4158411501106,112.903042985075,66.0067780083824
84.1713647894278,33.6721568755945,112.882619598223,66.1542177091842
85.0396137560856,28.8851316126508,112.882956093421,66.2995663310453
86.066015058002,24.0800970000757,112.950226384113,66.4424809337435
87.2456122065771,19.2809248856,112.96458992306,66.5826402673684
88.5865557586342,14.5245231063197,112.930007473161,66.7195487384165
90.1045257874546,9.85543493788032,112.990783186434,66.8526719258156
91.7984224040936,5.30068260790802,112.984151805395,66.9818225778288
93.6543621262933,0.873315443816864,112.984269126249,67.1070695621642
95.6554351123966,-3.41713556966454,113.059157792362,67.2285033045146
97.7782616820848,-7.56923456156983,113.076942051236,67.3470833445158
100.000408887136,-11.5802621324426,113.134680783283,67.4653297794331
102.299850699709,-15.4469014447844,113.110072784038,67.5851338091822
104.641875807511,-19.1858911455362,113.116772710806,67.7072315871427
106.987569924248,-22.821073782181,113.084267615841,67.8322180052792
109.295997970161,-26.3798995620901,113.041068438328,67.9605432606898
111.525592930777,-29.890990527728,112.904505083764,68.0925712418064
113.640654154602,-33.3719246232995,112.86099536731,68.2282236834424
115.608218830654,-36.8351966914854,112.718235175079,68.367629666721
117.3935358088,-40.2964668001536,112.573412504205,68.5107609211499
118.960691001387,-43.773288507598,112.389449537162,68.6576189292915
120.262100807264,-47.3001810802376,112.21037950052,68.8085674090667
121.256423870341,-50.9037226027619,112.033673169322,68.9648409179472
121.911316972485,-54.6006026378797,111.769031358101,69.1290076400801
122.187380944981,-58.414166750906,111.576333974304,69.2958925417288
122.102309955119,-62.3214734912142,111.420122487584,69.4588088390896
121.63568571977,-66.3264030291357,111.27979814044,69.619998127021
120.782346883759,-70.4234462253796,111.055848371067,69.7810409107544
119.562521220403,-74.5932233517588,110.906400936429,69.9418724432407
117.995549704695,-78.8167922192702,110.6777841345,70.1026584429722
116.139273167283,-83.0577167730996,110.54657119463,70.26183724155
114.059823079337,-87.2759943153346,110.299628718427,70.4180895594117
111.827044792096,-91.4453065633603,109.971269007174,70.5701873091218
109.515515870612,-95.5373727205528,109.784416737495,70.7164066413687
107.075029753158,-99.5762005995562,109.658257365834,70.8589369152949
104.518311728797,-103.559186567361,109.526068004561,70.9980896456894
101.851801401756,-107.486426689533,109.388181906851,71.1341936080941
99.0685281062238,-111.36386913226,109.24423896121,71.2678685773147
96.1737731940589,-115.192037999917,109.094513504744,71.399346133823
93.184431618397,-118.966249569541,108.939881240571,71.5285046538583
90.1062754359357,-122.686869687137,108.780642282907,71.655499934889
86.9453337408033,-126.354146280524,108.771814534373,71.7803875978621
83.7039650563729,-129.970025861422,108.85308782719,71.9034513082231
80.3913499526559,-133.533277799648,108.879013765743,72.0246596242519
77.0264321021227,-137.038108710255,108.993697477259,72.1438009096719
73.622789794186,-140.481230628336,109.037147671473,72.2606896556651
70.1918112967548,-143.8603715662,109.152268846886,72.3752990151914
66.7310651121754,-147.179592421691,109.326586820342,72.4878890473284
63.2312725615088,-150.446046802798,109.596547808812,72.5989195445196
59.6953660896937,-153.661452824984,109.782459407551,72.7082840240502
56.1292061066092,-156.826244107124,110.023892151404,72.8161415296876
52.5356158943007,-159.942165961339,110.320068551253,72.9225767378405
48.9156926627373,-163.011697470634,110.635165919166,73.0276503271989
45.2712797169542,-166.037005502812,110.974988582534,73.1314505008128
41.6042031153163,-169.020264028874,111.231857988445,73.2338983211159
37.9162272156566,-171.963672026215,111.509107335663,73.3351988156937
34.2090443164111,-174.869457205804,111.815392634216,73.4354263602912
30.4842884952083,-177.739870115477,112.024606112607,73.5344882878561
26.7435275422712,-180.577186875299,112.232872649037,73.6325503958663
22.988264572919,-183.383708139501,112.267293130239,73.729571236636
19.2199456200761,-186.161755851172,112.299015111339,73.8256918545597
15.4399510897694,-188.913676011501,112.280094803084,73.920956166114
11.6495985037695,-191.641837276629,112.263938993945,74.0154081748693
7.85014004697393,-194.348631430293,112.234903033333,74.109090324053
4.04275960120503,-197.036474006526,112.259204536622,74.2020403127667
0.228577690448219,-199.707802175897,112.204797454857,74.2943018705156
-3.59135103083725,-202.365075195543,112.202925485151,74.3859007687247
-7.41603852248136,-205.010774248615,112.185115139625,74.4768802111177
-11.2445539985771,-207.647399012321,112.054191346223,74.5673099965459
-15.0760314356932,-210.277469687467,111.864940547256,74.6572282257746
-18.9096641986797,-212.903524928916,111.636945387112,74.7466634891209
-22.7452511523046,-215.526271228955,111.414028612164,74.8356002248844
-26.5828943689359,-218.145436775318,111.231592308766,74.924025802841
-30.4227039399609,-220.760739457664,111.133207930798,75.0119414137136
-34.2647927903233,-223.371891905689,110.965033772795,75.0994475586592
-38.1092757738918,-225.978603699769,110.880210911672,75.1864777047912
-41.9562698322001,-228.58058253427,110.702565948585,75.2731366144727
-45.805894338384,-231.177534890402,110.610487033813,75.3593416797486
-49.6582660707662,-233.769165044688,110.384044187105,75.4452361969279
-53.5135034409112,-236.355176386685,110.156444590155,75.5307470192136
-57.3717191188117,-238.93526970061,109.801899413273,75.6160292191226
-61.2330313975336,-241.509146081565,109.478703702683,75.7009053060875
-65.0975559323892,-244.076504992691,109.188293896725,75.7853879773131
-68.9654107387197,-246.637045489354,108.807270800541,75.8696445810098
-72.8367123055922,-249.190465346941,108.334642951241,75.9537163986672
-76.7115835096438,-251.736462829218,107.887639417934,76.0374148474148
-80.5901429813912,-254.274734354574,107.352291805049,76.120960555044
-84.4724993998194,-256.804973304993,106.858474787404,76.2041124561151
-88.3587615631989,-259.326872090315,106.308829274844,76.2870714170343
-92.2490457833542,-261.840123508467,106.000909907274,76.369339247358
-96.1434685462015,-264.344419133772,105.819077951373,76.4512023875411
-100.042148510738,-266.83944944646,105.720011322649,76.5327418123549
-103.945212410969,-269.324904519627,105.519698153072,76.6140661192064
-107.852788651484,-271.800472320691,105.418097118956,76.6950678998123
-111.765004342809,-274.26583730867,105.206432838783,76.7758750116789
-115.68197982276,-276.720677888061,104.854708964794,76.8565762023469
-119.603837416992,-279.164663873586,104.488988508946,76.9370471621022
-123.530695488019,-281.597441059303,104.026889563179,77.0174230520971
-127.463207477127,-284.014385042441,103.513861934071,77.0977236986404
-131.402163768088,-286.408736015479,103.02837891009,77.1788130975602
-135.348179959297,-288.773712064444,102.716218256944,77.2614387780536
-139.301678280964,-291.102508155169,102.401783045444,77.3459035189422
-143.262884195345,-293.388297107448,102.084768452447,77.4322526363824
-147.231809592929,-295.624229228393,101.764897672282,77.5205351548954
-151.20824258469,-297.803432863594,101.521398312988,77.6107049666429
-155.191723698189,-299.919013896724,101.281602621881,77.7026340944806
-159.181535668545,-301.964056774577,100.982411802119,77.7961222043504
-163.176905959141,-303.931641775343,100.671490015693,77.8910563985047
-167.178253562838,-305.814929612192,100.316959497477,77.9875064312831
-171.171858967789,-307.606241396037,100.026921046168,78.0850114530133
-175.159202973901,-309.298672311654,99.9528119383876,78.1833500598488
-179.153092622945,-310.885803802208,100.002953576757,78.2827744927921
-183.166599573499,-312.361226634651,100.046029799803,78.3833402154712
-187.214901154039,-313.718587778543,100.046582918245,78.4850736296064
-191.316701680146,-314.951588997682,100.115889938297,78.5881358366708
-195.480662714933,-316.053937150642,100.377797287038,78.6927716205964
-199.710340023437,-317.01946101145,100.53844365327,78.7990310482974
-203.990815052551,-317.843054687959,100.700058381758,78.9072337693753
-208.302629438128,-318.520082952487,100.875995818613,79.0173653418969
-212.630028317006,-319.045313400872,101.025648853537,79.1292002513041
-216.974495823599,-319.409582209854,101.139077212493,79.2426771032008
-221.35027905544,-319.599937289434,101.336954034138,79.3581951787325
-225.764832086733,-319.605853596304,101.451968800694,79.4749265099054
-230.207230273099,-319.424217644609,101.617093159491,79.5929536712918
-234.679180083987,-319.046403410887,101.856543084626,79.7119355362621
-239.170116741497,-318.469396957052,102.114244145406,79.8300866335826
-243.667928669602,-317.6909036079,102.318160344072,79.9485847979668
-248.152088907852,-316.71252848147,102.554457953296,80.0686226043507
-252.616219343359,-315.529503813504,102.805793857206,80.1906919456411
-257.033277440775,-314.145978554963,102.854664627422,80.3126021383622
-261.386690686473,-312.570307246658,102.855069713479,80.4325182057937
-265.665194054353,-310.814125181673,102.901401299566,80.5504244011227
-269.83738393044,-308.896741620766,103.005784913744,80.666921149963
-273.88731209543,-306.831769678239,103.030829312697,80.7831143456319
-277.797150617948,-304.633496251834,102.918553873878,80.8989810834968
-281.552626158658,-302.314968364646,102.819234210028,81.0127023265723
-285.167414753209,-299.879836267782,102.671170480665,81.1233658814954
-288.66566839931,-297.328347039669,102.55561070666,81.2317362909533
-292.075233907346,-294.659579448242,102.436481523502,81.3386415546269
-295.414860226721,-291.875469906496,102.202919343042,81.4446921792523
-298.709477319802,-288.97597967168,102.019717253402,81.5503002912507
-301.965604763347,-285.967189980025,101.766071254905,81.6557162230944
-305.182346199465,-282.857805073908,101.532790987392,81.7607571928998
-308.360153529213,-279.656019354518,101.26792476187,81.8654432897581
-311.498753239766,-276.37031898769,101.199711308057,81.9694993685451
-314.5985306698,-273.008910072178,101.341443236829,82.0730722980619
-317.660717183779,-269.579620969275,101.499172038022,82.176088389074
-320.687160073633,-266.089992573557,101.648292222773,82.2784917154747
-323.680232770287,-262.547310168477,101.732820310052,82.3802169095361
-326.642732685269,-258.958645104277,101.803842512564,82.4812652356756
-329.576260397766,-255.328197126133,101.777334676559,82.5816349734744
-332.482501901985,-251.660120039977,101.853079734949,82.6813489357333
-335.363210130611,-247.958530518264,101.996027194571,82.7804276040523
-338.220183150143,-244.227519413543,102.149862035439,82.8788416414232
-341.055240405932,-240.47116496509,102.336842299168,82.9766032989847
-343.870208923417,-236.693540798459,102.474264939579,83.073644826011
-346.666911790408,-232.898723013321,102.558040355763,83.1699663467147
-349.447160117067,-229.090795485665,102.642778322207,83.2655822003674
-352.212748750724,-225.273853014819,102.728264436373,83.3604782966453
-354.965456354538,-221.452001663669,102.714281174803,83.4546235991117
-357.707052202185,-217.629354278658,102.668282421768,83.5480203216157
-360.439310342096,-213.81002011753,102.770296134749,83.6406638934327
-363.164028992441,-209.998089492526,102.886904523743,83.732525488396
-365.883064027063,-206.197605450523,103.001156023386,83.8235802290027
-368.598372211002,-202.412524266291,103.116054298225,83.9138146833074
-371.312068301702,-198.646659165142,103.199159898187,84.0032044365728
-374.026495422673,-194.903604881464,103.273633989216,84.0917545469662
-376.744308293404,-191.186639853972,103.250904414412,84.1794605656674
-379.468560043586,-187.49861162069,103.154607490413,84.2663651851266
-382.202787495236,-183.841807867544,103.013100416156,84.3525006203819
-384.951079163384,-180.217829857497,102.798868314508,84.4379426947169
-387.718111447741,-176.627489144461,102.65958238013,84.5226468746062
-390.509138918372,-173.070755355288,102.565607686383,84.6077676238716
-393.329928874939,-169.546785892209,102.41395047385,84.6947670483159
-396.186639554383,-166.054062675498,102.335215069821,84.7840265549711
-399.085652741831,-162.590645729206,102.251977173212,84.8758545158654
-402.033382509991,-159.154528538081,102.260351096772,84.9705404076732
-405.037684868466,-155.744666935457,102.282876689499,85.0682442583735
-408.106149016049,-152.360666082608,102.402367627953,85.1691322695008
-411.245943215571,-149.003233030898,102.415967339172,85.2734849590613
-414.463714920839,-145.67452591981,102.450460143383,85.3817073920419
-417.76554398886,-142.378364219864,102.416899433246,85.4941898257259
-421.157076508187,-139.119881287216,102.421143972577,85.6113670388309
-424.643740746513,-135.9048824523,102.414390049477,85.7337359034664
-428.228817917077,-132.745810083853,102.473656444451,85.861768130541
-431.919556380318,-129.643029896243,102.537675892767,85.9964035917619
-435.723767185608,-126.595252899656,102.629725371722,86.1387495785091
-439.635325194496,-123.641058092175,102.731585915503,86.2889622339467
-443.652308036735,-120.807184307193,102.756516909957,86.4476211527458
-447.764899290085,-118.142370715178,102.849406253801,86.6147225863474
-451.951069150675,-115.729474251941,102.844041566705,86.7886914052725
-456.179467019595,-113.677554383844,102.864476782807,86.9672855418402
-460.405010067005,-112.037187978722,102.809410354116,87.1498329324728
-464.603219473848,-110.803839406156,102.693116142702,87.3371620285665
-468.721045747672,-110.044214805586,102.572564112827,87.5271666651424
-472.715789218566,-109.801291430082,102.454687199413,87.7084175004635
-476.608147664549,-109.988702929799,102.272819142646,87.883390826191
-480.378174312064,-110.591156595369,102.125543727656,88.0538937366728
-484.018160256371,-111.575355813631,101.978339524729,88.2146637853827
-487.523279258683,-112.904452686883,101.849954174407,88.3689801274649
-490.869430785188,-114.561414943796,101.633017849462,88.5233638200467
-494.035941610233,-116.526288944146,101.482979595078,88.6835040511189
-496.990116562025,-118.787548805584,101.325068362842,88.8433745661674
-499.712497725808,-121.326136859594,101.176684519137,88.9991739628703
-502.206370760382,-124.11277861727,101.006414085023,89.1584823111449
-504.425298197271,-127.134920122505,100.882265221569,89.3180541642255
-506.395410345693,-130.36332932955,100.749609117597,89.4734051916439
-508.086376166126,-133.776005257177,100.563036296124,89.6310225489489
-509.458599374327,-137.351211679634,100.451739109728,89.7964219921433
-510.463665873902,-141.066606699335,100.325099255261,89.9625764474289
-511.101140729097,-144.907630075985,100.215768232984,90.1233874686329
-511.379638220309,-148.861953239332,100.128303461853,90.2807548374307
-511.32139121085,-152.92159544232,99.9597838941532,90.436100410376
-510.93825581473,-157.074644083236,99.8068020075443,90.5899767101009
-510.276499212911,-161.32380935525,99.5975653897904,90.743167701034
-509.358220593388,-165.660748856328,99.4425322512368,90.8955525531648
-508.23222059243,-170.089895536815,99.2305446096536,91.0474286679528
-506.933661155229,-174.608985310421,99.0169888502615,91.1985672536284
-505.525029019608,-179.229353725937,98.813650352564,91.3489111865176
-504.053620969666,-183.95473844751,98.5677516957899,91.4983471673197
-502.53739178565,-188.774159961071,98.6032871144621,91.6463457336026
-500.977950776418,-193.668398277995,98.833752448363,91.7928912623289
-499.366456804713,-198.612916754946,99.0539845347458,91.9374608181078
-497.699018284898,-203.585722933754,99.3065894340761,92.0798059466724
-495.971766131493,-208.564836073091,99.5274170434868,92.2195734820757
-494.169160807423,-213.52208238747,99.7503447125825,92.3565049322138
-492.26792833694,-218.42507445701,100.105234866658,92.4940413434228
-490.243003985228,-223.240410781419,100.359499612729,92.6356552300939
-488.08755058619,-227.945608986396,100.647447461358,92.7820323463026
-485.794147851469,-232.517809396315,100.924409940875,92.9330213614129
-483.338043233514,-236.921774479306,101.279515749389,93.088624483708
-480.708905319333,-241.133810568788,101.534705487245,93.2484974839119
-477.882623420673,-245.11771248167,101.763095924374,93.4121274903776
-474.822105900923,-248.823809876479,101.970071920013,93.5789552719751
-471.51168147852,-252.227946157869,102.110308772449,93.7435300166977
-467.960106700775,-255.33964556924,102.238456825621,93.901720496564
-464.195989268617,-258.200350328882,102.271292742713,94.0552910145946
-460.253122190568,-260.861285346241,102.365735434278,94.2053220068398
-456.168497079599,-263.380786432681,102.469396438161,94.3523746692687
-451.969636775138,-265.792449531804,102.568595639267,94.4966425449716
-447.674135392994,-268.09963894758,102.663472820598,94.6381051682512
-443.300415795799,-270.30860046382,102.670285685355,94.776729201171
-438.872439147572,-272.44685180141,102.742172506035,94.9126111040661
-434.413631421878,-274.53973334903,102.828182002587,95.045711939431
-429.953364218399,-276.637014092497,102.761309741027,95.1761004669982
-425.524259016654,-278.801360169584,102.586008908365,95.3049080607432
-421.159370645254,-281.09703714593,102.358899531712,95.4355445215977
-416.879295492845,-283.546626877894,102.13621014498,95.5702938618384
-412.705884673151,-286.176472446316,101.993289573591,95.7087322878562
-408.663798530784,-289.020419847852,102.042863652975,95.8505340425794
-404.773283520436,-292.10188763512,102.016772710425,95.9926961757297
-401.03941698768,-295.412664795584,101.949282248696,96.1324596904591
-397.467643757737,-298.945221656719,101.782836360962,96.2702818605923
-394.058060474014,-302.683098213543,101.521697671852,96.4064247566503
-390.794065458674,-306.584336130553,101.115204419932,96.5408960983104
-387.636613390516,-310.575012517465,100.704128001586,96.6728605378079
-384.554343083497,-314.591639493041,100.345754636355,96.8016050597804
-381.539242338531,-318.601559866124,100.023708866344,96.9268544142699
-378.594699706919,-322.586935230804,99.7174698875226,97.051262683991
-375.7250644736,-326.531166233241,99.4802594875261,97.178101144461
-372.941688225991,-330.426654970167,99.3090766384888,97.3081049457393
-370.258924718919,-334.269651417203,99.1670061702113,97.4413420213178
-367.680196602072,-338.042461622934,99.0912817687792,97.5775601640376
-365.229511146388,-341.753497360531,98.9668541905516,97.7166620426207
-362.949166007132,-345.434249535693,98.8865090182568,97.8583535414413
-360.892082221935,-349.129520366708,98.8667501489447,98.0025723668217
-359.092053931932,-352.860466051552,98.7982617494479,98.1490966347329
-357.584601324079,-356.650322697078,98.8237731021716,98.2982515974501
-356.385300288562,-360.499276482898,98.8549649915276,98.4455873553417
-355.475837241894,-364.370738954296,98.8297658628092,98.5905808354235
-354.820902992652,-368.211272592663,98.8245662007625,98.73828020939
-354.414369709594,-371.993070636028,98.8457754106536,98.8896361908149
-354.284827634221,-375.714487918994,98.8526100971293,99.0449568303178
-354.477103307923,-379.383979479567,98.8844249961487,99.2056431647661
-355.019292722405,-383.001768986321,98.8910961998263,99.3737485029716
-355.97265541457,-386.58031577602,98.8665247276337,99.5437240336972
-357.326151933693,-390.113556814152,98.8315891364664,99.7090624693843
-359.065007898175,-393.594863504754,98.8682130484624,99.8717545350975
-361.192418831745,-397.018563354442,98.8746281020261,100.03338371464
-363.713151930236,-400.378926456091,98.9134450072071,100.195268594865
-366.640903412678,-403.669190062981,99.0494039742211,100.358678316055
-369.918043421306,-406.895570465543,99.3958504895261,100.523294680665
-373.449244007465,-410.072967966261,99.6467554774246,100.686672919204
-377.133209527087,-413.21784229229,99.7154440924381,100.846921579894
-380.8714762556,-416.345852199637,99.8793458688607,101.002633190673
-384.63275180789,-419.452293316346,99.9707678883807,101.153372775029
-388.407047562191,-422.525558080659,100.097779374953,101.299323587247
-392.193080059728,-425.551036927978,100.317639771472,101.440756918566
-395.987577363174,-428.514845599006,100.662836210939,101.577909421527
-399.781868292076,-431.4051724011,101.12168154556,101.710849026536
-403.571459230027,-434.208523615525,101.588803177682,101.839392647491
-407.35587306088,-436.909711975228,101.946786814804,101.964522731995
-411.132707090547,-439.49439905185,102.230598788492,102.089883866774
-414.898823695987,-441.948584032841,102.424252501823,102.217941830205
-418.639800683408,-444.263645768534,102.368108923022,102.348537608823
-422.352048791788,-446.425628278976,102.306534942647,102.481530662114
-426.059923981687,-448.406475550327,102.277404502887,102.617100235958
-429.773940099237,-450.185226187237,102.231294045756,102.755342851073
-433.507602457755,-451.739360806569,102.121045338032,102.896238257181
-437.29538599229,-453.035147213309,102.090588382396,103.040159704472
-441.162715498082,-454.043926204596,102.017727043735,103.188506474254
-445.110999694733,-454.751433711938,101.944596339875,103.339898449072
-449.129677846539,-455.151203165852,101.834695759956,103.495129328044
-453.248139201794,-455.20824823289,101.740436981654,103.653347214071
-457.468320880909,-454.90901152048,101.939151160401,103.810109148073
-461.769807197721,-454.258664051686,102.109406616364,103.965758936072
-466.110015217348,-453.281933140292,102.191239684214,104.11959845831
-470.500068154569,-451.954660508916,102.243407974025,104.273192555824
-474.89218628543,-450.307433793008,102.360018588392,104.425598975051
-479.222276470526,-448.388412795458,102.487435953867,104.575016631408
-483.446012706244,-446.24917124149,102.639603811774,104.72026779566
-487.556042112514,-443.907507452818,102.777517417018,104.861594892724
-491.518543960552,-441.405022984238,102.814971447444,104.998156956262
-495.325012271491,-438.760981064023,102.729515646544,105.130169338513
-498.974759373037,-435.987844527923,102.550706315081,105.258062401864
-502.486037727355,-433.081746271021,102.40714387108,105.382703344705
-505.857241150723,-430.055934173129,102.674232241939,105.504441792329
-509.088040613404,-426.922553648683,102.824048610098,105.623143185071
-512.179364520497,-423.692658729616,102.942385402818,105.739090113762
-515.133763597062,-420.375889793007,103.056714396181,105.852480876497
-517.95860447525,-416.977688572223,103.203618078671,105.96363745439
-520.661966815089,-413.502875259604,103.344191584022,106.072803332871
-523.262131906684,-409.947366000669,103.479390472061,106.180530568851
-525.772487159167,-406.311367341065,103.609910706562,106.287160049177
-528.207432838876,-402.594190957821,103.671738759044,106.392990508864
-530.57412433807,-398.80161496801,103.617401984879,106.498132081763
-532.879726177659,-394.939409232935,103.50057135632,106.602673942719
-535.131669232794,-391.013099374177,103.297295553275,106.706709401377
-537.334656347311,-387.030745818729,103.190425928585,106.810051580799
-539.49249381976,-383.001253447436,103.050824675266,106.912716532891
-541.611268374664,-378.931348557708,103.018648735354,107.014623890264
-543.696725823599,-374.82808784038,103.091732666703,107.115805077213
-545.754763387118,-370.698379085643,103.135421093243,107.216215963777
-547.791443531496,-366.548965132208,103.276076192818,107.31588085386
-549.813002345242,-362.386412851204,103.314610805242,107.414691509917
-551.82585579968,-358.21710395867,103.3611006001,107.512670924365
-553.834191558094,-354.044988389398,103.402637138515,107.609818985991
-555.838185479593,-349.870126559553,103.33468560872,107.70618056583
-557.8380083943,-345.692584240793,103.329118547525,107.801773828625
-559.833826366726,-341.512432414007,103.297802720781,107.89664384777
-561.825800882712,-337.329747162466,103.225146807707,107.990828440401
-563.814088602009,-333.144610044497,103.062045929561,108.084392940686
-565.798841491237,-328.957108036347,103.044130836013,108.177260664326
-567.780206381245,-324.767334147758,103.025851505483,108.26951420754
-569.758325164279,-320.575387293239,103.007227859313,108.361177163694
-571.733335373908,-316.381371691984,102.988273646136,108.452271700408
-573.705369892501,-312.185397326331,103.028370555957,108.542821242079
-575.674556933725,-307.987580069181,103.187329146015,108.632892084842
-577.641020322385,-303.788041433166,103.564709045377,108.722695355873
-579.604878914157,-299.586909435403,103.954549367644,108.812022697143
-581.566246615154,-295.384318693948,104.382481976672,108.900934358513
-583.525232808956,-291.180409973061,104.810158056204,108.989380993326
-585.481941655236,-286.975331272855,105.267210057811,109.077430159078
-587.436472787296,-282.769236984846,105.767721650246,109.165126129995
-589.388921260273,-278.562288091882,106.268041823301,109.252396900383
-591.339377066468,-274.354653010428,106.718410751255,109.339160335153
-593.287925388947,-270.146507359649,107.144886292564,109.425481635939
-595.234646276374,-265.938034604117,107.436933850689,109.511222108964
-597.179615425335,-261.729424994602,107.758486982765,109.596620128989
-599.122903845864,-257.520876240994,107.963457496393,109.681528099237
-601.064576603484,-253.312595712854,108.220754555085,109.766958989609
-603.004639910094,-249.104888445811,108.411777748335,109.854097345045
-604.94311944573,-244.898026473681,108.223603035111,109.943527091908
-606.880257056778,-240.691907409764,107.948529408635,110.035485108406
-608.816732716355,-236.485653252453,107.63060960018,110.130128529677
-610.752163315602,-232.280310192086,107.33414732357,110.227532390655
-612.685868163774,-228.077475573317,106.980936760597,110.327977682243
-614.618166885548,-223.876849912286,106.709077543089,110.431493882469
-616.548475325852,-219.679888468728,106.536270694131,110.536523662745
