<?xml version="1.0" encoding="utf-8"?>
<kml xmlns="http://www.opengis.net/kml/2.2">
  <Document>
    <name>MalloryPark_InnerLimits_RR</name>
    <Placemark>
      <Snippet maxLines="0"> </Snippet>
      <description> </description>
      <name>MalloryPark_InnerLimits_RR</name>
      <Style>
        <LineStyle>
          <width>4</width>
          <color>ffff0000</color>
        </LineStyle>
      </Style>
      <LineString>
        <coordinates> -1.33704497758613,52.5986676253064,0 -1.33704388828689,52.598649581418,0 -1.33704280071562,52.5986315374914,0 -1.33704171485148,52.5986134935266,0 -1.33704063067362,52.5985954495236,0 -1.33703954816116,52.5985774054825,0 -1.33703846729327,52.5985593614032,0 -1.33703738804909,52.5985413172857,0 -1.33703630754853,52.5985232731915,0 -1.33703522114905,52.5985052292202,0 -1.33703412943063,52.5984871853599,0 -1.33703303306926,52.5984691415963,0 -1.33703193274091,52.5984510979154,0 -1.33703082912154,52.598433054303,0 -1.33702972288714,52.5984150107451,0 -1.33702861471367,52.5983969672275,0 -1.3370275052771,52.5983789237361,0 -1.33702639525341,52.5983608802567,0 -1.33702528531858,52.5983428367753,0 -1.33702417614856,52.5983247932777,0 -1.33702306841934,52.5983067497499,0 -1.33702196280688,52.5982887061776,0 -1.33702085998717,52.5982706625467,0 -1.33701976063616,52.5982526188432,0 -1.33701866542984,52.598234575053,0 -1.33701757504418,52.5982165311618,0 -1.33701649015514,52.5981984871556,0 -1.33701541143871,52.5981804430203,0 -1.33701433957084,52.5981623987417,0 -1.33701327522752,52.5981443543058,0 -1.33701221908472,52.5981263096983,0 -1.33701117181841,52.5981082649053,0 -1.33701013410456,52.5980902199124,0 -1.33700910661915,52.5980721747058,0 -1.33700809003814,52.5980541292711,0 -1.33700708503751,52.5980360835943,0 -1.33700609229324,52.5980180376614,0 -1.33700511248128,52.597999991458,0 -1.33700414627762,52.5979819449703,0 -1.33700319451124,52.5979638981928,0 -1.3370022573791,52.5979458511408,0 -1.33700133431379,52.5979278038253,0 -1.33700042474087,52.597909756257,0 -1.33699952808585,52.5978917084471,0 -1.33699864377429,52.5978736604062,0 -1.33699777123172,52.5978556121455,0 -1.33699690988366,52.5978375636757,0 -1.33699605915567,52.5978195150078,0 -1.33699521847327,52.5978014661526,0 -1.33699438726201,52.5977834171212,0 -1.33699356494741,52.5977653679243,0 -1.33699275095502,52.597747318573,0 -1.33699194471037,52.597729269078,0 -1.33699114563899,52.5977112194504,0 -1.33699035316644,52.5976931697009,0 -1.33698956671823,52.5976751198406,0 -1.33698878571991,52.5976570698803,0 -1.33698800959701,52.5976390198309,0 -1.33698723777507,52.5976209697033,0 -1.33698646967963,52.5976029195085,0 -1.33698570473622,52.5975848692574,0 -1.33698494237038,52.5975668189608,0 -1.33698418200764,52.5975487686296,0 -1.33698342307355,52.5975307182748,0 -1.33698266499363,52.5975126679073,0 -1.33698190719343,52.5974946175379,0 -1.33698114909848,52.5974765671777,0 -1.33698039013431,52.5974585168374,0 -1.33697962972647,52.597440466528,0 -1.33697886730049,52.5974224162604,0 -1.3369781022819,52.5974043660454,0 -1.33697733409625,52.5973863158941,0 -1.33697656216907,52.5973682658173,0 -1.33697578592589,52.597350215826,0 -1.33697500479226,52.5973321659309,0 -1.3369742181937,52.5973141161431,0 -1.33697342555576,52.5972960664734,0 -1.33697262630397,52.5972780169327,0 -1.33697181986386,52.597259967532,0 -1.33697100566098,52.5972419182821,0 -1.33697018312086,52.597223869194,0 -1.33696935166904,52.5972058202786,0 -1.33696851073105,52.5971877715467,0 -1.33696765973243,52.5971697230093,0 -1.33696679809871,52.5971516746772,0 -1.33696592525544,52.5971336265615,0 -1.33696504062814,52.5971155786729,0 -1.33696414364236,52.5970975310224,0 -1.33696323372363,52.5970794836209,0 -1.33696231029749,52.5970614364794,0 -1.33696137278948,52.5970433896086,0 -1.33696042062512,52.5970253430195,0 -1.33695945126614,52.5970072967658,0 -1.33695844947705,52.5969892511785,0 -1.33695741520532,52.5969712062609,0 -1.33695635220792,52.5969531619336,0 -1.33695526424178,52.5969351181173,0 -1.33695415506386,52.5969170747327,0 -1.3369530284311,52.5968990317004,0 -1.33695188810044,52.5968809889411,0 -1.33695073782884,52.5968629463754,0 -1.33694958137325,52.5968449039241,0 -1.3369484224906,52.5968268615077,0 -1.33694726493785,52.5968088190469,0 -1.33694611247195,52.5967907764623,0 -1.33694496884983,52.5967727336747,0 -1.33694383782846,52.5967546906047,0 -1.33694272316477,52.5967366471729,0 -1.33694162861572,52.5967186033001,0 -1.33694055793824,52.5967005589068,0 -1.33693947185795,52.5966825142517,0 -1.33693830993979,52.5966644698245,0 -1.33693709152684,52.5966464255368,0 -1.33693583729323,52.5966283812898,0 -1.33693456791309,52.596610336985,0 -1.33693330406055,52.5965922925237,0 -1.33693206640976,52.5965742478074,0 -1.33693087563484,52.5965562027374,0 -1.33692975240991,52.5965381572152,0 -1.33692871740913,52.596520111142,0 -1.33692779130661,52.5965020644192,0 -1.3369269947765,52.5964840169483,0 -1.33692634849291,52.5964659686307,0 -1.33692587312999,52.5964479193677,0 -1.33692558936187,52.5964298690606,0 -1.33692558096437,52.5964118137453,0 -1.33692549897222,52.5963937549353,0 -1.33692535228202,52.5963756935729,0 -1.33692515957782,52.5963576310842,0 -1.33692493954362,52.5963395688952,0 -1.33692471086347,52.5963215084319,0 -1.33692449222138,52.5963034511201,0 -1.33692430230138,52.5962853983859,0 -1.3369241597875,52.5962673516552,0 -1.33692408545473,52.5962493123446,0 -1.33692552271353,52.5962312807088,0 -1.33692817024634,52.5962132846306,0 -1.33693118122311,52.5961953246278,0 -1.33693489200374,52.596177393277,0 -1.33693902075737,52.5961595131227,0 -1.33694355859699,52.5961416864193,0 -1.33694883620326,52.5961238992046,0 -1.33695469313892,52.5961061815311,0 -1.33696098826728,52.5960885624798,0 -1.33696801853248,52.5960710304695,0 -1.33697569691366,52.5960535709797,0 -1.33698376919056,52.5960361768255,0 -1.33699200522989,52.5960188404893,0 -1.33700064194312,52.5960015599321,0 -1.33700976485032,52.5959843633559,0 -1.33701931299514,52.595967284482,0 -1.33702927768526,52.5959502915602,0 -1.33703965986342,52.5959333604143,0 -1.33705043060068,52.5959165121716,0 -1.33706156096809,52.5958997679591,0 -1.33707303687431,52.5958831490225,0 -1.33708510651064,52.5958666681693,0 -1.33709772418715,52.5958503099067,0 -1.33711070000186,52.5958340538527,0 -1.33712385012996,52.5958178792509,0 -1.33713728534417,52.5958017737195,0 -1.33715116112363,52.5957857971563,0 -1.33716553375126,52.5957700273772,0 -1.3371804041473,52.5957544193129,0 -1.33719572821985,52.5957389344697,0 -1.33721147638058,52.5957236065746,0 -1.33722761904117,52.5957084693549,0 -1.337244232406,52.5956935526967,0 -1.33726142507564,52.5956788371882,0 -1.33727901120688,52.5956642727203,0 -1.33729679620371,52.5956498088352,0 -1.33731461208567,52.5956353826854,0 -1.33733256268689,52.5956209791725,0 -1.33735088239744,52.5956067614084,0 -1.33736980361935,52.5955929063187,0 -1.33738949579947,52.5955794490574,0 -1.33740978347901,52.5955662634281,0 -1.33743039645339,52.5955532444247,0 -1.33745106454384,52.595540287041,0 -1.33747171346315,52.5955273256907,0 -1.33749252706512,52.5955144432635,0 -1.33751363302254,52.5955017575904,0 -1.33753517128294,52.5954893836775,0 -1.33755726817598,52.5954773401681,0 -1.33757972747149,52.595465529028,0 -1.33760231665285,52.5954538408685,0 -1.33762502987271,52.595442216431,0 -1.33764796202071,52.5954307502718,0 -1.33767120028484,52.5954195533861,0 -1.33769482926562,52.5954086682417,0 -1.33771882755096,52.5953980364786,0 -1.33774310727155,52.5953876561088,0 -1.33776760134118,52.5953775112517,0 -1.33779233722223,52.5953675443303,0 -1.33781729209907,52.5953577646139,0 -1.33784243400523,52.5953481894054,0 -1.33786772875532,52.5953387899751,0 -1.3378931706539,52.5953294811795,0 -1.33791879604707,52.5953203505058,0 -1.33794464291821,52.5953114966158,0 -1.33797075249193,52.5953030138003,0 -1.33799721004522,52.595294869952,0 -1.33802397208171,52.5952870356917,0 -1.33805094813454,52.5952795192489,0 -1.33807808254829,52.5952722916326,0 -1.33810543631759,52.5952652782145,0 -1.33813299829318,52.595258572884,0 -1.33816074990822,52.595252273417,0 -1.33818870231507,52.5952462405152,0 -1.33821684727778,52.5952404769489,0 -1.33824516174303,52.5952351001952,0 -1.33827362721298,52.5952301327896,0 -1.33830224634755,52.5952252997053,0 -1.33833101067906,52.5952207510954,0 -1.33835990961269,52.5952166919312,0 -1.33838893520524,52.5952132881596,0 -1.33841810442128,52.5952101824162,0 -1.33844739463812,52.5952072656798,0 -1.33847677060232,52.5952045752903,0 -1.33850619706045,52.5952021485877,0 -1.33853563875908,52.5952000229119,0 -1.33856509045052,52.5951981431329,0 -1.33859459616205,52.5951963442357,0 -1.33862414236663,52.5951946765583,0 -1.33865371292842,52.5951931992109,0 -1.33868329171158,52.5951919713041,0 -1.33871287982947,52.595190889868,0 -1.33874248718511,52.5951898335723,0 -1.33877210863279,52.5951888568548,0 -1.33880173901818,52.595188014243,0 -1.33883137318696,52.5951873602643,0 -1.33886100598521,52.5951869494476,0 -1.33889065313249,52.5951868932645,0 -1.33892031781414,52.5951872018024,0 -1.33894997666284,52.5951877795316,0 -1.33897960631131,52.5951885309221,0 -1.33900918818827,52.5951893895933,0 -1.33903875603188,52.5951905917508,0 -1.33906831259716,52.595192154418,0 -1.33909784663115,52.5951940061238,0 -1.3391273468809,52.5951960753969,0 -1.33915680209345,52.5951982907663,0 -1.33918620101585,52.5952005807609,0 -1.33921553680352,52.5952029801998,0 -1.33924481443896,52.5952058665949,0 -1.33927401645175,52.5952091536719,0 -1.33930312267583,52.5952126943744,0 -1.33933211668632,52.5952163516245,0 -1.33936105663168,52.5952202203203,0 -1.33938995234323,52.5952243475648,0 -1.3394187819322,52.5952287074518,0 -1.33944752350981,52.5952332740752,0 -1.33947615518731,52.5952380215288,0 -1.33950465507591,52.5952429239063,0 -1.33953300313924,52.5952480551997,0 -1.33956118167902,52.5952537166756,0 -1.33958916317572,52.5952598039048,0 -1.33961691927495,52.5952661729123,0 -1.33964445641542,52.5952727707288,0 -1.33967183305294,52.5952797287319,0 -1.33969902415993,52.5952870060226,0 -1.33972600051357,52.5952945517836,0 -1.33975273221249,52.595302318368,0 -1.33977916978787,52.5953104469642,0 -1.33980535972257,52.5953189298257,0 -1.3398313908141,52.595327617947,0 -1.33985735185999,52.5953363623226,0 -1.33988333384294,52.5953450589625,0 -1.33990934013411,52.595353772432,0 -1.33993528591784,52.5953625637849,0 -1.33996108447207,52.5953714915721,0 -1.33998664907477,52.5953806143439,0 -1.3400119000634,52.5953899885354,0 -1.34003694427716,52.5953996009067,0 -1.34006183997122,52.5954094176221,0 -1.34008657817121,52.5954194197039,0 -1.34011114990277,52.5954295881741,0 -1.34013554619153,52.5954399040549,0 -1.34015975806312,52.5954503483683,0 -1.34018377654318,52.5954609021364,0 -1.34020758615157,52.5954716012805,0 -1.34023115835522,52.5954825639563,0 -1.34025447887136,52.5954937603494,0 -1.34027753430619,52.5955051524285,0 -1.34030031126591,52.5955167021623,0 -1.34032283635648,52.5955283939423,0 -1.34034518595464,52.5955402529255,0 -1.34036735195901,52.595552268246,0 -1.34038932305812,52.5955644274374,0 -1.34041108794053,52.595576718033,0 -1.34043263529477,52.5955891275665,0 -1.3404539228219,52.5956016670918,0 -1.34047465508604,52.5956145600186,0 -1.34049507781073,52.5956276620908,0 -1.34051559321118,52.5956407153607,0 -1.34053678788954,52.5956533539911,0 -1.34055675827585,52.5956666212271,0 -1.34057604317692,52.5956803103333,0 -1.34059492943297,52.5956942491949,0 -1.34061363710718,52.5957083010733,0 -1.34063238626275,52.5957223292299,0 -1.34065141199136,52.5957361914804,0 -1.34066983470443,52.595750333057,0 -1.3406880221235,52.5957646171886,0 -1.34070590264501,52.5957790455219,0 -1.34072339685145,52.5957936232067,0 -1.34074045023737,52.5958083537806,0 -1.34075726003917,52.5958232220304,0 -1.34077384212696,52.5958382195872,0 -1.34079014054237,52.595853342207,0 -1.34080609932705,52.5958685856457,0 -1.34082166252262,52.5958839456593,0 -1.3408367704914,52.595899428631,0 -1.34085138730582,52.5959151160194,0 -1.34086561347946,52.5959309723293,0 -1.34087957006534,52.5959469310378,0 -1.34089337811644,52.5959629256217,0 -1.34090709578185,52.5959789261814,0 -1.34092055653807,52.5959950196267,0 -1.34093374332931,52.5960111911985,0 -1.34094670405295,52.5960274346837,0 -1.34095931661948,52.5960437753436,0 -1.34097145814969,52.5960602482906,0 -1.34098311033579,52.5960768525344,0 -1.34099402125728,52.5960936397256,0 -1.34100364792849,52.5961106831426,0 -1.34101291280286,52.5961278107847,0 -1.34102188154634,52.596145007833,0 -1.34103061982485,52.5961622594689,0 -1.34103919330432,52.5961795508737,0 -1.34104766765069,52.5961968672286,0 -1.34105610852989,52.596214193715,0 -1.34106458160786,52.596231515514,0 -1.34107315255052,52.596248817807,0 -1.34108188702382,52.5962660857753,0 -1.34109085069367,52.5962833046001,0 -1.34110015103366,52.596300453146,0 -1.34111062095563,52.596317401418,0 -1.34112026363908,52.5963344490339,0 -1.34112740987171,52.5963519125515,0 -1.34113343556545,52.5963696300271,0 -1.3411386383495,52.5963874312972,0 -1.34114351337526,52.5964052193572,0 -1.34114844949378,52.5964230337912,0 -1.34115331381025,52.5964408740455,0 -1.34115796840242,52.5964587387115,0 -1.34116227534802,52.5964766263806,0 -1.34116609672479,52.5964945356442,0 -1.34116929461046,52.5965124650939,0 -1.34117184741099,52.5965304195146,0 -1.34117418316617,52.5965484219031,0 -1.3411761935583,52.5965664585145,0 -1.34117768690082,52.5965845106666,0 -1.34117847150714,52.5966025596774,0 -1.34117852147534,52.596620600784,0 -1.3411781518389,52.5966386539015,0 -1.3411774239214,52.5966567140779,0 -1.34117638600953,52.5966747751983,0 -1.34117508639,52.5966928311481,0 -1.3411735733495,52.5967108758125,0 -1.34117189517472,52.5967289030766,0 -1.34117009751569,52.5967469069294,0 -1.34116789446407,52.5967648951639,0 -1.34116513457435,52.5967828728556,0 -1.3411619130688,52.596800835913,0 -1.34115832516966,52.5968187802449,0 -1.3411544660992,52.5968367017599,0 -1.34115043107968,52.5968545963666,0 -1.34114625207103,52.5968724576841,0 -1.34114139142845,52.596890263903,0 -1.34113600036092,52.5969080286605,0 -1.34113045144986,52.5969257747615,0 -1.3411249639302,52.5969435181139,0 -1.3411193542716,52.5969612501779,0 -1.34111358443684,52.5969789633164,0 -1.34110762608832,52.596996650225,0 -1.34110146184205,52.5970143076027,0 -1.34109512280811,52.5970319437684,0 -1.3410886453625,52.5970495632557,0 -1.34108206534477,52.5970671702798,0 -1.34107541859442,52.5970847690554,0 -1.341068740951,52.5971023637977,0 -1.34106206825404,52.5971199587216,0 -1.34105543542129,52.5971375579374,0 -1.34104882199792,52.5971551592395,0 -1.34104220496963,52.5971727600356,0 -1.34103558440453,52.5971903603352,0 -1.34102896037076,52.5972079601479,0 -1.34102233293644,52.5972255594832,0 -1.34101570216968,52.5972431583508,0 -1.34100906813861,52.5972607567601,0 -1.34100243091135,52.5972783547207,0 -1.34099579055602,52.5972959522422,0 -1.34098914714075,52.5973135493341,0 -1.34098250073365,52.597331146006,0 -1.34097585140285,52.5973487422675,0 -1.34096919921647,52.597366338128,0 -1.34096254424263,52.5973839335972,0 -1.34095588654945,52.5974015286847,0 -1.34094922620505,52.5974191233999,0 -1.34094256327757,52.5974367177524,0 -1.34093589783511,52.5974543117518,0 -1.3409292299458,52.5974719054077,0 -1.34092255967776,52.5974894987295,0 -1.34091588709912,52.597507091727,0 -1.34090921227799,52.5975246844095,0 -1.3409025352825,52.5975422767867,0 -1.34089585618077,52.5975598688682,0 -1.34088917504092,52.5975774606634,0 -1.34088249193107,52.597595052182,0 -1.34087580691935,52.5976126434335,0 -1.34086912007387,52.5976302344274,0 -1.34086243146276,52.5976478251734,0 -1.34085574115415,52.5976654156809,0 -1.34084904921614,52.5976830059596,0 -1.34084235571687,52.597700596019,0 -1.34083566072445,52.5977181858686,0 -1.34082896430701,52.597735775518,0 -1.34082226653267,52.5977533649767,0 -1.34081556746955,52.5977709542544,0 -1.34080886718578,52.5977885433606,0 -1.34080216574947,52.5978061323048,0 -1.34079546322874,52.5978237210966,0 -1.34078875969173,52.5978413097455,0 -1.34078205520654,52.5978588982612,0 -1.34077534984131,52.5978764866531,0 -1.34076864366415,52.5978940749308,0 -1.34076193674318,52.5979116631039,0 -1.34075522914654,52.5979292511819,0 -1.34074852094233,52.5979468391745,0 -1.34074181219868,52.597964427091,0 -1.34073510298372,52.5979820149412,0 -1.34072839336556,52.5979996027346,0 -1.34072168341233,52.5980171904806,0 -1.34071497319214,52.598034778189,0 -1.34070826277313,52.5980523658692,0 -1.34070155222341,52.5980699535307,0 -1.3406948416111,52.5980875411833,0 -1.34068813100433,52.5981051288363,0 -1.34068142047121,52.5981227164994,0 -1.34067471007988,52.5981403041821,0 -1.34066799989844,52.598157891894,0 -1.34066128999503,52.5981754796446,0 -1.34065458043777,52.5981930674435,0 -1.34064787129477,52.5982106553003,0 -1.34064116263415,52.5982282432245,0 -1.34063445452405,52.5982458312256,0 -1.34062774703258,52.5982634193133,0 -1.34062104022787,52.598281007497,0 -1.34061433417803,52.5982985957864,0 -1.34060762895119,52.598316184191,0 -1.3406009245737,52.5983337727143,0 -1.34059421929983,52.5983513611036,0 -1.34058751222482,52.5983689492285,0 -1.34058080340987,52.5983865370982,0 -1.34057409291622,52.5984041247218,0 -1.34056738080505,52.5984217121086,0 -1.3405606671376,52.5984392992679,0 -1.34055395197507,52.5984568862088,0 -1.34054723537867,52.5984744729405,0 -1.34054051740962,52.5984920594724,0 -1.34053379812914,52.5985096458136,0 -1.34052707759842,52.5985272319733,0 -1.3405203558787,52.5985448179608,0 -1.34051363303118,52.5985624037853,0 -1.34050690911707,52.598579989456,0 -1.34050018419758,52.5985975749821,0 -1.34049345833394,52.598615160373,0 -1.34048673158735,52.5986327456377,0 -1.34048000401902,52.5986503307855,0 -1.34047327569018,52.5986679158256,0 -1.34046654666202,52.5986855007674,0 -1.34045981699577,52.5987030856199,0 -1.34045308675264,52.5987206703924,0 -1.34044635599384,52.5987382550942,0 -1.34043962478058,52.5987558397344,0 -1.34043289317408,52.5987734243223,0 -1.34042616123555,52.5987910088672,0 -1.34041942902621,52.5988085933781,0 -1.34041269660726,52.5988261778645,0 -1.34040596403992,52.5988437623353,0 -1.3403992313854,52.5988613468001,0 -1.34039249870491,52.5988789312678,0 -1.34038576605968,52.5988965157478,0 -1.3403790335109,52.5989141002493,0 -1.3403723011198,52.5989316847815,0 -1.34036556894759,52.5989492693536,0 -1.34035883705547,52.5989668539749,0 -1.34035210550467,52.5989844386546,0 -1.3403453743564,52.5990020234018,0 -1.34033864367187,52.5990196082259,0 -1.34033191351229,52.599037193136,0 -1.34032518393887,52.5990547781415,0 -1.34031845501283,52.5990723632514,0 -1.34031172679539,52.599089948475,0 -1.34030499934775,52.5991075338216,0 -1.34029827273112,52.5991251193004,0 -1.34029154700673,52.5991427049205,0 -1.34028482223578,52.5991602906913,0 -1.34027809847949,52.599177876622,0 -1.34027137579907,52.5991954627217,0 -1.34026465425573,52.5992130489997,0 -1.34025793391068,52.5992306354652,0 -1.34025121482515,52.5992482221275,0 -1.34024449706033,52.5992658089957,0 -1.34023778067745,52.5992833960792,0 -1.34023106573772,52.599300983387,0 -1.34022435230235,52.5993185709285,0 -1.34021764053996,52.5993361587352,0 -1.34021094603892,52.5993537500476,0 -1.3402042785282,52.5993713468904,0 -1.34019763606954,52.5993889488616,0 -1.34019101672466,52.5994065555593,0 -1.34018441855528,52.5994241665815,0 -1.34017783962312,52.5994417815264,0 -1.34017127798991,52.5994593999919,0 -1.34016473171737,52.5994770215762,0 -1.34015819886723,52.5994946458772,0 -1.34015167750119,52.5995122724931,0 -1.340145165681,52.5995299010219,0 -1.34013866146837,52.5995475310617,0 -1.34013216292502,52.5995651622106,0 -1.34012566811268,52.5995827940665,0 -1.34011917509308,52.5996004262275,0 -1.34011268192792,52.5996180582918,0 -1.34010618667894,52.5996356898574,0 -1.34009968740786,52.5996533205223,0 -1.3400931821764,52.5996709498845,0 -1.34008666904629,52.5996885775422,0 -1.34008014607925,52.5997062030935,0 -1.340073611337,52.5997238261363,0 -1.34006706288126,52.5997414462687,0 -1.34006049877376,52.5997590630889,0 -1.34005391707622,52.5997766761947,0 -1.34004731585036,52.5997942851844,0 -1.34004069315791,52.599811889656,0 -1.34003404706058,52.5998294892075,0 -1.34002737562011,52.5998470834369,0 -1.34002067689821,52.5998646719425,0 -1.34001394895662,52.5998822543221,0 -1.34000718985704,52.5998998301739,0 -1.3400003976612,52.599917399096,0 -1.33999357043084,52.5999349606863,0 -1.33998670622766,52.599952514543,0 -1.33997980311339,52.5999700602641,0 -1.33997285914976,52.5999875974477,0 -1.33996587239849,52.6000051256918,0 -1.3399588409213,52.6000226445944,0 -1.33995176277991,52.6000401537538,0 -1.33994463603606,52.6000576527678,0 -1.33993745875145,52.6000751412346,0 -1.33993022898781,52.6000926187523,0 -1.33992292423311,52.6001100840619,0 -1.33991521411342,52.6001275174277,0 -1.33990704550987,52.6001448975799,0 -1.3398984987887,52.6001622070757,0 -1.33988965431616,52.6001794284729,0 -1.33988047266665,52.600196575891,0 -1.33987079958051,52.6002136761901,0 -1.33986067489984,52.6002306917545,0 -1.33985014254084,52.6002475837665,0 -1.33983924531617,52.6002643140685,0 -1.33982774008481,52.6002809645802,0 -1.33981534502668,52.6002974621662,0 -1.33980195524623,52.6003135891228,0 -1.33978739463698,52.6003291605499,0 -1.33977138518316,52.6003442837739,0 -1.33975435994976,52.6003591135225,0 -1.33973684347599,52.6003737883364,0 -1.33971936030106,52.6003884467561,0 -1.33970224748816,52.6004031976409,0 -1.33968512708154,52.6004179677637,0 -1.33966778891668,52.6004326366116,0 -1.33965004997436,52.6004470856115,0 -1.33963173270163,52.6004612422255,0 -1.33961279448184,52.6004751694188,0 -1.33959331509387,52.6004888194472,0 -1.33957336027969,52.6005021331917,0 -1.33955267173029,52.6005150763479,0 -1.33953138621823,52.6005276823148,0 -1.33950981612436,52.6005400493451,0 -1.33948803725365,52.6005523583315,0 -1.33946594641804,52.6005644757064,0 -1.33944343600903,52.6005762376283,0 -1.33942039153711,52.6005874819853,0 -1.3393965900386,52.6005981805039,0 -1.3393721975153,52.6006084946706,0 -1.33934752808061,52.6006185951692,0 -1.33932288976024,52.6006286540869,0 -1.33929828123389,52.6006387630131,0 -1.33927344822213,52.6006486660603,0 -1.33924816808383,52.6006580419803,0 -1.33922235175334,52.6006669857552,0 -1.33919603470488,52.6006753987775,0 -1.33916923146322,52.6006829519004,0 -1.33914198346231,52.6006899590189,0 -1.33911439781243,52.6006966401853,0 -1.33908659057155,52.6007030536811,0 -1.33905867779766,52.6007092577882,0 -1.339030767677,52.6007153218373,0 -1.33900281704039,52.6007213973573,0 -1.33897476496683,52.6007273724002,0 -1.33894657723616,52.6007330615867,0 -1.33891821962825,52.6007382795374,0 -1.33888964627369,52.6007429314824,0 -1.33886080947436,52.60074727145,0 -1.3388317740106,52.6007511520075,0 -1.3388026162472,52.6007543639267,0 -1.33877334180516,52.6007570439087,0 -1.33874390971128,52.6007595007882,0 -1.33871439011511,52.600761460411,0 -1.33868484671389,52.6007627083419,0 -1.33865525034796,52.6007637490247,0 -1.33862560812856,52.6007646522782,0 -1.33859594814894,52.6007652971,0 -1.33856629850238,52.6007655624877,0 -1.33853665097132,52.600765411827,0 -1.33850698967545,52.6007649536271,0 -1.33847733300868,52.600764282039,0 -1.33844769936748,52.6007634912098,0 -1.33841810602009,52.6007626719273,0 -1.33838847645407,52.6007615679991,0 -1.33835883306948,52.6007599987126,0 -1.33832928605575,52.6007580010128,0 -1.33829994560228,52.6007556118448,0 -1.33827101513143,52.6007522491104,0 -1.33824254315414,52.6007469223042,0 -1.33821369713151,52.6007427557408,0 -1.3381845352,52.6007392268775,0 -1.3381551987931,52.6007366725337,0 -1.33812567004335,52.6007350653305,0 -1.33809600167055,52.6007342098346,0 -1.3380663982549,52.6007347673072,0 -1.33803681106135,52.6007360053901,0 -1.33800723866458,52.6007375666062,0 -1.33797769197866,52.6007391695458,0 -1.33794810573355,52.6007406950297,0 -1.33791845996145,52.6007423208972,0 -1.33788887387237,52.600744166749,0 -1.33785946715615,52.6007463516425,0 -1.33783036067062,52.6007490135655,0 -1.3378016624652,52.6007530145673,0 -1.33777325216263,52.6007582456925,0 -1.33774494124224,52.6007639810033,0 -1.33771654118341,52.6007694945617,0 -1.33768785101519,52.6007740690073,0 -1.33765882581245,52.6007778126665,0 -1.33763000876764,52.6007820394977,0 -1.33760129638449,52.6007865646418,0 -1.33757264449512,52.6007912644481,0 -1.33754406549124,52.6007961306616,0 -1.33751557176456,52.600801155027,0 -1.3374871757068,52.6008063292893,0 -1.33745888019607,52.6008116623969,0 -1.33743066246265,52.60081718012,0 -1.33740251239755,52.6008228567653,0 -1.33737442085934,52.6008286642101,0 -1.33734637870659,52.6008345743313,0 -1.33731837679787,52.6008405590062,0 -1.33729040599174,52.6008465901118,0 -1.33726245714677,52.6008526395253,0 -1.33723452112154,52.6008586791238,0 -1.33720653056263,52.6008646698153,0 -1.3371785541386,52.6008707510037,0 -1.33715087083725,52.6008772087901,0 -1.33712370402058,52.6008842923622,0 -1.33709690030767,52.6008919268386,0 -1.33707034110877,52.6008999533144,0 -1.33704393385932,52.6009082236558,0 -1.33701758599474,52.6009165897287,0 -1.33699120495047,52.6009249033993,0 -1.33696470262181,52.6009330242219,0 -1.33693812421487,52.6009410361914,0 -1.33691152220958,52.6009490221385,0 -1.33688491203275,52.6009569989546,0 -1.33685830911115,52.6009649835312,0 -1.33683172887158,52.6009729927596,0 -1.33680518674082,52.6009810435313,0 -1.33677869814566,52.6009891527378,0 -1.33675227687731,52.6009973357545,0 -1.33672588019569,52.6010055547191,0 -1.3366994893301,52.6010137916733,0 -1.33667311258303,52.6010220533703,0 -1.33664675825697,52.6010303465632,0 -1.33662043465439,52.6010386780049,0 -1.3365941500778,52.6010470544486,0 -1.33656791282967,52.6010554826473,0 -1.33654173121249,52.6010639693541,0 -1.33651561352875,52.6010725213221,0 -1.33648956808093,52.6010811453043,0 -1.33646360317152,52.6010898480538,0 -1.33643772492511,52.6010986376358,0 -1.33641192652239,52.6011075182219,0 -1.33638619949617,52.6011164811714,0 -1.33636053571007,52.6011255170841,0 -1.33633492702772,52.60113461656,0 -1.33630936531277,52.6011437701986,0 -1.33628384242884,52.6011529685999,0 -1.33625835023957,52.6011622023636,0 -1.3362328806086,52.6011714620895,0 -1.33620742539955,52.6011807383774,0 -1.33618197647606,52.601190021827,0 -1.33615652570177,52.6011993030381,0 -1.3361310649403,52.6012085726106,0 -1.33610558605529,52.6012178211442,0 -1.33608008091038,52.6012270392387,0 -1.33605454375925,52.601236220316,0 -1.33602905725362,52.6012454620226,0 -1.33600363483839,52.6012547798505,0 -1.33597823435536,52.601264123562,0 -1.33595281364637,52.6012734429195,0 -1.33592733055324,52.6012826876852,0 -1.33590174291778,52.6012918076214,0 -1.33587600858183,52.6013007524903,0 -1.33585007282344,52.601309461415,0 -1.33582363704076,52.6013176569438,0 -1.33579692443695,52.6013254869316,0 -1.33577000637928,52.6013330709927,0 -1.33574317551963,52.6013407769049,0 -1.33571648914387,52.6013486877872,0 -1.33568930387921,52.6013558066568,0 -1.33566171934972,52.601362377618,0 -1.33563391169119,52.6013686655944,0 -1.33560598215911,52.6013747944274,0 -1.33557803200897,52.6013808879582,0 -1.3355501552862,52.6013870606337,0 -1.33552225669758,52.6013931854165,0 -1.33549431677565,52.6013992475171,0 -1.33546639316827,52.6014053346757,0 -1.33543854352328,52.6014115346329,0 -1.33541082182698,52.6014179307053,0 -1.33538321632196,52.6014245167203,0 -1.3353556908926,52.6014312364842,0 -1.33532821554105,52.6014380389005,0 -1.33530076026945,52.6014448728727,0 -1.33527329507994,52.6014516873042,0 -1.33524579790719,52.6014584505089,0 -1.3352182862356,52.6014651969751,0 -1.33519078879129,52.601471964862,0 -1.33516333425317,52.6014787919566,0 -1.33513595130021,52.601485716046,0 -1.33510867334105,52.6014927884124,0 -1.33508150658542,52.6015000308532,0 -1.33505440484715,52.6015073670483,0 -1.33502732349196,52.601514723864,0 -1.33500025732478,52.6015221019058,0 -1.33497321148,52.6015295093948,0 -1.33494618899987,52.6015369491147,0 -1.33491919292664,52.6015444238489,0 -1.33489222630256,52.601551936381,0 -1.33486529389929,52.6015594919967,0 -1.33483841705435,52.6015671211398,0 -1.3348115837748,52.6015748086686,0 -1.33478477151107,52.6015825244974,0 -1.3347579577136,52.6015902385406,0 -1.33473111983281,52.6015979207124,0 -1.33470425091629,52.6016055619495,0 -1.33467738406708,52.6016132069195,0 -1.33465050447436,52.6016208354082,0 -1.3346235927636,52.6016284210385,0 -1.33459662956028,52.6016359374332,0 -1.33456957514248,52.6016433309106,0 -1.33454238833035,52.6016505459409,0 -1.33451519415151,52.6016577501752,0 -1.33448813185513,52.6016651303439,0 -1.3344612536012,52.6016727562155,0 -1.33443446369979,52.6016805010039,0 -1.33440765577323,52.6016882242244,0 -1.3343807351526,52.6016958042746,0 -1.33435372026925,52.6017032683926,0 -1.33432669272018,52.6017107135239,0 -1.33429973478183,52.6017182369636,0 -1.33427292873063,52.601725936007,0 -1.33424570189079,52.601732886575,0 -1.33421659143994,52.6017363332396,0 -1.3341880639383,52.6017322798444,0 -1.3341634355052,52.6017223703995,0 -1.33414627470477,52.6017074658198,0 -1.33414149472386,52.6016898839053,0 -1.33414195407759,52.6016718375464,0 -1.33415260739244,52.6016550635474,0 -1.33416800302178,52.6016398790746,0 -1.33419083286995,52.6016281979592,0 -1.33421672371897,52.601619575067,0 -1.33424328969539,52.6016115505413,0 -1.33426988338546,52.6016035590031,0 -1.33429662904286,52.6015957639652,0 -1.33432351912999,52.6015881508215,0 -1.33435045434161,52.6015805933667,0 -1.33437736307306,52.6015730032338,0 -1.33440427849909,52.6015654219377,0 -1.3344311864681,52.6015578311765,0 -1.33445805329402,52.6015501882547,0 -1.33448484896082,52.601542454343,0 -1.33451158435187,52.6015346418805,0 -1.33453829509904,52.6015267969654,0 -1.33456501714335,52.6015189661798,0 -1.3345917871538,52.60151119697,0 -1.33461862313713,52.6015035120744,0 -1.33464547364399,52.6014958461862,0 -1.33467227610184,52.6014881201057,0 -1.33469896738103,52.6014802524982,0 -1.33472556748262,52.6014722673116,0 -1.33475216793026,52.6014642832239,0 -1.33477886132483,52.6014564203867,0 -1.33480571238396,52.6014487612357,0 -1.3348326734071,52.6014412419162,0 -1.33485967357541,52.6014337714017,0 -1.33488664223141,52.6014262589119,0 -1.3349135245201,52.601418634243,0 -1.33494035847362,52.6014109475198,0 -1.33496716426623,52.6014032247572,0 -1.33499395518916,52.6013954829586,0 -1.33502074453368,52.6013877391278,0 -1.33504754559103,52.6013800102684,0 -1.33507437263072,52.601372314374,0 -1.33510121938932,52.6013646433193,0 -1.33512806067305,52.6013569655587,0 -1.33515487103713,52.6013492492414,0 -1.33518162419888,52.6013414613315,0 -1.33520829888194,52.6013335732216,0 -1.33523492474251,52.6013256222505,0 -1.33526154195251,52.601317659831,0 -1.33528819068387,52.6013097373755,0 -1.33531491140204,52.601301906668,0 -1.33534173673106,52.6012942093424,0 -1.3353686247279,52.6012865919757,0 -1.33539551249692,52.6012789745019,0 -1.33542233714253,52.6012712768551,0 -1.33544906237134,52.6012634528501,0 -1.33547572947279,52.6012555550443,0 -1.3355023568604,52.6012476067972,0 -1.33552896100867,52.6012396289979,0 -1.3355555583921,52.6012316425351,0 -1.33558216548519,52.6012236682977,0 -1.33560879870546,52.6012157271014,0 -1.33563545413388,52.6012078137191,0 -1.33566211852383,52.6011999112816,0 -1.33568878902663,52.6011920163612,0 -1.33571546279363,52.6011841255305,0 -1.33574213697615,52.6011762353619,0 -1.33576880872551,52.6011683424279,0 -1.33579547519305,52.601160443301,0 -1.33582213353009,52.6011525345536,0 -1.33584878528759,52.6011446173877,0 -1.3358754769379,52.601136740462,0 -1.33590220239821,52.6011288975376,0 -1.33592893709233,52.6011210629631,0 -1.33595565644409,52.6011132110872,0 -1.33598233587729,52.6011053162584,0 -1.33600895081576,52.6010973528255,0 -1.33603547668331,52.6010892951371,0 -1.33606188890376,52.6010811175418,0 -1.33608816940548,52.6010727921192,0 -1.33611433359309,52.6010643068273,0 -1.33614039447984,52.6010556836373,0 -1.3361663636775,52.6010469464191,0 -1.33619225279786,52.6010381190422,0 -1.3362180734527,52.6010292253764,0 -1.33624383725379,52.6010202892914,0 -1.3362695350507,52.6010112845344,0 -1.3362951262925,52.601002145222,0 -1.33632059004075,52.600992878382,0 -1.33634590571367,52.6009834920714,0 -1.3363712162155,52.6009740455369,0 -1.33639636656624,52.6009644076101,0 -1.33642083917529,52.6009542800674,0 -1.33644418452235,52.6009432049308,0 -1.33646679455317,52.6009314622559,0 -1.33648919937413,52.6009196343961,0 -1.33651119636362,52.6009075222536,0 -1.33653269711297,52.6008950879933,0 -1.33655380565654,52.6008824024561,0 -1.33657479913107,52.6008696202171,0 -1.33659525408445,52.6008565444612,0 -1.33661435168211,52.6008427797778,0 -1.33663246896156,52.600828451485,0 -1.33665037254208,52.6008140490287,0 -1.33666774728829,52.6007994082616,0 -1.3366839792576,52.6007843259646,0 -1.33669940778668,52.6007688790226,0 -1.33671423645709,52.6007532523985,0 -1.33672857216393,52.6007374253071,0 -1.33674201599561,52.6007213494691,0 -1.33675452842512,52.6007049751799,0 -1.33676647490862,52.6006884429554,0 -1.33677782203466,52.6006717624922,0 -1.33678920505732,52.6006550861584,0 -1.33680147700248,52.6006386356471,0 -1.33681355880729,52.6006221509661,0 -1.33682418324317,52.6006053136394,0 -1.33683407522506,52.6005882778496,0 -1.33684400010184,52.6005712628701,0 -1.33685388787733,52.600554240483,0 -1.33686372672184,52.6005372060082,0 -1.33687354506098,52.6005201672876,0 -1.33688342100346,52.6005031403127,0 -1.33689337656012,52.6004861278167,0 -1.33690323220741,52.6004690959692,0 -1.33691280317711,52.6004520100221,0 -1.33692192252607,52.6004348363236,0 -1.3369306519272,52.6004175818504,0 -1.33693920734227,52.6004002903371,0 -1.33694780742926,52.6003830064577,0 -1.33695662601295,52.6003657659279,0 -1.33696555232658,52.6003485471332,0 -1.33697452968544,52.6003313385988,0 -1.33698352555885,52.6003141336664,0 -1.33699257828664,52.600296943271,0 -1.33700168548187,52.6002797662011,0 -1.33701078684767,52.6002625860848,0 -1.33701982208716,52.6002453865501,0 -1.33702873072314,52.600228151162,0 -1.33703661844261,52.6002105861107,0 -1.33704489234295,52.600193264214,0 -1.33705626848683,52.6001770085279,0 -1.33706662353351,52.6001603058445,0 -1.33707633362672,52.6001432495895,0 -1.33708538062177,52.6001259166228,0 -1.33709374637395,52.6001083838047,0 -1.33710141273854,52.600090727995,0 -1.33710836157085,52.6000730260539,0 -1.33711457472616,52.6000553548412,0 -1.33712031701261,52.6000377262606,0 -1.33712626491701,52.6000199671319,0 -1.33713176762829,52.6000021008635,0 -1.33713606473979,52.599984171522,0 -1.33713839584485,52.5999662231741,0 -1.33713869505591,52.5999482731559,0 -1.33713834277007,52.599930281943,0 -1.33713746284262,52.5999122572344,0 -1.33713610622293,52.5998942095097,0 -1.33713432386035,52.5998761492483,0 -1.33713216670425,52.5998580869299,0 -1.33712968570399,52.5998400330338,0 -1.33712693180892,52.5998219980395,0 -1.33712395596841,52.5998039924267,0 -1.33712080052644,52.5997860270714,0 -1.33711623575499,52.599768171003,0 -1.33711471812685,52.5997501813995,0 -1.3371137160513,52.5997321240568,0 -1.33711274619497,52.5997140564574,0 -1.33711156199223,52.5996960131247,0 -1.33711035362697,52.5996779721232,0 -1.33710914044888,52.5996599313767,0 -1.33710792614812,52.5996418904718,0 -1.3371067077834,52.5996238496447,0 -1.33710549705931,52.5996058086276,0 -1.33710429098234,52.5995877675028,0 -1.3371030846289,52.5995697263957,0 -1.33710187814194,52.5995516853014,0 -1.33710067166444,52.5995336442148,0 -1.33709946533935,52.599515603131,0 -1.33709825930963,52.5994975620447,0 -1.33709705371825,52.5994795209511,0 -1.33709584870817,52.599461479845,0 -1.33709464442235,52.5994434387214,0 -1.33709344100376,52.5994253975753,0 -1.33709223859535,52.5994073564017,0 -1.3370910373401,52.5993893151954,0 -1.33708983738095,52.5993712739515,0 -1.33708863886089,52.5993532326648,0 -1.33708744192285,52.5993351913304,0 -1.33708624670982,52.5993171499433,0 -1.33708505336475,52.5992991084983,0 -1.33708386203061,52.5992810669904,0 -1.33708267285035,52.5992630254147,0 -1.33708148596694,52.5992449837659,0 -1.33708030152334,52.5992269420392,0 -1.33707911966252,52.5992089002295,0 -1.33707794052743,52.5991908583316,0 -1.33707676426105,52.5991728163407,0 -1.33707559100632,52.5991547742516,0 -1.3370744277778,52.5991367318411,0 -1.33707328783835,52.5991186886914,0 -1.33707216878097,52.5991006448849,0 -1.33707106767931,52.5990826005208,0 -1.33706998160704,52.599064555698,0 -1.33706890763781,52.5990465105157,0 -1.33706784284527,52.5990284650729,0 -1.33706678430308,52.5990104194688,0 -1.33706572908489,52.5989923738023,0 -1.33706467426437,52.5989743281726,0 -1.33706361691517,52.5989562826787,0 -1.33706255411093,52.5989382374197,0 -1.33706148292533,52.5989201924946,0 -1.337060400432,52.5989021480026,0 -1.33705930370462,52.5988841040427,0 -1.33705818981683,52.5988660607139,0 -1.3370570558423,52.5988480181154,0 -1.33705589885466,52.5988299763463,0 -1.33705471592759,52.5988119355054,0 -1.33705350413474,52.5987938956921,0 -1.33705226054976,52.5987758570053,0 -1.33705098224631,52.5987578195441,0 -1.33704966629804,52.5987397834075,0 -1.33704814675652,52.5987217526769,0 -1.33704649778407,52.5987037236479,0 -1.33704547171314,52.5986856801491,0 -1.33704497758613,52.5986676253064,0</coordinates>
      </LineString>
    </Placemark>
  </Document>
</kml>