xpos,ypos,zpos,time
41.6217665367341,23.534843324562,11.8914553926777,0
41.7874044039676,21.527727938515,11.828887325749,0.827432755522506
41.9530316865548,19.5187192342485,11.7646077535335,1.17087443840403
42.1186197696309,17.5078510473891,11.7002610943436,1.4351283154931
42.2841399891544,15.4950911690564,11.6620606872396,1.65845836653644
42.4495642850915,13.4804630414532,11.6331644782405,1.85575745263157
42.6148654010066,11.4640284255515,11.6042316523898,2.03462766287598
42.7800144447452,9.44579648444073,11.575261231539,2.19957355637541
42.9449825205773,7.42577629377217,11.5461014042184,2.35352754271903
43.1097399675712,5.40396205095124,11.4970251046717,2.49855196715635
43.2742559057785,3.38032818097918,11.4478917843504,2.63609987123092
43.4384979044755,1.35482754526379,11.3987019587887,2.7672912861272
43.6024331025963,-0.672592228179269,11.3494533815219,2.89299606017617
43.7660307316976,-2.70196091564799,11.3001444560687,3.01390419268244
43.9292610292544,-4.73329853342432,11.2507737864278,3.1305741931802
44.0920937755449,-6.76662912217171,11.2110992387302,3.24345462897678
44.2544997428796,-8.80196873937314,11.1795766390755,3.35293411468575
44.4164497342147,-10.8393332156277,11.1480064594905,3.45934500935158
44.577914655692,-12.8787376744527,11.1153971389947,3.56296510455588
44.7388658661205,-14.92019435472,11.0635783475522,3.66405155357343
44.8992753882301,-16.9637115441957,11.0116980309818,3.76279155872372
45.0591159096156,-19.0092938216163,10.9955708853834,3.85933900258798
45.2183610999655,-21.0569406125535,10.9797391235334,3.95388233445354
45.3769857203374,-23.1066459398714,10.9657311653436,4.0465624217733
45.5349658835202,-25.1583974956338,10.9700490340151,4.13750374902517
45.692279342265,-27.2121756866898,10.974349557214,4.22682064546053
45.8489057964366,-29.2679526961352,10.9700991417743,4.31461389540369
46.0048271309821,-31.3256919132224,10.9561824312473,4.40097598876391
46.1600276317896,-33.3853475008639,10.9422299996927,4.48598702689761
46.3144998994166,-35.4468430525679,10.9282422559573,4.56972036570914
46.4682520302322,-37.5100475524973,10.9142206385826,4.65224084156831
46.6211929018118,-39.5751657640358,10.9001609618444,4.73362052575192
46.7732493602848,-41.6423439466973,10.86821350499,4.81393129184821
46.9245075407055,-43.7112286871296,10.8357972020719,4.89320644875018
47.0751875365788,-45.7810612532609,10.8033489700695,4.97146843032294
47.2255700540738,-47.8509057543162,10.7708927150386,5.04873120787907
47.3756748317518,-49.9205647205245,10.7384324286476,5.12503317435713
47.5252806988202,-51.990502510127,10.6966968315429,5.20043903675486
47.6740567248068,-54.061477041044,10.6458805997807,5.27501512800378
47.8214914189043,-56.1347173153128,10.5949692039766,5.34883176739051
47.9672303033629,-58.2110522930694,10.543931495238,5.4219489982213
48.1112385437526,-60.2905156965488,10.492765667606,5.49439705707175
48.2537252799494,-62.3725489687422,10.4414917827867,5.56618471598669
48.394989026959,-64.456381970881,10.3901347573153,5.63731289625571
48.535035528116,-66.5419203749814,10.3387006359964,5.70780391944881
48.6737884743321,-68.6292546245859,10.2871850844769,5.77768472160158
48.811235758383,-70.7183340513852,10.2355891237339,5.84697629001314
48.9473765388298,-72.8090838086022,10.1839147095622,5.91569766732854
49.0822144513625,-74.9014196631042,10.1589780078817,5.98385066826806
49.2157575467579,-76.9952483358923,10.1423867942479,6.05146514915685
49.3480182415508,-79.0904678027096,10.1257665997999,6.11855905069228
49.479013646227,-81.1869668422585,10.1141810194031,6.18514542254734
49.6087655543147,-83.2846252541002,10.1026242393799,6.25123843077636
49.7373002283761,-85.3833144485241,10.0859101923987,6.3168512849444
49.8646402417415,-87.4829126194656,10.0725316525513,6.3819938295084
49.9908467376763,-89.5832284560778,10.0591021288752,6.4466758250269
50.1159936930301,-91.6840479710363,10.0456264135327,6.51090508521209
50.2401215859627,-93.7852152478176,10.0321074689347,6.57469064154354
50.3632275762395,-95.8866480864512,10.0082131172715,6.63804592391606
50.4852703151484,-97.9883286558543,10.0056063061212,6.70097614299062
50.6061786992573,-100.09028800765,10.0089282785794,6.76349824100999
50.7258652157105,-102.192583702958,10.0122181823173,6.82562526880915
50.8442473046818,-104.295265430862,10.0154738523752,6.88736956688458
50.9613087141008,-106.398279163046,9.99659172451047,6.94874247711697
51.077053586025,-108.501539466126,9.95111794918757,7.00976100356385
51.1914734363619,-110.604980053668,9.89551444450387,7.07042812503213
51.3045556274573,-112.708540843767,9.83990785569626,7.13074449308835
51.4162878059319,-114.812161336078,9.7842997826936,7.19071747301633
51.5266575059907,-116.915781193313,9.74008308020816,7.25034650744876
51.6356519464218,-119.019340529236,9.70175655641587,7.30964283053205
51.7432577335408,-121.122780321268,9.62898312605651,7.36864158708421
51.849460891476,-123.22604235651,9.55619759634414,7.42732343724611
51.9542476482757,-125.329068142255,9.4834018498046,7.48569439466507
52.0576041241099,-127.431799331803,9.43312750224036,7.5437421345995
52.1595163202608,-129.53417773724,9.40013893479012,7.60148112113792
52.2599702871562,-131.636145105814,9.36709761395027,7.65892613925419
52.35895160997,-133.737643790323,9.33400536171714,7.71608231247834
52.4564458280856,-135.838616202369,9.30086373913372,7.77295456597763
52.5524381670084,-137.939005151808,9.27825823356715,7.82970712158253
52.6469136131202,-140.038753748115,9.26480884892181,7.88676864790353
52.739857795116,-142.13780430568,9.2568723770677,7.94441119861669
52.831256361556,-144.236099114537,9.26180596497021,8.00264698842215
52.9210949678927,-146.333580456326,9.26665745589657,8.0614884519219
53.0093593233689,-148.430190548415,9.27142600890549,8.12094827986528
53.0960359911646,-150.525870601381,9.27611090333762,8.18103966872724
53.181117334843,-152.620555069306,9.28071183008854,8.24177618999182
53.2645583058691,-154.714221466265,9.28522321920418,8.30317322942689
53.3463312360839,-156.806827538962,9.28964646681808,8.36524629198163
53.4264605587787,-158.898272478369,9.29398313240129,8.42800988118912
53.5050116745804,-160.988409977463,9.29823660031192,8.49147782370423
53.5820714658533,-163.077070153326,9.30241154434462,8.55566388289252
53.6577266539164,-165.164083297366,9.3065107913474,8.62058247472494
53.7320438693249,-167.249301234479,9.31053775482998,8.68624936659929
53.8050477943713,-169.332620223169,9.31449549651516,8.75268247885847
53.8766822399146,-171.414021178634,9.31838096177655,8.81990329435585
53.9468868403766,-173.49348933344,9.32219111375148,8.88793454858154
54.015616384328,-175.570994417201,9.32592339511891,8.95679968293232
54.0828289777936,-177.646502732406,9.32957244045335,9.02652329582506
54.1483809940357,-179.719875747974,9.33313402329261,9.09712764617441
54.2119826144555,-181.790818186881,9.33659271860695,9.16863066099672
54.2733497665291,-183.859029097669,9.33993374071846,9.24105114023462
54.3322037893797,-185.924202314611,9.34314241647496,9.31440884946568
54.3882709853773,-187.986026951594,9.34620230186544,9.38872462302339
54.4412820925102,-190.044187954096,9.34909979522907,9.46402048028036
54.4909717801754,-192.098366616325,9.35182225048056,9.54031975269704
54.5370769299843,-194.148242201581,9.35435590648872,9.61764726575777
54.5793334133893,-196.193494889631,9.35668689438565,9.69602959147476
54.6174809566645,-198.233801401014,9.35880129256499,9.7754950482033
54.6512806862466,-200.268819462251,9.36068350310934,9.85607326469912
54.6805181959155,-202.298185313601,9.35526854955594,9.9377954824703
54.7050048004346,-204.321512845097,9.33846680327019,10.020696464127
54.7245721540889,-206.33839846061,9.3215276632502,10.1048080152725
54.7390583473428,-208.348433091524,9.30444833766554,10.1901669051772
54.7482824536237,-210.351223652157,9.28722355909378,10.2768136348573
54.7520171347194,-212.346415592411,9.26984722520465,10.3647938601525
54.7500026766444,-214.33368090712,9.23803854979452,10.4541664923377
54.7419740752077,-216.31269587352,9.20296648579611,10.5449819989982
54.7276229554361,-218.283171437051,9.16787880147968,10.6373004880515
54.706590365665,-220.244858476856,9.13277045822202,10.7311924948176
54.678365253146,-222.197626561403,9.11043835024028,10.8267322627145
54.6429695411785,-224.140933912672,9.09243960927743,10.9239972467059
54.5999641490455,-226.074590993709,9.05832439715369,11.023098062096
54.5476232668239,-227.999382871818,9.02373163835466,11.1239396849176
54.484119850657,-229.916170749026,8.98913368367469,11.2263600959876
54.4078742765128,-231.825630692985,8.95449793524736,11.3304964969962
54.3198384082832,-233.726551445063,8.90520257290032,11.4365029290287
54.2202058321894,-235.618285261029,8.85385867336883,11.544436428143
54.1076718212095,-237.501294248891,8.8130225836619,11.6543472516226
53.9807529099492,-239.376172367888,8.77665592205291,11.7662870599417
53.8374677699014,-241.243878529768,8.73998580568573,11.8802531168507
53.6752971700537,-243.105762171226,8.7029222976494,11.9967146380991
53.4999669219995,-244.957268622198,8.65183306601251,12.1159684143646
53.3114020108065,-246.797919077628,8.59818782830479,12.2378282376971
53.1014632462888,-248.632765720802,8.54413481356584,12.3609968414237
52.8586048966932,-250.469138267647,8.49771578115512,12.4848997575742
52.5699773253735,-252.315217595727,8.45380434183194,12.6103095575419
52.2317962272684,-254.173402689701,8.40772578371544,12.7369083697878
51.8471500297546,-256.041814178796,8.35963270616387,12.8640807169065
51.4231468371766,-257.91613531448,8.30988279595705,12.9916237901975
50.9740082369973,-259.787861940037,8.25918757386751,13.1182551536338
50.5039310975189,-261.654194047056,8.20776185996445,13.2424851723135
50.0091132334905,-263.516719553773,8.15542775714061,13.3650181943638
49.4865988901009,-265.376577959125,8.10204864404943,13.4872333473572
48.9328850502528,-267.235189729825,8.08019065605506,13.6096429503462
48.3520840556761,-269.090176236524,8.07266435362305,13.7320754128145
47.7471539137942,-270.939719932155,8.06482173272425,13.8543868858939
47.1170360341965,-272.7839095256,8.0566489303343,13.9766953523633
46.4619657339509,-274.622233692095,8.04814900640874,14.0990063583407
45.7832270815865,-276.453705891871,8.03933873798558,14.221136988393
45.079789555264,-278.278362729818,8.03020299841868,14.3431627408053
44.351792381055,-280.095738036699,8.02074365998738,14.465189718079
43.6008457523321,-281.904752271514,8.01098334228841,14.586996334152
42.8301247986295,-283.703692072242,8.00096356512583,14.7076026083805
42.0383454772444,-285.492604492728,7.99066751025629,14.8272318692198
41.2219214774608,-287.272425357904,7.98730214078777,14.9469202869577
40.3789314506122,-289.043459699502,7.98743311943722,15.0666114390975
39.5103781037095,-290.804920890641,7.98756287121874,15.1862509396627
38.6167409840705,-292.556215524343,7.98769382334104,15.3058083849125
37.6974282639214,-294.297142718308,7.98782600575186,15.4253129676669
36.7518693459146,-296.027493873371,7.98795944670194,15.5447927538218
35.7802824348357,-297.746776723031,7.98809411152019,15.6642339059373
34.7802528877302,-299.455429952505,7.98823017489558,15.7837646744633
33.7494025276692,-301.153879670984,7.98271596969678,15.9034720138496
32.6883928974784,-302.841537217215,7.96888047457826,16.0233374352405
31.6001930800495,-304.517072549935,7.95468827024816,16.1432153333355
30.4845720604222,-306.180141890107,7.94013631665782,16.2631425040381
29.3402839150767,-307.830701186292,7.92520828835091,16.3831811976633
28.1685203665108,-309.468016451265,7.909919770433,16.5032820428687
26.9743912354699,-311.090290120826,7.89433764053233,16.6232060493289
25.7631585870799,-312.695684935309,7.84611732065597,16.7426501680444
24.5375493495987,-314.282999178003,7.78029961835064,16.860995355947
23.2967575521686,-315.851881032995,7.71013000790821,16.9784314354381
22.0346416203551,-317.403203801551,7.63796647707819,17.0957397780597
20.741922172342,-318.938523174321,7.56310412646252,17.2132681313485
19.412269298615,-320.458790710675,7.48506016979032,17.3312584485362
18.0474572381028,-321.963393194299,7.4287498864188,17.4495885821023
16.6574640493018,-323.450213696436,7.36752749846309,17.5678544422101
15.2524339602714,-324.917106099853,7.29367052793749,17.6856911799994
13.8383057685659,-326.362634656132,7.21933431093348,17.8022433653475
12.4146060125236,-327.786399651845,7.14449393060087,17.9174197695099
10.9738918479408,-329.189065392758,7.07428341695953,18.0321993255144
9.50866169812059,-330.571304541189,7.01654709833158,18.1469877899836
8.01648804591088,-331.93312056475,6.95774756566997,18.2618791676958
6.50094266894757,-333.273778548799,6.8980256499016,18.3767263438853
4.9675317375449,-334.59231825432,6.84322666024807,18.4912936915218
3.41931513721585,-335.888052735841,6.80363830478509,18.6054610252101
1.85649958123662,-337.160602552218,6.7944382110883,18.7192419626879
0.275994388364495,-338.409929921262,6.77777377855807,18.8328132959444
-1.32736789297093,-339.636201624014,6.75735315043996,18.9463991472338
-2.95510445910389,-340.83924759254,6.73588103695136,19.0600658227044
-4.60461725690891,-342.018546121056,6.72405037710311,19.1737049829583
-6.27236779989403,-343.173501847526,6.72263177371086,19.2871739795368
-7.95588728459273,-344.303595401907,6.7205663728464,19.4003911362814
-9.65272727064161,-345.408308715949,6.71904103823748,19.5132599113931
-11.3609176945156,-346.487151007906,6.72527212688302,19.6257084381097
-13.0800366528573,-347.53970898248,6.75288152829805,19.7377418085725
-14.8109825712145,-348.565625667054,6.78019736782498,19.8493986066009
-16.5546885621742,-349.564545294789,6.80679756684526,19.9607308524488
-18.3137670737552,-350.536156565481,6.83267400772212,20.0718646839139
-20.0918559160428,-351.480166683976,6.857817852831,20.1829795772612
-21.8915617317066,-352.396272364,6.88222166578981,20.2942089419015
-23.7110279744723,-353.284153679182,6.90587763182772,20.4054832731648
-25.5468372242548,-354.143492396738,6.92877712466854,20.5166599416884
-27.3977822604986,-354.973959749392,6.91873507930683,20.6277068537499
-29.2631952878675,-355.775222691031,6.86641526473107,20.7386560761709
-31.141505616408,-356.546957772909,6.81280333498924,20.8494191197468
-33.0329635474829,-357.288818578807,6.7456839338605,20.9600511422248
-34.940149074519,-358.000425592407,6.68679026258913,21.0706673483749
-36.8626481616733,-358.681446820622,6.62536787446016,21.181281786868
-38.7958897544576,-359.331628784549,6.56061809282062,21.2916859854063
-40.7383279408164,-359.951087577933,6.4949618919059,21.4018419221947
-42.6939114970135,-360.539801520414,6.44034963900008,21.5119613995316
-44.6648814148768,-361.097802310387,6.39842764367801,21.6221822106907
-46.6483064535421,-361.625314981742,6.33586664344239,21.7324324705395
-48.6421898013902,-362.122525232866,6.27040734201901,21.8426252116378
-50.6461126218304,-362.58954644166,6.22055047160447,21.9527449890865
-52.6570900411941,-363.026618142256,6.17929401974806,22.0626854304987
-54.6714226899041,-363.434017012291,6.14658931104708,22.1722926887916
-56.6874262262286,-363.811909973541,6.12683524082594,22.2815132928725
-58.7058696994873,-364.160323400695,6.08361441430465,22.3904415966763
-60.7270839275856,-364.479310357395,6.03613760899206,22.4991028968485
-62.7499259393328,-364.769019949624,5.99609012917198,22.6074493726495
-64.7744818843697,-365.029514991888,5.99619781594518,22.715497907388
-66.7998253956098,-365.260935643406,5.99630248443985,22.8232454559764
-68.8248524521269,-365.46343687754,5.9964062391041,22.9306594744629
-70.849557402759,-365.637074168979,5.99650908138472,23.0377638456206
-72.8729453182774,-365.781999363038,5.99661011739843,23.1445296729765
-74.8939914841266,-365.898367399966,5.99670860238804,23.2509272627277
-76.9136794766055,-365.986111109344,5.99680613419526,23.3570297920719
-78.9352200904744,-366.044901158442,5.99690285329278,23.4630246832692
-80.9615055306168,-366.074448022883,5.99699745005223,23.5690816514609
-82.991853491361,-366.074932336176,5.99709035808371,23.6751871877488
-85.0226615541823,-366.046934073171,5.99718240214314,23.781177299762
-87.0510240846461,-365.99093549951,5.99727346430539,23.886926193503
-89.0770943956436,-365.906984320439,5.99736149894104,23.9924655572888
-91.1015733225999,-365.795049965086,5.99744823952356,24.0978529500644
-93.1253417027449,-365.655076017047,5.9975340771857,24.2031546261004
-95.1494000530473,-365.486988743663,5.99761881050271,24.3084430923506
-97.1730903998615,-365.290957944611,5.99770049792416,24.4137046155573
-99.192355788748,-365.067662082657,5.99778114622302,24.5187486950781
-101.203918573996,-364.817660663869,5.99786063063256,24.6234262781664
-103.210096591169,-364.540641485014,6.01557670475982,24.7278828748861
-105.215105975886,-364.235990174386,6.06844445419846,24.8323844756761
-107.219846305622,-363.903631841608,6.12130420617703,24.9369652603571
-109.222254138595,-363.543984377514,6.20076066813536,25.041581588342
-111.220697323894,-363.15739215365,6.26889669186097,25.1461024590633
-113.213156946565,-362.744267350464,6.32507745355018,25.2504444094013
-115.196681126168,-362.305190416668,6.41376813884986,25.3545509556408
-117.171654324077,-361.840123739935,6.53016465403833,25.4584728376594
-119.14110476825,-361.348526712643,6.60986514901239,25.5622244918026
-121.10437378771,-360.830579012642,6.67534887897401,25.6658551201697
-123.060616792974,-360.286497448348,6.74133915147626,25.7693662296298
-125.011424523905,-359.716004748088,6.80788515197697,25.8728588642591
-126.958441878442,-359.118812563502,6.87503617106463,25.9764369462587
-128.900517302559,-358.495204303063,6.91242347535512,26.0800199400267
-130.835012250505,-357.845765266873,6.9494213783907,26.1835276686469
-132.760605812113,-357.170815442239,6.98675163802062,26.2869091091541
-134.675085755317,-356.471004659157,6.99541124560127,26.3900491801189
-136.57501193243,-355.74723227073,6.97627543574938,26.4928058622255
-138.460417067969,-354.999695741435,6.95650854707072,26.5951920334276
-140.334911644666,-354.22786676758,6.93609669211848,26.6974086449144
-142.198857672082,-353.431878247677,6.91504148370026,26.7994921715686
-144.049597108123,-352.61248043391,6.89336446275385,26.9013226964679
-145.884133907594,-351.770493407155,6.88442041038342,27.0027567624073
-147.702053177134,-350.906191085578,6.89311948887007,27.1037909765088
-149.504754509934,-350.019447510695,6.88292812882412,27.204512131453
-151.294521494924,-349.109931650839,6.87495595902333,27.3050511028826
-153.074762831138,-348.177037142368,6.89018286354936,27.4055980064799
-154.849881573416,-347.219901517065,6.90512720187545,27.5063894437063
-156.621162301905,-346.238503987472,6.91138455373505,27.607499949608
-158.386575574559,-345.233756495802,6.93465274184584,27.7088444909152
-160.142364000668,-344.20707620863,6.9577914064525,27.8102319414125
-161.885254824463,-343.159733390575,6.98075910684699,27.9114997164189
-163.614123469984,-342.092323595685,6.99950190257367,28.0125952960679
-165.328893790191,-341.005101351226,6.99952029871566,28.1135216896418
-167.029996371631,-339.898150751385,6.99953756514867,28.2143143642544
-168.717871667392,-338.771552467409,6.99955371918133,28.3150058148412
-170.392374695184,-337.625596133096,6.99956876599627,28.4155974512262
-172.054076039673,-336.460309034257,6.99958135761789,28.5161269709897
-173.703513056453,-335.275730964792,6.99959228803012,28.6166298342671
-175.340737002736,-334.072089572312,6.99960217380935,28.7171166945216
-176.964492853331,-332.850130578654,6.99960902013663,28.8175294453352
-178.572457984747,-331.61103362279,7.00347073781501,28.91775293487
-180.16314373392,-330.355632231128,7.08723857011304,29.0178005016185
-181.735794784087,-329.084450841368,7.17005551255629,29.1175520191345
-183.29116963556,-327.79736924896,7.25196169007656,29.2170546868731
-184.831262923516,-326.49373720941,7.33306214751332,29.3164200054921
-186.356889729542,-325.173412993851,7.41339922792902,29.4156987711228
-187.870624404871,-323.835492286978,7.49310689428033,29.5150307914655
-189.373469019572,-322.479757044555,7.57517665386922,29.614480570191
-190.862287263814,-321.107810150749,7.67780737655949,29.7139357696633
-192.325881628464,-319.724828688853,7.771471517184,29.8127636458882
-193.768875126383,-318.328932746531,7.83975838232127,29.9111728055395
-195.199248609992,-316.916734525161,7.88988126228617,30.0095841971434
-196.617762428596,-315.488105326088,7.93807466196112,30.1080859968469
-198.02154184135,-314.044558580957,7.95653944438905,30.2065194275948
-199.408074951828,-312.587444336732,7.97477616583783,30.3047752517975
-200.770591926907,-311.120016220578,7.99269526518088,30.4025222505993
-202.106930120346,-309.64349426168,7.99947198652179,30.4996378713831
-203.414108179967,-308.159453640332,7.99944765194494,30.5959858820998
-204.705977978124,-306.662319086436,7.99942238496594,30.692453190804
-205.993734817837,-305.14762243352,7.99939630640727,30.7903958992122
-207.280467607581,-303.614224418958,7.99936945335083,30.8905550665458
-208.562769020482,-302.063635933085,7.99934179506592,30.9922938867814
-209.832279492577,-300.499401119078,7.99931212169498,31.0945180601245
-211.079626424025,-298.925488537164,7.99927919644228,31.1965402870093
-212.304304464143,-297.342043301959,7.99924441837794,31.2983541982645
-213.506193942629,-295.749039129905,7.99920865923553,31.3999689957071
-214.686011072021,-294.146069034945,7.99917192029432,31.5014269929793
-215.84586024577,-292.532082739131,7.99913421153522,31.6028370731017
-216.987410340359,-290.906234195835,7.99909493629752,31.7043047727605
-218.10955458781,-289.268990489276,7.9990539603977,31.8058037984826
-219.210423931319,-287.621182442663,7.99901013462135,31.9072658977387
-220.288581366649,-285.963432407072,7.99896428775364,32.0086309634112
-221.345601854559,-284.294887802498,8.00463060098859,32.1099777266107
-222.384517547272,-282.613969599128,8.06163502935257,32.2114961613797
-223.406966184109,-280.91980819065,8.11843883754414,32.313241572297
-224.413190419945,-279.212259449615,8.17059965677661,32.415238082334
-225.402516907674,-277.49166643078,8.23033412943381,32.5174923882378
-226.372842496413,-275.759148993406,8.27335426034749,32.6198954747008
-227.322045469801,-274.015837268611,8.31368925702048,32.7223676201374
-228.251113154414,-272.261116103023,8.35373359067358,32.8249966897846
-229.157207019747,-270.496542410773,8.44815205695969,32.927772660683
-230.037511135257,-268.723660170228,8.54143156758339,33.0304940767883
-230.890161416479,-266.943464096938,8.63344759760123,33.1330966830234
-231.715010498257,-265.155946171542,8.70731833042151,33.2355564125502
-232.513079790692,-263.360402820162,8.74412545834843,33.3379290001113
-233.284995530347,-261.556371688152,8.78031792497,33.4402991781349
-234.034117874033,-259.741670074269,8.81600345848257,33.5428159368525
-234.765350512053,-257.913111919097,8.85133933706001,33.6457408496531
-235.479143200254,-256.070500930103,8.88633914026059,33.7490979073822
-236.175764004613,-254.213766402858,8.92100956417626,33.8529836009198
-236.856017656675,-252.342456646914,8.95537424461104,33.9574449379929
-237.517236038966,-250.458645923521,8.97469452898372,34.0623286834904
-238.160896152196,-248.561328969581,8.98308952207304,34.1685740979838
-238.792971977029,-246.646093826857,8.99133086474989,34.2774402446347
-239.413701282296,-244.712943836616,8.99749457945459,34.3890023751207
-240.018657736929,-242.765498031532,8.99741093797334,34.5023496357254
-240.60102315435,-240.809226029226,8.99732405817038,34.6162146985165
-241.152330001676,-238.850863304989,8.99723642668071,34.7299756006428
-241.666252981893,-236.895515990433,8.99714817034256,34.8433077946538
-242.140063418357,-234.94556614499,8.99705935291886,34.9557591160892
-242.581680315786,-232.995298213854,8.9969698498808,35.0675597042153
-243.001550232363,-231.037047181526,8.99687763001195,35.1793308353212
-243.40197332534,-229.069556607416,8.9967829053483,35.291144058379
-243.784602014038,-227.092089340394,8.99668728808972,35.402473962751
-244.148514549958,-225.106005480108,8.99659083033754,35.5130509303789
-244.49037157884,-223.114661923904,8.99649363843262,35.6232869884531
-244.80708466744,-221.121205425615,8.99639581296653,35.7333027725619
-245.099005155783,-219.125855068727,8.99629446337864,35.8430980383148
-245.367316714931,-217.128108752191,8.99619186005156,35.9527083987275
-245.611010580885,-215.129400556188,8.99608869267142,36.0620757826991
-245.82774308425,-213.132367060441,8.99598505529673,36.1710598905382
-246.018376548228,-211.136697149715,8.99588094901253,36.2796919626446
-246.184097091056,-209.141775847636,8.99577582791982,36.3880228307654
-246.325289314309,-207.147756526882,8.99566724203259,36.4960644119684
-246.441033106226,-205.156073299191,8.99555825756582,36.6037716658489
-246.530449807069,-203.16811851808,8.99544893413307,36.7110695832431
-246.592537776264,-201.185411712035,8.99533933588912,36.817891149748
-246.626495529962,-199.209260304876,8.99522951928847,36.9241756754776
-246.633089831636,-197.239275077647,9.00770590313695,37.0299699764002
-246.615445012496,-195.272474778912,9.04210708632007,37.1354738208226
-246.577372074117,-193.305114095774,9.07624875367084,37.2408766398887
-246.521772898853,-191.3344692119,9.11021713639467,37.3458402803967
-246.449729856975,-189.359881137136,9.14403811192885,37.4498201598147
-246.360649731684,-187.382615494606,9.17768157091188,37.5527980092881
-246.251939463732,-185.406270385392,9.20726131755056,37.6552614869366
-246.121233571835,-183.434173824353,9.25423907021882,37.7575277757985
-245.967470860599,-181.468078871577,9.30014696675102,37.8594755439315
-245.790792576058,-179.50826276218,9.34498325876786,37.9610978508117
-245.592382397551,-177.553703107008,9.38882175590654,38.0624583039986
-245.373805922756,-175.602894070904,9.43176414316118,38.1636433240958
-245.137394739413,-173.653345658665,9.42547075736632,38.264747525698
-244.885217971308,-171.702910051146,9.41538369595938,38.3653522118824
-244.617239708696,-169.752223458616,9.40467222208653,38.4649591236082
-244.333586511806,-167.801704324021,9.39334131749357,38.5636707914628
-244.035195077428,-165.850672226638,9.38142795612143,38.6614597550999
-243.72353965689,-163.897709488516,9.36664745135077,38.7581486606212
-243.399559177669,-161.942140950429,9.33644422152157,38.8532635016338
-243.063470418186,-159.984305074251,9.30574232569332,38.9464876302537
-242.71551475946,-158.024505356957,9.27455400315002,39.0379440738903
-242.355980963206,-156.062977103706,9.23070982012501,39.1277549278812
-241.98542833701,-154.099561418499,9.18613163781747,39.2160243859444
-241.604874605907,-152.133423689155,9.1475039654233,39.3028740154848
-241.215500834706,-150.163485967445,9.11971228543888,39.3884259754528
-240.817982863842,-148.189430334301,9.09166934290972,39.4727744822356
-240.412838794114,-146.211178341787,9.06338809273274,39.5559896997866
-240.000428627431,-144.228893655032,9.03487947818795,39.638127340977
-239.580995592296,-142.242920283505,9.00615297025747,39.7192321522755
-239.154715859568,-140.253706669139,8.98841918682157,39.7993364310367
-238.721773225741,-138.261689279121,8.97687539288179,39.8784778910273
-238.282463351176,-136.267127483548,8.96516362648814,39.9566953342222
-237.837212291515,-134.270072569179,8.95329511929046,40.0340292564657
-237.386397685439,-132.270653687765,8.94127983220797,40.1105145978671
-236.930368878566,-130.269045840433,8.92912698361587,40.1861821981331
-236.469489650651,-128.265400460766,8.91684265359145,40.261061249127
-236.004126882037,-126.259863881829,8.9044399119899,40.3351789117906
-235.534650243527,-124.252577812398,8.89192864879055,40.408560491802
-235.061431920339,-122.243679763776,8.87931870417788,40.4812295942993
-234.584846419235,-120.23330334339,8.8666199191853,40.5532082661292
-234.105270413866,-118.221578488115,8.8538410313504,40.62451712499
-233.623082582177,-116.20863171464,8.84099076922497,40.6951754743302
-233.138663482199,-114.1945863074,8.8280816265982,40.7652014078272
-232.652395458166,-112.179562456354,8.81512368825035,40.8346119070483
-232.164662574768,-110.163677345984,8.80212708408926,40.9034229294488
-231.675850606262,-108.147045140441,8.78910198886238,40.9716494915977
-231.186346906172,-106.129777149352,8.76316504669757,41.039309668625
-230.696540490469,-104.111981591226,8.73721048455136,41.1064128229083
-230.206824779467,-102.093758494212,8.71126066993694,41.1729717098883
-229.71746765942,-100.075093994713,8.68532971590359,41.2390027678464
-229.228540604584,-98.0558704535934,8.65942137955861,41.3045262125374
-228.740016569709,-96.0361518126888,8.6335338612511,41.3695565491951
-228.251815879494,-94.0160999842408,8.60765998181241,41.4341049906539
-227.76383498836,-91.9959217490411,8.58179767336164,41.4981809705427
-227.275969415351,-89.9758256130713,8.55594144683687,41.5617933411351
-226.788137550087,-87.9559760731398,8.53008709656527,41.6249515835844
-226.300304843731,-85.9364461538299,8.50423275007772,41.6876670164591
-225.812500114941,-83.9171844015256,8.47837803528612,41.7499535922543
-225.324776343559,-81.8980913739973,8.45252571108232,41.8118258917137
-224.837138230924,-79.8791645371591,8.42667791278626,41.8732954691317
-224.349595064183,-77.8603920335875,8.40083512879497,41.9343736265707
-223.862158135349,-75.8417578761382,8.3749975610344,41.9950713048014
-223.374838649092,-73.8232462468471,8.34916571139414,42.0553989995724
-222.887647687055,-71.8048415741944,8.32306760531819,42.1153668826476
-222.400596375638,-69.7865281790535,8.27441509029345,42.1749961624802
-221.91369588268,-67.7682902804027,8.22576788996239,42.2342843979285
-221.426957215489,-65.7501124345143,8.17712602037911,42.2932405480944
-220.940391245399,-63.7319794847037,8.12848949910771,42.3518732316014
-220.454008515668,-61.7138769949809,8.08984462111777,42.4101848546507
-219.967819626656,-59.6957903847033,8.0768691641641,42.468180456767
-219.481835015913,-57.6777054320891,8.06389909141846,42.525876714063
-218.996064853577,-55.6596085227208,8.05093466984347,42.5832810322996
-218.510519285919,-53.6414860803104,8.03503097618196,42.6404011219475
-218.025208495621,-51.6233244210601,8.01064158053884,42.6972455733949
-217.540142422582,-49.6051104323747,7.99821005724879,42.7538158930565
-217.055330864934,-47.5868313296148,7.99165123900302,42.8101206970872
-216.570783517321,-45.56847456291,7.98509589951072,42.8661669343177
-216.086510002483,-43.5500277378046,7.98381944176029,42.921960348474
-215.602519769815,-41.5314788798125,7.98364400778657,42.9775070074297
-215.118822015861,-39.5128166497835,7.98346834930018,43.0328125321149
-214.635425811828,-37.4940300070296,7.98328932708109,43.0878823512931
-214.152340170892,-35.4751080248986,7.98311030161392,43.1427217239891
-213.669573910294,-33.45604027435,7.98293127226374,43.1973357378053
-213.18713567957,-31.4368167447692,7.98275223843293,43.2517293177839
-212.705033952877,-29.4174278622276,7.98257319954756,43.3059072326041
-212.223277018318,-27.3978645079249,7.9823925215866,43.3598741004524
-211.741872960234,-25.3781180362092,7.98220988498647,43.413634394614
-211.260829624157,-23.358180289544,7.98202724147074,43.4671924489458
-210.780156401036,-21.3380376330211,7.98184459012942,43.5205526014975
-210.299864373804,-19.3176696336801,7.98166192952242,43.5737192290859
-209.819954814783,-17.297085896304,7.98147926047847,43.6266959043519
-209.340414510307,-15.2763390026147,7.98129353132644,43.6794851201751
-208.861226805645,-13.2554897727881,7.98110723268626,43.7320891003702
-208.382375410788,-11.2345961854746,7.98092040744701,43.7845100554219
-207.903847481838,-9.21370267139662,7.98073359086236,43.8367504280048
-207.425636231319,-7.19282985297014,7.98054678452667,43.8888131255154
-206.947743177932,-5.1719648308956,7.98035909059988,43.9407017370055
-206.470175291037,-3.1510719363763,7.98016871142229,43.9924202801763
-205.992935315982,-1.13013357764464,7.9799783370221,44.0439722663451
-205.516021824155,0.890849292315238,7.97978796746796,44.0953606987306
-205.03943499545,2.9118832930252,7.97959760215385,44.1465886753882
-204.563174931471,4.93297476973089,7.9794072405248,44.1976592112814
-204.087241649458,6.95412975101067,7.9792145554526,44.2485752400789
-203.611635082176,8.97535393552027,7.9790206115047,44.2993396164871
-203.136355078195,10.9966526808224,7.97882666960257,44.3499551185381
-202.661401401897,13.0180309906704,7.97863272929125,44.4004244497328
-202.186773733519,15.0394935020864,7.97843879014644,44.4507502410724
-201.712471669826,17.0610444759388,7.97824467942942,44.5009350530767
-201.238494737192,19.0826878729438,7.97725242097646,44.5509813851309
-200.764842330927,21.1044268941477,7.9708171061783,44.6008918842949
-200.291513808512,23.126264685375,7.96438605571421,44.650668677247
-199.818508427818,25.1482038335851,7.95795925955457,44.7003140593736
-199.345825362772,27.1702465059178,7.95153670660076,44.7498302645026
-198.873463698765,29.1923944419922,7.94511675393283,44.7992194666228
-198.401422416806,31.2146489431429,7.93869901749294,44.8484837811923
-197.929700458738,33.2370108574473,7.93228548423445,44.8976252659819
-197.458287649625,35.2594810094871,7.92587604544032,44.9466459814163
-196.987173738499,37.2820589316624,7.91947054173175,44.9955479137934
-196.516348459044,39.304743980667,7.9130688362809,45.0443330021648
-196.045801488747,41.3275345128893,7.9218851376296,45.0930033284279
-195.575522448036,43.3504279423249,7.9333563690437,45.1415608002306
-195.105500906014,45.3734207884279,7.94483186677339,45.190006867604
-194.635726386156,47.3965083712776,7.95631145169101,45.2383432194883
-194.16618838006,49.419684747107,7.96779493320462,45.2865714799081
-193.696876360712,51.4429429661523,7.97481445652985,45.3346927544188
-193.227779793574,53.4662752301433,7.97460501279041,45.3827155227696
-192.758888138899,55.4896732254097,7.97439556865604,45.4309020923684
-192.290190874663,57.5131278075061,7.97418612470526,45.4795123599924
-191.821677514907,59.5366288865963,7.97397668160915,45.5285537083822
-191.353340610925,61.5601186237474,7.97376724474761,45.5780326234973
-190.885178505223,63.5834612196148,7.97355545200963,45.627953928248
-190.41715826243,65.6068888129572,7.97334243764517,45.678331495654
-189.949213126205,67.6309872842951,7.97312935935873,45.7291883413777
-189.481309472028,69.6560306354671,7.97291618920518,45.7805405796042
-189.013457163871,71.6819212907748,7.97270293705939,45.8323955828839
-188.545709385168,73.7082233140253,7.97499865384242,45.8847524176173
-188.078156823102,75.7342313283775,8.0105755218092,45.9376108367695
-187.610917646681,77.7590573031137,8.04613163427203,45.9909501969817
-187.144114676381,79.7817844390778,8.0816508895185,46.0447561455757
-186.677743818158,81.8022302655908,8.11713008197225,46.0990332976988
-186.211660934963,83.8209749586827,8.15257939926704,46.1538069989569
-185.745707552231,85.8386725644528,8.20482743556977,46.2091151569786
-185.279716131787,87.8560214919474,8.27588867786963,46.2649943123451
-184.813531121594,89.8736642360348,8.34696026589194,46.3214599899667
-184.347034484022,91.8920761339853,8.41805894316063,46.3785391007236
-183.880171820582,93.9114612217128,8.48919189662317,46.436251871004
-183.412969022531,95.9316956615228,8.56035476400296,46.494609821933
-182.945449922352,97.9526636755322,8.61612136341828,46.5536117051069
-182.477593167727,99.9744192736255,8.66947500123864,46.6132866847694
-182.009386328908,101.996984260056,8.72284999351675,46.6736541910259
-181.540826564106,104.020347173418,8.77624603765019,46.7347316036128
-181.071912915226,106.044490264119,8.82966266505012,46.7965368903945
-180.602680926234,108.069278531241,8.87352611151634,46.8590783622154
-180.133210473282,110.09443980898,8.89118732853895,46.922362147953
-179.663594951382,112.119661606344,8.90884906933038,46.9864104477456
-179.193922271195,114.144647205548,8.92650874683245,47.0512348936084
-178.724257005239,116.169164735113,8.94416433925023,47.1168498621895
-178.254624937711,118.193086515245,8.96181441718828,47.1832739984235
-177.785001408631,120.216415982903,8.96736955227133,47.2505292374236
-177.315322693761,122.239254857211,8.96713747409644,47.3186463303476
-176.845541715573,124.261663821952,8.96690543888129,47.3876544482126
-176.375391589332,126.283551626402,8.96667344802396,47.45758077847
-175.90450304559,128.304926230065,8.96644148904166,47.5284581628748
-175.432472250502,130.325871977567,8.96620926083608,47.6003242100754
-174.958919062779,132.346419261217,8.96597371919217,47.6732167094984
-174.483404567556,134.366466570973,8.96573817038315,47.7471716313843
-174.005334132442,136.385712027461,8.96550262864808,47.8222214265351
-173.524166726685,138.403745663797,8.96526712171307,47.8983963655217
-173.03941364321,140.420055132744,8.96503169013543,47.9757246296194
-172.550612621052,142.434077696834,8.98149114920906,48.0542368395121
-172.05725272758,144.445340950388,9.01678558644426,48.1339738229427
-171.558812457262,146.453391613935,9.05202345883103,48.2149642859941
-171.054800185909,148.457723686688,9.08719586703197,48.2972464214578
-170.544740573099,150.457803141493,9.11730411682553,48.3808570477289
-170.02817146162,152.4530738096,9.14551383227639,48.4658405892066
-169.504643863366,154.442957931053,9.14467590172204,48.5522349758016
-168.973722684357,156.426855500092,9.14999676806638,48.6400963500028
-168.434985057506,158.40414738608,9.16340574463066,48.7294775120954
-167.888018723916,160.374198241663,9.17636231045498,48.8204322990555
-167.332425597787,162.336351535746,9.18883920379093,48.9130205757747
-166.767804840884,164.289954761031,9.2008088308887,49.0073084982349
-166.193753380622,166.234358606697,9.21224087566126,49.1033693182042
-165.609896426595,168.168874146777,9.22311172459738,49.2009188129892
-165.015885915387,170.092775785316,9.23339488255526,49.2996165215635
-164.411372933257,172.005339069603,9.24306384084193,49.3994528505989
-163.796082823501,173.905741644056,9.25209330810893,49.5004068789143
-163.169586590837,175.793360796185,9.26862134533127,49.6024400772288
-162.530997331694,177.668155350395,9.3178073229586,49.7055553867379
-161.879655035089,179.529801033513,9.36619395599697,49.8097184706254
-161.21545773048,181.377289256421,9.41374303610059,49.9148759724148
-160.537788983104,183.210231385927,9.46042462221101,50.0209319828366
-159.845395281516,185.028992984057,9.50621853494318,50.127716639324
-159.136560184791,186.834478481735,9.55111125011823,50.2348185778365
-158.409478513961,188.627694142042,9.59508757394456,50.3418701751308
-157.66343514713,190.40840807614,9.63812365254556,50.4488605798303
-156.895723720954,192.178637161513,9.6802191475719,50.5559433560029
-156.102950070941,193.941174691243,9.72138292593577,50.6633464499865
-155.282495458652,195.697934635632,9.77354762150287,50.7712806305907
-154.4328413761,197.449574410263,9.83520286239519,50.8798443583035
-153.552873188824,199.196287192989,9.88692417105187,50.9890763299569
-152.641738166293,200.937964288537,9.93283832879421,51.0990340658932
-151.698027946928,202.675136061967,9.97863245015486,51.2098265891509
-150.719982640443,204.408735514515,10.0243310848224,51.321592011617
-149.702608340035,206.143388067413,10.0700560749672,51.434738627968
-148.643255280449,207.88104122128,10.1158587015236,51.5494685665543
-147.544611731752,209.617506913705,10.1634394984417,51.6655066954583
-146.41626716279,211.340581185467,10.2240710078307,51.7820262624536
-145.26744840509,213.038485858134,10.2838154485504,51.8981928658783
-144.101210296274,214.70673203989,10.3425148699209,52.0137516777695
-142.916641595242,216.345506414721,10.4001758110603,52.1287695006484
-141.710550656209,217.957664497401,10.4568987016613,52.2435223191388
-140.47736675161,219.548816386173,10.5110459692541,52.3584962145655
-139.21190988889,221.12412546823,10.5365945577445,52.4741146557874
-137.911653329427,222.685760014158,10.5710825326398,52.590640961149
-136.578747591239,224.230667331858,10.6039727294798,52.7078940054181
-135.215230426284,225.755919450992,10.6351899322478,52.8257107356921
-133.821740712528,227.260125696363,10.6646897400804,52.9440578591509
-132.40195037892,228.738572508704,10.7068610582093,53.0626488202727
-130.958373219893,230.187815125287,10.7706333909604,53.181307508366
-129.491338788989,231.606803260031,10.8330722192118,53.299987805047
-127.99898664756,232.996885430223,10.8775793083931,53.4188397981826
-126.479463968428,234.359401842783,10.9134558851562,53.5380581577997
-124.931228857153,235.695354675072,10.9430092690769,53.6577980981673
-123.352996422748,237.005467699526,10.9567183072959,53.7781976128644
-121.74768694045,238.285913900903,10.9692872504387,53.8990755877748
-120.123842768056,239.527770150773,10.9776880397167,54.0197682914025
-118.484949373758,240.727612504594,10.9767059981468,54.1395979464885
-116.826922791132,241.890236326944,10.9739077106398,54.2586737414695
-115.145638669056,243.020480474651,10.9693550130643,54.3777774889652
-113.438144610578,244.12193862578,10.9762879467038,54.4974857159485
-111.699595370842,245.200182856034,10.9874399477885,54.6182654801932
-109.931414523254,246.254336632286,10.9996639232804,54.7400811257507
-108.14197319804,247.276443144175,11.0300646123092,54.8623863802068
-106.342072034812,248.256590028613,11.0508352943648,54.9843805709779
-104.537598155539,249.189896084902,11.0608258407275,55.105668706607
-102.728517145805,250.077576463696,11.0678794454024,55.2263368784998
-100.915780039299,250.919830166111,11.1375484301903,55.3459970368634
-99.0962958791557,251.721009294437,11.2108595612957,55.4645849525965
-97.2620852431259,252.490437417989,11.2824045854987,55.5828669505261
-95.4091472816904,253.233456745773,11.3671074470831,55.7012970773084
-93.5362606993301,253.952674591549,11.434664192419,55.8200019469768
-91.6461610187934,254.646861578716,11.4900350104045,55.9388904146125
-89.7417614884403,255.314617897322,11.5389726364161,56.0578116324546
-87.8252471377151,255.955236201083,11.5866717012296,56.1766647580542
-85.9025025446767,256.564517138954,11.6333472493731,56.2950570110739
-83.981502276776,257.136301544664,11.6786791700478,56.4124505004849
-82.0640596112759,257.670167079403,11.72262942941,56.5287277644823
-80.1462943015672,258.170940187573,11.7654188540853,56.6442329739996
-78.2299165204095,258.638363579431,11.7864677202252,56.758912523697
-76.3204658269999,259.068754200394,11.8015261583719,56.8724583238938
-74.4180737333353,259.463175490014,11.8153186179459,56.9848995081196
-72.5177450946327,259.827091139518,11.8280372067201,57.0966136495414
-70.6173829666552,260.16353583709,11.839786697919,57.2078423473608
-68.72024035446,260.471166892668,11.850521546681,57.318429792918
-66.8268345074217,260.750828529333,11.8602719009188,57.4283753611468
-64.9347062462542,261.005693312534,11.8691493291476,57.5378557928954
-63.0466421461412,261.234905952577,11.8771219283967,57.6467283219264
-61.1638349543492,261.438815468945,11.8842035699779,57.7549914782704
-59.282928688459,261.621153560524,11.8905258727524,57.8628725129394
-57.3980278134327,261.787509503901,11.8962853069264,57.9699297152328
-55.5079026890158,261.940114863451,11.901558510178,58.0752502460996
-53.6146574007799,262.078842134513,11.9063424737042,58.1786739856043
-51.7161631875248,262.206505767615,11.910736656914,58.280292795345
-49.8256121018732,262.31546706665,11.9144728312662,58.3803174960248
-47.949183468134,262.402799918916,11.9752050311127,58.4795198477524
-46.0821563482809,262.472748593146,12.0513149946307,58.5781326973652
-44.2153403139518,262.532398330071,12.1270540239724,58.6753827247265
-42.33910299028,262.589102191684,12.2030608144121,58.7706789755692
-40.4486786239502,262.647429687746,12.2976942663965,58.8644589662093
-38.539714776849,262.711728072338,12.4003929319366,58.9570369166848
-36.6078842355499,262.786331834997,12.5046575084104,59.0487021456201
-34.6588058532462,262.870804684762,12.6101768206846,59.1392707137308
-32.6974985954974,262.964987369865,12.6966086167801,59.2295646027095
-30.7275530952763,263.069364083653,12.7779855725655,59.320941573987
-28.7481351500219,263.186386805121,12.8601814023935,59.4136782214474
-26.7579503877419,263.318711801885,12.9433405384598,59.5074246507865
-24.7588612646818,263.467586631398,12.9536391522497,59.6017251770439
-22.7469147184247,263.636875521298,12.9594827820515,59.6968491370501
-20.711330137439,263.833535264339,12.9662886550613,59.793361115633
-18.6493210539099,264.060908967584,12.991499441251,59.8912755826174
-16.5646024120184,264.319453831745,12.9981960747703,59.9903300655376
-14.4602001590894,264.60992219071,13.0057334488073,60.0903987259283
-12.3461218533743,264.930219430932,13.014056908387,60.1910179211698
-10.240245573676,265.27354158279,13.0677542300598,60.2913761986708
-8.15546824270041,265.634902538319,13.1256787973398,60.3908248662126
-6.09139342929245,266.013972561054,13.1832135891162,60.4893914707522
-4.04229622654231,266.412242740187,13.2473917832572,60.5873884318174
-2.00709978238268,266.82964064523,13.3459700322263,60.6849250245102
0.0196332833965016,267.267532908084,13.4564055663189,60.7822403992327
2.04622726166048,267.72821286529,13.567032200178,60.879719285989
4.07279170701167,268.211436029547,13.6736274019771,60.9773645643384
6.09663836890417,268.716133820679,13.7649358628127,61.0750292206121
8.11705860595225,269.24179206082,13.8711582040033,61.1727536967375
10.1333556125896,269.787899716317,13.9771610500965,61.2704792910251
12.1448322941454,270.353945681071,14.0829069370422,61.3681785880474
14.1495362026792,270.939124753783,14.1882928157896,61.4657650917087
16.1448756427071,271.542492437804,14.2931836341059,61.5631202640721
18.1291009971,272.163274129088,14.3974875255509,61.6601656043313
20.1014989518447,272.800888481257,14.5011663996144,61.756870748471
22.0621770372805,273.454895792705,14.6042261855345,61.8532446330983
24.0114461897695,274.124888949136,14.7066837812905,61.9493038123968
25.949974986963,274.810514391612,14.8085742662005,62.0450832495572
27.879030334142,275.511503101741,14.9453359897857,62.1407354550409
29.7996192835164,276.227551248506,15.0968533633673,62.2362665093439
31.7127189490035,276.958351230216,15.2477777237595,62.3316588105583
33.6191383875966,277.703575981074,15.3950226797195,62.4268458972636
35.5194939620292,278.462878623531,15.5283744048088,62.5216006925577
37.4135883663376,279.235841634476,15.6641382559959,62.6157691951892
39.3008961610343,280.022025019438,15.7991311555358,62.7092857644231
41.1813364026611,280.821010753678,15.933354151682,62.8021183281843
43.055077453207,281.632388683564,16.0493107257896,62.8941659174432
44.9227014640693,282.455755195346,16.1574934660037,62.9854047979389
46.7849598745094,283.290707023271,16.2933851380269,63.0758697408768
48.6425280056046,284.136841649996,16.4344738098613,63.1650860677406
50.4959240973644,284.993759742205,16.5438132075848,63.2526350790061
52.3451784358032,285.861076538524,16.6346847307946,63.3386573226619
54.1904883279926,286.738400735562,16.7249419498493,63.4232804049651
56.0321205866913,287.62533766798,16.8146164085932,63.5065882827809
57.8704872432992,288.521484324267,16.9050568792472,63.5886648013667
59.706165312446,289.426426713887,17.0191210207109,63.6696349522926
61.5397718922682,290.339747815919,17.1395928420324,63.7495403568416
63.3718439065258,291.261037390584,17.2599627203236,63.8284329096703
65.2027762141774,292.189898468755,17.389399377299,63.9063907089571
67.0330798492246,293.125922225269,17.5337495162576,63.9834858366768
68.8629630278813,294.068733304173,17.6780654722198,64.0597236647977
70.6923542834826,295.017989643154,17.8223416977142,64.1351359389107
72.5208775851668,295.973388122816,17.9720528530248,64.2097569687551
74.3478815238984,296.934663381771,18.1401956723236,64.2836333894895
76.1725760221431,297.90157041775,18.3081250892274,64.3567188352051
77.9942388454688,298.873853577788,18.4757746194412,64.4290197441839
79.8125443553384,299.85119072466,18.6443603108028,64.5005560960038
81.6278752628943,300.833133091071,18.8250264696799,64.5713941661862
83.4407079380023,301.819214076225,19.0092736648,64.6415439245952
85.2514919659301,302.808972507499,19.1933966939184,64.7110261460585
87.0607228627665,303.801937310717,19.3774329285299,64.7798722751848
88.868905162485,304.797635345229,19.4575794816493,64.8478949810022
90.6765148329158,305.79560042244,19.5225441995025,64.9153257499058
92.484032829413,306.795365065976,19.6206861834912,64.982250490128
94.291965317154,307.796454900876,19.7455726652295,65.0486977723531
96.1008376577753,308.798389990634,19.7905352002666,65.1145414936202
97.9111819017606,309.80068834921,19.7963978730999,65.1798959930681
99.7235133152166,310.80287342407,19.8022885834568,65.2447989400864
101.538834193621,311.804302266392,19.7909373015206,65.3092831618546
103.358035886295,312.804371888658,19.7847354938729,65.3733759105111
105.180960695433,313.802877246813,19.8171441715832,65.4370907560113
107.006662638075,314.799927829079,19.8513884985968,65.5004097466674
108.83395751698,315.795733002971,19.8857937876041,65.5633342170948
110.661812508514,316.790435469463,19.9202965797536,65.6264318437626
112.48970668833,317.783941110189,19.9548749836657,65.690269226623
114.317993445629,318.775730813703,19.9895803697784,65.7548687145297
116.148197062699,319.764687407115,20.0245620874937,65.8202774310543
117.982047503084,320.749583378964,20.0599866988734,65.8865492814026
119.822400934588,321.728557453106,20.096118131473,65.9537640631115
121.671869533254,322.699892062381,20.142048319749,66.0216102556745
123.532536520452,323.662194013253,20.3162600251742,66.0903576929865
125.404147239004,324.615551122348,20.4866307150819,66.160202406854
127.284681603398,325.561194759789,20.6126249289892,66.2310467966872
129.175174100937,326.498351083091,20.7698547224209,66.3026411913844
131.077018595443,327.426007949635,20.9270953073679,66.3745164407284
132.991050369476,328.343526515954,21.0808403308899,66.446685700949
134.918091468353,329.250276833575,21.1873642940871,66.5190161224379
136.856986104302,330.146961353835,21.2935783372135,66.5915609665034
138.803443446025,331.036387347023,21.4077697832738,66.6638873351151
140.751830857946,331.922252977797,21.54133677113,66.7355569643812
142.698324272577,332.807077974926,21.6313881549238,66.8064234733728
144.642740405776,333.691062790577,21.7213480201218,66.8773883736456
146.585539296724,334.574006750229,21.8328957843264,66.9493094477212
148.52749521443,335.455517257831,21.9348181456186,67.0221854788376
150.469511591135,336.335124365582,22.0116747281285,67.0960506273081
152.412064273507,337.212609705861,22.1090444421769,67.1710180031728
154.354296366906,338.088527733607,22.2063228894232,67.2470773743699
156.295578825404,338.963302123716,22.2948942110159,67.3242405247213
158.235569127653,339.837192934968,22.3664594245118,67.4025314968739
160.173842409964,340.710507210955,22.4381982299835,67.4820079457366
162.10976946689,341.583668833176,22.5630123621966,67.5627951579125
164.04250388342,342.457226245373,22.6770388193753,67.6448070544538
165.970866712561,343.331919018579,22.7761023096594,67.7280583135555
167.893828902522,344.20840050235,22.875000100216,67.812604885045
169.810759033428,345.087095553992,22.9737185055877,67.8984875735311
171.721495442368,345.968159770914,23.029936198575,67.9856987047411
173.626331051123,346.851488995814,23.0736886515751,68.0743633581204
175.525893794148,347.736788099852,23.1171633756806,68.1645840239727
177.42096539965,348.623674354385,23.1604047624112,68.2564634097919
179.312234441725,349.51181812522,23.1683573111783,68.3500909224467
181.200031674994,350.401094194105,23.1366506674352,68.445603385832
183.08470110619,351.291369730511,23.1049088255054,68.5431091772523
184.966620517202,352.182492456812,23.0731371563688,68.642739501566
186.846173916745,353.074306458498,23.0413402209983,68.7446393980929
188.723748575486,353.96665386621,23.0095233370309,68.8489697824997
190.599732537001,354.859376272959,22.977693283293,68.9559099408267
192.474495698548,355.752284845198,22.9458567279185,69.0656590651753
194.348382437622,356.645147617838,22.9401852895798,69.1784261966485
196.221738480625,357.537731712949,23.1153450997882,69.2948937823557
198.094912526668,358.42980237012,23.290427642773,69.4149570810659
199.968256082311,359.321123053235,23.4654087403036,69.5389502565417
201.842123720638,360.21145529778,23.6318962461101,69.6672183481747
203.716872096423,361.100559307976,23.7819132285872,69.8001754295686
205.592792815887,361.988234557468,23.9624350836706,69.9385969767847
207.470453951946,362.874112240617,24.1627376628309,70.0831167693346
209.351284606504,363.757296619041,24.3411576987513,70.2343144374395
211.232925898236,364.639222170096,24.4668834937105,70.3928784219057
213.111530882087,365.522241574868,24.5926950878072,70.5600821605606
214.984749278954,366.39571485983,24.7173414648204,70.7365689115325
216.85657401241,367.245055099833,24.869503929888,70.9230903933803
218.732508726797,368.05261459936,25.0146324664971,71.1199315300355
220.607976268715,368.802494962076,25.1546544945365,71.3271621438565
222.475174443591,369.480820804628,25.2880401176929,71.5448292283052
224.326007451597,370.073904429628,25.4044028617946,71.7718789899268
226.158243076693,370.564208820308,25.4821708472556,72.0067682927915
227.962740940358,370.938884234507,25.5796881916031,72.2464088471032
229.741482120086,371.177218489074,25.6665751321668,72.4861567418676
231.484581297259,371.267349128094,25.7416055949405,72.7278505585998
233.198437606686,371.18430679158,25.803269290196,72.975426909659
234.886128174099,370.906073479913,25.8673453866223,73.2346854086256
236.562283973933,370.399180842479,25.924179566886,73.514174932725
238.252503179798,369.618232892569,25.964845245785,73.7939079503916
239.944914329906,368.559627407183,26.0076764949857,74.0721989261586
241.527625087936,367.322991548147,26.0989367416523,74.3614317258114
242.90693190346,365.991848165295,26.1673078164174,74.6515866020961
244.020480047023,364.625086879596,26.2096431753209,74.933632408352
244.878821279476,363.225416644646,26.2436645666346,75.2129491461397
245.502347632939,361.787415145798,26.2586590515449,75.4659879406423
245.928332868818,360.289690021782,26.250763129553,75.6793274615322
246.178668211544,358.728166571052,26.2221370541574,75.86319775412
246.253688039078,357.128277862124,26.1737113248828,76.0288686410538
246.160501465423,355.504006507431,26.2030326390998,76.1926743168849
245.901986103691,353.878196717685,26.2512511530563,76.3648875694419
245.479566166811,352.277474400163,26.2832663387647,76.5440929168855
244.903659608651,350.699519003536,26.3001402570898,76.730992597221
244.184143434752,349.144152927101,26.3027902286041,76.9258781479535
243.332316054135,347.604231866288,26.2925730728674,77.129266149281
242.356685151189,346.089770113516,26.2698285338501,77.3418918634048
241.262488617432,344.636638704485,26.2450370706486,77.5615682741519
240.055218911619,343.278024169101,26.2180577634374,77.7868355538647
238.741109330981,342.036264878458,26.1856216487152,78.0168828119228
237.327221737919,340.916197514355,26.1620702832617,78.2396708131188
235.820772312747,339.917862976371,26.124889587426,78.4448825228338
234.229111396833,339.035301756611,26.0749320053362,78.6356310536569
232.55954543532,338.265083812214,26.0128905345812,78.8157726890473
230.819547558544,337.593712863118,25.9502152982337,78.9884803561056
229.016390851465,337.017838896759,25.8910897809221,79.1561919708454
227.157677848515,336.521657223514,25.8241044870323,79.3209491231504
225.251334746589,336.08058829573,25.7511993656701,79.4847258705199
223.305358403799,335.668658001781,25.6744033553165,79.6465826042775
221.328478799188,335.248941575616,25.5964630632959,79.8028467415946
219.327398490849,334.808482677518,25.5185356429416,79.9519835621857
217.302516952781,334.39616085787,25.4376130197856,80.098384789434
215.261526233345,333.980676792923,25.3110944327269,80.2490774739958
213.210988730996,333.539075330311,25.1420472599174,80.4061140407935
211.157067325408,333.051022678218,24.9745367798223,80.5664077537728
209.102753046258,332.503618699051,24.8096191717017,80.7289498232477
207.051047436307,331.88390605461,24.6665495449547,80.8938150548995
205.004522500738,331.181103402134,24.5154348306853,81.0598534356289
202.958987371346,330.416855814161,24.3676758445836,81.2254140644487
200.902769165847,329.647327131166,24.2313624859516,81.3852880742731
198.840394123628,328.855915766918,24.1649650295322,81.5365539893593
196.77235870908,328.0436637593,24.1054945168355,81.6812569871121
194.70056744468,327.205578812761,24.0609611882557,81.8212376824706
192.626418677244,326.338799960904,24.0566928812867,81.9579510344354
190.551094445537,325.441364794844,24.0966293418324,82.0926957251769
188.475723530962,324.511530023452,24.1380013609708,82.2268123508265
186.401865938968,323.545788570356,24.1809641993808,82.3612971943687
184.326908158579,322.557670621779,24.2041381599294,82.4942294702389
182.247512540481,321.563671676169,24.2385253029413,82.6230791021083
180.163627335608,320.566739902685,24.2730354440938,82.7476266576926
178.074087365662,319.574454441732,24.2653246928651,82.8682142466422
175.978666756555,318.590442878704,24.0505555720847,82.9856852780611
173.877855727022,317.615281004135,23.8655050675456,83.0997079500902
171.772690424001,316.647187360894,23.6868076981477,83.2106826098062
169.664515181623,315.683033934409,23.4768478803234,83.3190174706401
167.554678784316,314.719673079316,23.2418824730572,83.4249222515077
165.444269506272,313.755114066607,23.006894747736,83.5284746263728
163.333869974848,312.78962152303,22.7836603947193,83.6297716957516
161.223777155333,311.824737777809,22.6741075324741,83.7286402843274
159.114548722832,310.860836704589,22.5695993498936,83.8255398304987
157.006742995003,309.898289291909,22.4651358707083,83.9205797531807
154.900943710926,308.93735216192,22.4096726479165,84.013782218942
152.797766869449,307.978136459144,22.4279546679975,84.1052748988258
150.697857034087,307.020624141947,22.4236943829115,84.195152914174
148.601873455426,306.064730524429,22.4194511806387,84.2834858789311
146.510461004935,305.110436402263,22.4355090659206,84.3704121513679
144.424286986968,304.157620036881,22.4588275183889,84.4573466699428
142.343980218817,303.206336246883,22.4752150686124,84.5456159253544
140.270111778443,302.256905645053,22.4582290589695,84.6352553637784
138.203224332008,301.309780059972,22.4165768768756,84.7263121997378
136.143867484763,300.365379169061,22.3751278607137,84.8188116648249
134.092634486609,299.423919723178,22.3389693261217,84.9127929394387
132.050209762676,298.485192875195,22.3276469405667,85.008299130155
130.017293210887,297.548917228,22.3171911699051,85.105396826855
127.994607186024,296.614705572305,22.3016967887873,85.2041498976962
125.983271009728,295.680291418306,22.2868191090824,85.3046451516244
123.984516415315,294.742874219249,22.2728948550731,85.4069860975876
121.999367022609,293.800644074904,22.2601542222159,85.5112771008448
120.028452240137,292.853667696825,22.2486240748406,85.6176126378599
118.07228978003,291.902542305382,22.2382734757444,85.7260914240266
116.13160116995,290.946902307994,22.2088888363545,85.8368455808696
114.207019208316,289.986797494695,22.1757279585494,85.9500022295024
112.299079165293,289.022728641894,22.1440472915582,86.065701072203
110.408789313167,288.053041269962,22.1195700497746,86.1838157496295
108.537201882559,287.075883773663,22.0657691674799,86.3042045636682
106.68515394015,286.090354269787,22.015462987988,86.4270408777303
104.85289635804,285.09809999118,21.9673732699429,86.5526611018806
103.04048845752,284.101589261336,21.9212645400523,86.681558409586
101.248255265602,283.102167843804,21.7631895304011,86.8142625256608
99.4779872486374,282.09508087761,21.558263659468,86.9502777184345
97.7325004603106,281.071365383703,21.3591956813334,87.0887691792649
96.0136585735715,280.025902418075,21.2019917763567,87.2289050044877
94.3229051347997,278.955230111413,21.0382720486692,87.3696719038619
92.6627040265897,277.851990337455,20.8225534928807,87.5107592297826
91.0361122860187,276.70665403445,20.6037760624772,87.652174855336
89.4437251936969,275.518258748436,20.3839419673965,87.7939527241386
87.8845060307738,274.291223704931,20.1714939844075,87.9358797599327
86.3574409452493,273.029896506421,20.0277678824601,88.0774789008342
84.8614806487423,271.738731034293,19.9274768253513,88.220414324873
83.3945823092513,270.425052689201,19.8312420910771,88.3660887849613
81.9578409717951,269.087457259565,19.7392411420836,88.5136762996223
80.5567831126664,267.712729038491,19.6526409672092,88.662142587679
79.1971173485269,266.287188898497,19.5991562509202,88.8109068001715
77.8767945761552,264.815980094095,19.5626670303435,88.9589629428268
76.5936774513378,263.304450176195,19.5220685751794,89.1061182236656
75.3495585363484,261.749262872664,19.4842980897879,89.2538431365034
74.1471637396787,260.14510948376,19.4495934012278,89.4031526561149
72.9876249681461,258.489914027117,19.4180509804173,89.5545135111763
71.8732760481942,256.779256433769,19.3745162107746,89.7083282069551
70.8056703773013,255.010184496934,19.2795397617558,89.863575906497
69.7795129873242,253.192229645703,19.1098987573241,90.0189550901402
68.7826055813377,251.347171954189,18.9268590010194,90.1735110856041
67.8104402543956,249.483464622247,18.746092577269,90.3252088315234
66.8650480564028,247.598454803024,18.5677465898999,90.4728084328436
65.9457061240876,245.694096985184,18.3918042651598,90.617599817513
65.0488786333304,243.777007432948,18.2362369173947,90.758944678669
64.1721410154949,241.851971404741,18.0688872044264,90.8957153685474
63.3144604178982,239.921492106816,17.9557978188393,91.0276107499826
62.4730450042557,237.990936446152,17.8435612135362,91.154787649479
61.644396582562,236.06680732459,17.7322223927722,91.2802951432215
60.825285666178,234.155182367228,17.6218255177704,91.4078843117787
60.002540494495,232.27762357406,17.512437098814,91.5375996203073
59.1776989194588,230.433150678729,17.3607756034294,91.6702146146733
58.3624871263661,228.605525462277,17.2051077328855,91.8063969760918
57.5696130909307,226.777082905238,17.0505642196024,91.9444370733352
56.812177570508,224.929605957729,16.896709605044,92.0833028631665
56.1001111264608,223.049186712517,16.7432070009796,92.2237622002221
55.4364718101212,221.13098656821,16.5899196971026,92.365280980838
54.8110198907714,219.187337008715,16.4370675162881,92.5065882589714
54.1992803775555,217.248746415031,16.2852480983471,92.6431669856764
53.596552681884,215.320525250139,16.1345425928198,92.7726509560753
53.0032717839704,213.401442226014,15.9848978781788,92.8960419636732
52.4190159303011,211.491358139188,15.8362832226146,93.0140934961119
51.8462843646357,209.586402220115,15.688591176175,93.1275689524476
51.2868164311144,207.683677545543,15.5571255937661,93.2373377454648
50.7451916985593,205.776631677203,15.4277827406631,93.3450970499787
50.2283033999412,203.855710604806,15.2990070943015,93.4521730976908
49.7308534400381,201.927355895048,15.1708606706603,93.5588288113735
49.2481099357339,199.997259550514,15.0433955694907,93.6643428601807
48.7775357254508,198.068174178018,14.9179500321183,93.7672679468496
48.3180923718638,196.140807793307,14.8518063402167,93.8671509782537
47.8700578155787,194.214024362119,14.7721805397442,93.9644536581331
47.4340948628203,192.286130199917,14.6928326710768,94.0597919357876
47.0129842520797,190.352241416565,14.6136637642514,94.1545143619385
46.6093864664153,188.407662937121,14.5345783407028,94.2495225604126
46.2193480721022,186.458481743157,14.4585713800355,94.3450752660124
45.8417366232118,184.506066735287,14.3971355566934,94.4417796505353
45.4771003196179,182.54892534979,14.3359158107422,94.5398775488158
45.1262406362024,180.585128337336,14.2748822862327,94.6389725243652
44.7914542442542,178.610143642764,14.201500229784,94.7387573798969
44.4770097991586,176.615974601177,14.1271486633036,94.8394538780952
44.1845177066942,174.599348135225,14.0752192903928,94.9412459869119
43.91715413435,172.554170913797,14.0538824470459,95.0444525921421
43.6776973141486,170.475076201415,14.0326154103984,95.1491696269859
43.4638620079584,168.366062786477,14.0114231144651,95.2551000514067
43.2714056753603,166.234791146416,13.9903167795779,95.3619300309334
43.0950828741002,164.090813283429,13.9697809725644,95.468595610613
42.9312794895195,161.940589981023,13.9678750561573,95.5734612444556
42.7783574906377,159.786828745787,13.9661120875639,95.6758807603006
42.6328102535644,157.635793244607,13.9644454286791,95.7757740543664
42.4977430818151,155.48115867155,13.9629164668864,95.8736036198131
42.3754464071351,153.318152939486,13.9615557315223,95.9697237939303
42.2632641212981,151.151420594506,13.960324950918,96.0640643966249
42.1587390373081,148.985229085131,13.9591935569181,96.1565708307499
42.0597187662545,146.823271526189,13.9581338141354,96.2472109314981
41.964687151258,144.668048079225,13.9571255853888,96.3359979312119
41.8723099884913,142.521718191662,13.9561511546157,96.4229536662935
41.7799974905689,140.388801659373,13.9256416764311,96.5080125546901
41.6915867794513,138.261617558162,13.8689388433901,96.5915776130936
41.608773184898,136.136623666047,13.8128622835532,96.6738374331868
41.5304473360935,134.015799471468,13.7568954682441,96.754784973888
41.4560539840538,131.900015313589,13.701061404359,96.8344516818822
41.3854624786131,129.789278193396,13.6418836063792,96.9129003793976
41.3187857759474,127.683092050356,13.5676934625511,96.9902177614513
41.2560772354308,125.581085823262,13.4936502958493,97.06644947521
41.1973565910797,123.482960087026,13.4197435570872,97.1416523718088
41.1426122582093,121.388483202763,13.3459650871021,97.2158772686776
41.0917639947636,119.297574559111,13.2723120516325,97.289166550581
41.044699352282,117.210225577878,13.2133753535827,97.3615414698226
41.0013534785099,115.126319398431,13.1583731090253,97.4330532187115
40.9616627256542,113.045736371936,13.1034583348916,97.5037416771458
40.9255573776538,110.968371148674,13.0486282551244,97.5736404751867
40.8929665210921,108.894121252103,12.993880169585,97.6427812217333
40.8638182410295,106.822886654107,12.9582657312837,97.711180034648
40.8380396942911,104.754569639572,12.958482234499,97.7795124855017
40.815557180294,102.68907467218,12.9586982311463,97.8485575318031
40.7962961836844,100.626308328154,12.9589137357493,97.9184437126742
40.7801816041923,98.5661787320038,12.9591287627145,97.9892009786761
40.7671385962304,96.5085933196108,12.9593433265033,98.0608609890044
40.7570899634755,94.4534660241292,12.959554301711,98.1334569954225
40.7499531323718,92.4007259809604,12.9597643349083,98.207023663365
40.745644975555,90.3503039282141,12.9599739482687,98.2815976957777
40.7440832987666,88.302127837844,12.960183154469,98.3572181752663
40.7451834892984,86.2561330317726,12.9603919655916,98.4339263954378
40.7488638529472,84.2122457318955,12.9545130263443,98.5117670248225
40.7550655337579,82.1703190391461,12.947813112589,98.5907900303122
40.7637316279501,80.1301996309842,12.948129017242,98.6710487863486
40.7747854233867,78.0918012301856,12.948476034091,98.7525987450434
40.7881346726125,76.0550916992057,12.948852957727,98.8354967522125
40.8036788356956,74.0200686857344,12.9492584711408,98.9198027187318
40.8213127473467,71.9867469799026,12.9113472350943,99.0055955624815
40.8409292388791,69.955149042875,12.8943677710069,99.0929172778755
40.8624313425833,67.9252569248148,12.877477569667,99.1818559193674
40.8857462669612,65.8969534286342,12.8606727365208,99.2724988668064
40.910804484825,63.8701074460773,12.8439493841759,99.3649419664044
40.9375283335951,61.8446239284701,12.8236291217423,99.4592898486253
40.9658384227205,59.8204158093693,12.8004869779311,99.555655134267
40.9956537712378,57.7974036956876,12.784371419883,99.6541567026923
41.0268919050012,55.7755157366861,12.7683405267422,99.7549339705221
41.0594686908228,53.7546888778375,12.7523893219346,99.8581377077569
41.0932982685868,51.7348697029322,12.7365128223021,99.9639355367946
41.128293075664,49.7160148300959,12.6909640944021,100.07253941899
41.1643640018253,47.6980905441212,12.6400400870007,100.184143993344
41.2014203295427,45.6810738125507,12.5892048536933,100.298980775109
41.2393698151444,43.6649524458822,12.5384520061905,100.417321394763
41.2781186957738,41.6497258538673,12.4877753626474,100.539477639666
41.3176144284616,39.6350531413437,12.4371624640925,100.665833000057
41.3577143785577,37.6214035846026,12.3740651805247,100.796805859137
41.398064857246,35.6113309287354,12.3053412211806,100.932711899919
41.4386559531512,33.6036193929574,12.2367131368093,101.074203842668
41.4801198345609,31.5890923852016,12.1678907429205,101.222687466721
41.522119390147,29.5724627340707,12.0990224150167,101.378776192055
41.5641904394141,27.5605611527474,12.0303231967082,101.543080454457
41.6064107927277,25.5495057797614,11.9616593654128,101.717366957764
41.6486689448776,23.5400859217568,11.8930551699002,101.897567045715
